<?xml version="1.0" encoding="UTF-8" standalone="no"?>
<!-- Created with Inkscape (http://www.inkscape.org/) -->

<svg
   width="83.980095mm"
   height="189.2422mm"
   viewBox="0 0 83.980095 189.2422"
   version="1.1"
   id="svg5"
   inkscape:version="1.1.2 (1:1.1+202202050852+0a00cf5339)"
   sodipodi:docname="comparativa3.svg"
   inkscape:export-filename="/media/david/ExtraPineidenX/Magister/Semestre2/analisis_avanzado_algoritmos/tarea/t4/comparativa3.png"
   inkscape:export-xdpi="199.60001"
   inkscape:export-ydpi="199.60001"
   xmlns:inkscape="http://www.inkscape.org/namespaces/inkscape"
   xmlns:sodipodi="http://sodipodi.sourceforge.net/DTD/sodipodi-0.dtd"
   xmlns:xlink="http://www.w3.org/1999/xlink"
   xmlns="http://www.w3.org/2000/svg"
   xmlns:svg="http://www.w3.org/2000/svg">
  <sodipodi:namedview
     id="namedview7"
     pagecolor="#ffffff"
     bordercolor="#666666"
     borderopacity="1.0"
     inkscape:pageshadow="2"
     inkscape:pageopacity="0.0"
     inkscape:pagecheckerboard="0"
     inkscape:document-units="mm"
     showgrid="false"
     showguides="true"
     inkscape:guide-bbox="true"
     fit-margin-top="0"
     fit-margin-left="0"
     fit-margin-right="0"
     fit-margin-bottom="0"
     inkscape:zoom="0.74118967"
     inkscape:cx="192.25848"
     inkscape:cy="459.39658"
     inkscape:window-width="1920"
     inkscape:window-height="1015"
     inkscape:window-x="0"
     inkscape:window-y="0"
     inkscape:window-maximized="1"
     inkscape:current-layer="layer1">
    <sodipodi:guide
       position="19.967357,118.43577"
       orientation="1,0"
       id="guide589" />
    <sodipodi:guide
       position="42.790016,113.42174"
       orientation="1,0"
       id="guide591" />
    <sodipodi:guide
       position="132.65037,86.413148"
       orientation="1,0"
       id="guide593" />
    <sodipodi:guide
       position="27.912818,108.25203"
       orientation="1,0"
       id="guide595" />
  </sodipodi:namedview>
  <defs
     id="defs2">
    <inkscape:path-effect
       effect="spiro"
       id="path-effect718"
       is_visible="true"
       lpeversion="1" />
    <inkscape:path-effect
       effect="spiro"
       id="path-effect632"
       is_visible="true"
       lpeversion="1" />
  </defs>
  <g
     inkscape:label="Capa 1"
     inkscape:groupmode="layer"
     id="layer1"
     transform="translate(-23.847998,-49.125806)">
    <image
       width="83.980095"
       height="62.985065"
       preserveAspectRatio="none"
       xlink:href="p_a_p_b.png"
       id="image561"
       x="23.847998"
       y="49.412815" />
    <image
       width="83.980095"
       height="62.985065"
       preserveAspectRatio="none"
       xlink:href="p_a_p_b_n10.png"
       id="image573"
       x="23.847998"
       y="175.38295" />
    <image
       width="83.980095"
       height="62.985065"
       preserveAspectRatio="none"
       xlink:href="p_a_p_b_n7.png"
       id="image585"
       x="23.847998"
       y="112.39788" />
    <path
       style="fill:none;stroke:#ff0000;stroke-width:0.265;stroke-linecap:butt;stroke-linejoin:miter;stroke-miterlimit:4;stroke-dasharray:0.53, 0.53;stroke-dashoffset:0;stroke-opacity:1"
       d="M 43.815354,49.125806 V 234.56156"
       id="path630"
       inkscape:path-effect="#path-effect632"
       inkscape:original-d="m 43.815354,49.125806 c 2.65e-4,61.812184 2.65e-4,123.624104 0,185.435754" />
    <path
       style="fill:none;stroke:#ff0000;stroke-width:0.265;stroke-linecap:butt;stroke-linejoin:miter;stroke-miterlimit:4;stroke-dasharray:0.53, 0.53;stroke-dashoffset:0;stroke-opacity:1"
       d="M 51.752859,49.125806 V 234.56156"
       id="path714"
       inkscape:path-effect="#path-effect718"
       inkscape:original-d="m 51.752859,49.125806 c 2.65e-4,61.812184 2.65e-4,123.624104 0,185.435754" />
  </g>
</svg>
