<?xml version="1.0" encoding="UTF-8" standalone="no"?>
<!-- Created with Inkscape (http://www.inkscape.org/) -->

<svg
   width="150.37422mm"
   height="56.390324mm"
   viewBox="0 0 150.37422 56.390324"
   version="1.1"
   id="svg5"
   inkscape:version="1.1.2 (1:1.1+202202050852+0a00cf5339)"
   sodipodi:docname="comparativa.svg"
   inkscape:export-filename="/media/david/ExtraPineidenX/Magister/Semestre2/analisis_avanzado_algoritmos/tarea/t4/comparativa.png"
   inkscape:export-xdpi="199.60001"
   inkscape:export-ydpi="199.60001"
   xmlns:inkscape="http://www.inkscape.org/namespaces/inkscape"
   xmlns:sodipodi="http://sodipodi.sourceforge.net/DTD/sodipodi-0.dtd"
   xmlns:xlink="http://www.w3.org/1999/xlink"
   xmlns="http://www.w3.org/2000/svg"
   xmlns:svg="http://www.w3.org/2000/svg">
  <sodipodi:namedview
     id="namedview7"
     pagecolor="#ffffff"
     bordercolor="#666666"
     borderopacity="1.0"
     inkscape:pageshadow="2"
     inkscape:pageopacity="0.0"
     inkscape:pagecheckerboard="0"
     inkscape:document-units="mm"
     showgrid="false"
     fit-margin-top="0"
     fit-margin-left="0"
     fit-margin-right="0"
     fit-margin-bottom="0"
     inkscape:zoom="1.4823793"
     inkscape:cx="257.01924"
     inkscape:cy="163.92566"
     inkscape:window-width="1485"
     inkscape:window-height="1016"
     inkscape:window-x="208"
     inkscape:window-y="0"
     inkscape:window-maximized="0"
     inkscape:current-layer="layer1" />
  <defs
     id="defs2" />
  <g
     inkscape:label="Capa 1"
     inkscape:groupmode="layer"
     id="layer1"
     transform="translate(-25.825144,-87.718483)">
    <image
       width="75.187111"
       height="56.390324"
       preserveAspectRatio="none"
       xlink:href="sum_ave_a_ave_b_n10.png"
       id="image282"
       x="101.01225"
       y="87.718483" />
    <image
       width="75.187111"
       height="56.390324"
       preserveAspectRatio="none"
       xlink:href="sum_ave_a_ave_b_n7.png"
       id="image294"
       x="25.825144"
       y="87.718483" />
  </g>
</svg>
