<?xml version="1.0" encoding="UTF-8" standalone="no"?>
<!-- Created with Inkscape (http://www.inkscape.org/) -->

<svg
   width="132.56989mm"
   height="44.080681mm"
   viewBox="0 0 132.56989 44.080681"
   version="1.1"
   id="svg5"
   inkscape:version="1.1.2 (1:1.1+202202050852+0a00cf5339)"
   sodipodi:docname="secuencia.svg"
   inkscape:export-filename="/media/david/ExtraPineidenX/Magister/Semestre2/analisis_avanzado_algoritmos/tarea/1/secuencia.png"
   inkscape:export-xdpi="199.60001"
   inkscape:export-ydpi="199.60001"
   xmlns:inkscape="http://www.inkscape.org/namespaces/inkscape"
   xmlns:sodipodi="http://sodipodi.sourceforge.net/DTD/sodipodi-0.dtd"
   xmlns="http://www.w3.org/2000/svg"
   xmlns:svg="http://www.w3.org/2000/svg">
  <sodipodi:namedview
     id="namedview7"
     pagecolor="#ffffff"
     bordercolor="#666666"
     borderopacity="1.0"
     inkscape:pageshadow="2"
     inkscape:pageopacity="0.0"
     inkscape:pagecheckerboard="0"
     inkscape:document-units="mm"
     showgrid="false"
     inkscape:zoom="1.4823793"
     inkscape:cx="214.85728"
     inkscape:cy="103.54974"
     inkscape:window-width="1920"
     inkscape:window-height="1055"
     inkscape:window-x="1920"
     inkscape:window-y="13"
     inkscape:window-maximized="1"
     inkscape:current-layer="layer1"
     fit-margin-top="0"
     fit-margin-left="0"
     fit-margin-right="0"
     fit-margin-bottom="0" />
  <defs
     id="defs2" />
  <g
     inkscape:label="Capa 1"
     inkscape:groupmode="layer"
     id="layer1"
     transform="translate(-39.770763,-51.673789)">
    <rect
       style="fill:#1dfe4f;fill-opacity:0.425426;stroke:#000000;stroke-width:0.529"
       id="rect846"
       width="11.2174"
       height="11.2174"
       x="98.8078"
       y="60.162518" />
    <circle
       style="fill:#fe611d;fill-opacity:0.425426;stroke:#000000;stroke-width:0.529"
       id="path950"
       cx="88.50692"
       cy="65.882278"
       r="1.85052" />
    <circle
       style="fill:#fe611d;fill-opacity:0.425426;stroke:#000000;stroke-width:0.529"
       id="circle1032"
       cx="79.292831"
       cy="65.882278"
       r="1.85052" />
    <circle
       style="fill:#fe611d;fill-opacity:0.425426;stroke:#000000;stroke-width:0.529"
       id="circle1034"
       cx="70.078743"
       cy="65.882278"
       r="1.85052" />
    <circle
       style="fill:#fe611d;fill-opacity:0.425426;stroke:#000000;stroke-width:0.529"
       id="circle1036"
       cx="60.864647"
       cy="65.882278"
       r="1.85052" />
    <circle
       style="fill:#fe611d;fill-opacity:0.425426;stroke:#000000;stroke-width:0.529"
       id="circle1038"
       cx="51.650555"
       cy="65.882278"
       r="1.85052" />
    <circle
       style="fill:#fe611d;fill-opacity:0.425426;stroke:#000000;stroke-width:0.529"
       id="circle1040"
       cx="42.436462"
       cy="65.882278"
       r="1.85052" />
    <circle
       style="fill:#fede1d;fill-opacity:0.425426;stroke:#000000;stroke-width:0.529"
       id="circle1042"
       cx="166.40175"
       cy="65.882278"
       r="1.85052" />
    <circle
       style="fill:#fede1d;fill-opacity:0.425426;stroke:#000000;stroke-width:0.529"
       id="circle1044"
       cx="157.18767"
       cy="65.882278"
       r="1.85052" />
    <circle
       style="fill:#fede1d;fill-opacity:0.425426;stroke:#000000;stroke-width:0.529"
       id="circle1046"
       cx="147.97357"
       cy="65.882278"
       r="1.85052" />
    <circle
       style="fill:#fede1d;fill-opacity:0.425426;stroke:#000000;stroke-width:0.529"
       id="circle1048"
       cx="138.75948"
       cy="65.882278"
       r="1.85052" />
    <circle
       style="fill:#fede1d;fill-opacity:0.425426;stroke:#000000;stroke-width:0.529"
       id="circle1050"
       cx="129.54539"
       cy="65.882278"
       r="1.85052" />
    <circle
       style="fill:#fede1d;fill-opacity:0.425426;stroke:#000000;stroke-width:0.529"
       id="circle1052"
       cx="120.3313"
       cy="65.882278"
       r="1.85052" />
    <text
       xml:space="preserve"
       style="font-style:normal;font-weight:normal;font-size:7.01067px;line-height:1.25;font-family:sans-serif;letter-spacing:0px;word-spacing:0px;fill:#000000;fill-opacity:1;stroke:none;stroke-width:0.175267"
       x="40.262005"
       y="57.000256"
       id="text3504"><tspan
         sodipodi:role="line"
         id="tspan3502"
         style="stroke-width:0.175267"
         x="40.262005"
         y="57.000256">n</tspan></text>
    <text
       xml:space="preserve"
       style="font-style:normal;font-weight:normal;font-size:7.01067px;line-height:1.25;font-family:sans-serif;letter-spacing:0px;word-spacing:0px;fill:#000000;fill-opacity:1;stroke:none;stroke-width:0.175267"
       x="103.83456"
       y="57.000256"
       id="text5172"><tspan
         sodipodi:role="line"
         id="tspan5170"
         style="stroke-width:0.175267"
         x="103.83456"
         y="57.000256">j</tspan></text>
    <text
       xml:space="preserve"
       style="font-style:normal;font-weight:normal;font-size:10.5833px;line-height:1.25;font-family:sans-serif;letter-spacing:0px;word-spacing:0px;white-space:pre;inline-size:0;fill:#000000;fill-opacity:1;stroke:none;stroke-width:0.264583"
       x="165.28867"
       y="56.257118"
       id="text7256"
       transform="matrix(0.66242734,0,0,0.66242734,54.6182,19.734001)"><tspan
         id="tspan7254"
         style="stroke-width:0.264583"
         x="165.28867"
         y="56.257118">1</tspan></text>
    <text
       xml:space="preserve"
       style="font-style:normal;font-weight:normal;font-size:5.86403px;line-height:1.25;font-family:sans-serif;letter-spacing:0px;word-spacing:0px;fill:#4392ff;fill-opacity:1;stroke:none;stroke-width:0.146601"
       x="102.10868"
       y="67.905807"
       id="text11073"><tspan
         sodipodi:role="line"
         id="tspan11071"
         style="fill:#4392ff;fill-opacity:1;stroke-width:0.146601"
         x="102.10868"
         y="67.905807">O</tspan></text>
    <text
       xml:space="preserve"
       style="font-style:normal;font-weight:normal;font-size:41.7804px;line-height:1.25;font-family:sans-serif;letter-spacing:0px;word-spacing:0px;fill:#000000;fill-opacity:1;stroke:none;stroke-width:1.04451"
       x="126.0525"
       y="-28.623133"
       id="text13356"
       transform="matrix(0,0.54837612,-1.8235659,0,0,0)"><tspan
         sodipodi:role="line"
         id="tspan13354"
         style="stroke-width:1.04451"
         x="126.0525"
         y="-28.623133">}</tspan></text>
    <text
       xml:space="preserve"
       style="font-style:normal;font-weight:normal;font-size:31.1169px;line-height:1.25;font-family:sans-serif;letter-spacing:0px;word-spacing:0px;fill:#000000;fill-opacity:1;stroke:none;stroke-width:0.777924"
       x="127.38544"
       y="-69.412941"
       id="text14224"
       transform="matrix(0,0.54837612,-1.8235659,0,0,0)"><tspan
         sodipodi:role="line"
         id="tspan14222"
         style="stroke-width:0.777924"
         x="127.38544"
         y="-69.412941">}</tspan></text>
    <text
       xml:space="preserve"
       style="font-style:normal;font-weight:normal;font-size:6.62077px;line-height:1.25;font-family:sans-serif;text-align:center;letter-spacing:0px;word-spacing:0px;text-anchor:middle;fill:#000000;fill-opacity:1;stroke:none;stroke-width:0.165519"
       x="74.743385"
       y="87.384758"
       id="text15856"><tspan
         sodipodi:role="line"
         id="tspan15854"
         style="text-align:center;text-anchor:middle;stroke-width:0.165519"
         x="74.743385"
         y="87.384758">n-j+1</tspan><tspan
         sodipodi:role="line"
         style="text-align:center;text-anchor:middle;stroke-width:0.165519"
         x="74.743385"
         y="95.660721"
         id="tspan28595">Caso avanzar</tspan></text>
    <text
       xml:space="preserve"
       style="font-style:normal;font-weight:normal;font-size:7.37745px;line-height:1.25;font-family:sans-serif;text-align:center;letter-spacing:0px;word-spacing:0px;text-anchor:middle;fill:#000000;fill-opacity:1;stroke:none;stroke-width:0.184437"
       x="145.2876"
       y="84.979492"
       id="text16504"><tspan
         sodipodi:role="line"
         id="tspan16502"
         style="text-align:center;text-anchor:middle;stroke-width:0.184437"
         x="145.2876"
         y="84.979492">(j-1)</tspan><tspan
         sodipodi:role="line"
         style="text-align:center;text-anchor:middle;stroke-width:0.184437"
         x="145.2876"
         y="94.201302"
         id="tspan23829">Caso quedarse</tspan></text>
  </g>
</svg>
