<?xml version='1.0' encoding='UTF-8'?>
<!-- This file was generated by dvisvgm 2.8.1 -->
<svg version='1.1' xmlns='http://www.w3.org/2000/svg' xmlns:xlink='http://www.w3.org/1999/xlink' width='9.032826pt' height='7.935944pt' viewBox='-16.945024 12.282526 9.032826 7.935944'>
<defs>
<path id='g0-9' d='M4.254047-6.017435C4.254047-6.356164 4.254047-6.495641 5.200498-6.495641H5.529265V-6.804483C5.17061-6.774595 4.254047-6.774595 3.845579-6.774595S2.510585-6.774595 2.15193-6.804483V-6.495641H2.480697C3.427148-6.495641 3.427148-6.366127 3.427148-6.017435V-1.594022C2.122042-1.942715 2.072229-3.476961 2.072229-4.124533C2.062267-5.330012 1.62391-5.519303 1.185554-5.519303H.816936C.667497-5.519303 .56787-5.519303 .56787-5.409714C.56787-5.3599 .597758-5.310087 .657534-5.300125C.986301-5.260274 1.235367-5.120797 1.24533-3.945205C1.24533-3.716065 1.275218-2.929016 1.753425-2.261519C2.141968-1.723537 2.749689-1.43462 3.427148-1.344956V-.787049C3.427148-.448319 3.427148-.308842 2.480697-.308842H2.15193V0C2.510585-.029888 3.427148-.029888 3.835616-.029888S5.17061-.029888 5.529265 0V-.308842H5.200498C4.254047-.308842 4.254047-.438356 4.254047-.787049V-1.344956C4.971357-1.43462 5.579078-1.733499 5.967621-2.251557C6.485679-2.958904 6.495641-3.745953 6.495641-4.184309C6.495641-4.343711 6.505604-5.230386 7.043587-5.300125C7.103362-5.310087 7.173101-5.32005 7.173101-5.409714C7.173101-5.519303 7.0934-5.519303 6.933998-5.519303H6.555417C6.166874-5.519303 5.678705-5.449564 5.668742-4.004981C5.65878-2.909091 5.330012-1.853051 4.254047-1.594022V-6.017435Z'/>
</defs>
<g id='page1' transform='matrix(1.165714 0 0 1.165714 0 0)'>
<rect x='-14.536172' y='10.536481' width='7.748748' height='6.807795' fill='#242424'/>
<g fill='#f6f3e8'>
<use x='-14.536172' y='17.344276' xlink:href='#g0-9'/>
</g>
</g>
</svg>