<?xml version='1.0' encoding='UTF-8'?>
<!-- This file was generated by dvisvgm 2.8.1 -->
<svg version='1.1' xmlns='http://www.w3.org/2000/svg' xmlns:xlink='http://www.w3.org/1999/xlink' width='112.383382pt' height='26.072668pt' viewBox='216.295352 21.960423 112.383382 26.072668'>
<defs>
<path id='g3-49' d='M2.336239-4.435367C2.336239-4.623661 2.322291-4.630635 2.127024-4.630635C1.680697-4.191283 1.046077-4.184309 .760149-4.184309V-3.93325C.927522-3.93325 1.387796-3.93325 1.771357-4.128518V-.571856C1.771357-.341719 1.771357-.251059 1.073973-.251059H.808966V0C.934496-.006974 1.792279-.027895 2.050311-.027895C2.266501-.027895 3.145205-.006974 3.29863 0V-.251059H3.033624C2.336239-.251059 2.336239-.341719 2.336239-.571856V-4.435367Z'/>
<path id='g3-58' d='M1.527273-2.601245C1.527273-2.84533 1.332005-3.005729 1.129763-3.005729C.885679-3.005729 .72528-2.810461 .72528-2.608219C.72528-2.364134 .920548-2.203736 1.12279-2.203736C1.366874-2.203736 1.527273-2.399004 1.527273-2.601245ZM1.527273-.397509C1.527273-.641594 1.332005-.801993 1.129763-.801993C.885679-.801993 .72528-.606725 .72528-.404483C.72528-.160399 .920548 0 1.12279 0C1.366874 0 1.527273-.195268 1.527273-.397509Z'/>
<path id='g1-58' d='M1.583064-.397509C1.583064-.648568 1.373848-.801993 1.185554-.801993C.955417-.801993 .781071-.613699 .781071-.404483C.781071-.153425 .990286 0 1.17858 0C1.408717 0 1.583064-.188294 1.583064-.397509Z'/>
<path id='g1-78' d='M5.816189-4.002989C5.885928-4.267995 5.997509-4.498132 6.555417-4.51208C6.590286-4.51208 6.694894-4.519054 6.694894-4.665504C6.694894-4.707347 6.660025-4.763138 6.590286-4.763138C6.360149-4.763138 6.102117-4.735243 5.865006-4.735243C5.697634-4.735243 5.293151-4.763138 5.125778-4.763138C5.090909-4.763138 4.986301-4.763138 4.986301-4.609714C4.986301-4.519054 5.076961-4.51208 5.139726-4.51208C5.467497-4.505106 5.586052-4.400498 5.586052-4.226152C5.586052-4.170361 5.579078-4.135492 5.558157-4.05878L4.798007-1.018182L3.02665-4.644583C2.970859-4.763138 2.956912-4.763138 2.789539-4.763138H1.834122C1.701619-4.763138 1.610959-4.763138 1.610959-4.609714C1.610959-4.51208 1.694645-4.51208 1.841096-4.51208S2.140971-4.505106 2.287422-4.47721L1.352927-.746202C1.290162-.481196 1.171606-.27198 .627646-.251059C.578829-.251059 .481196-.244085 .481196-.104608C.481196-.027895 .536986 0 .585803 0C.81594 0 1.073973-.027895 1.311083-.027895C1.478456-.027895 1.882939 0 2.050311 0C2.12005 0 2.189788-.034869 2.189788-.146451C2.189788-.244085 2.106102-.251059 2.02939-.251059C1.590037-.265006 1.590037-.446326 1.590037-.54396C1.590037-.571856 1.590037-.606725 1.617933-.718306L2.510585-4.288917L4.546949-.118555C4.60274-.006974 4.630635 0 4.700374 0C4.811955 0 4.811955-.020922 4.846824-.146451L5.816189-4.002989Z'/>
<path id='g1-110' d='M.850809-.439352C.822914-.348692 .781071-.174346 .781071-.153425C.781071 0 .9066 .069738 1.018182 .069738C1.143711 .069738 1.255293-.020922 1.290162-.083686S1.380822-.369614 1.415691-.516065C1.45056-.648568 1.527273-.969365 1.569116-1.143711C1.610959-1.297136 1.652802-1.45056 1.687671-1.610959C1.764384-1.896887 1.778331-1.952677 1.980573-2.238605C2.175841-2.517559 2.503611-2.880199 3.02665-2.880199C3.431133-2.880199 3.438107-2.524533 3.438107-2.39203C3.438107-1.973599 3.138232-1.199502 3.02665-.9066C2.949938-.711333 2.922042-.648568 2.922042-.530012C2.922042-.160399 3.228892 .069738 3.584558 .069738C4.281943 .069738 4.588792-.892653 4.588792-.99726C4.588792-1.08792 4.498132-1.08792 4.47721-1.08792C4.379577-1.08792 4.372603-1.046077 4.344707-.969365C4.184309-.411457 3.884433-.125529 3.605479-.125529C3.459029-.125529 3.431133-.223163 3.431133-.369614C3.431133-.530012 3.466002-.620672 3.591532-.934496C3.675218-1.150685 3.961146-1.889913 3.961146-2.280448C3.961146-2.956912 3.424159-3.075467 3.054545-3.075467C2.475716-3.075467 2.085181-2.719801 1.875965-2.440847C1.827148-2.922042 1.415691-3.075467 1.129763-3.075467C.829888-3.075467 .669489-2.859278 .578829-2.698879C.425405-2.440847 .327771-2.043337 .327771-2.008468C.327771-1.917808 .425405-1.917808 .446326-1.917808C.54396-1.917808 .550934-1.93873 .599751-2.127024C.704359-2.538481 .836862-2.880199 1.108842-2.880199C1.290162-2.880199 1.338979-2.726775 1.338979-2.538481C1.338979-2.405978 1.276214-2.147945 1.227397-1.959651S1.108842-1.48543 1.073973-1.332005L.850809-.439352Z'/>
<path id='g4-88' d='M12.612702 13.947696L13.818182 10.759651H13.569116C13.180573 11.795766 12.124533 12.473225 10.978829 12.772105C10.769614 12.821918 9.793275 13.080946 7.880448 13.080946H1.872976L6.94396 7.13325C7.013699 7.053549 7.033624 7.023661 7.033624 6.973848C7.033624 6.953923 7.033624 6.924035 6.963885 6.824408L2.321295 .478207H7.780822C9.115816 .478207 10.022416 .617684 10.11208 .637609C10.650062 .71731 11.516812 .886675 12.303861 1.384807C12.552927 1.544209 13.230386 1.992528 13.569116 2.799502H13.818182L12.612702 0H.836862C.607721 0 .597758 .009963 .56787 .069738C.557908 .099626 .557908 .288917 .557908 .398506L5.828144 7.611457L.667497 13.65878C.56787 13.778331 .56787 13.828144 .56787 13.838107C.56787 13.947696 .657534 13.947696 .836862 13.947696H12.612702Z'/>
<path id='g2-40' d='M3.297634 2.391034C3.297634 2.361146 3.297634 2.34122 3.128269 2.171856C1.882939 .916563 1.564134-.966376 1.564134-2.49066C1.564134-4.224159 1.942715-5.957659 3.16812-7.202989C3.297634-7.32254 3.297634-7.342466 3.297634-7.372354C3.297634-7.442092 3.257783-7.47198 3.198007-7.47198C3.098381-7.47198 2.201743-6.794521 1.613948-5.529265C1.105853-4.433375 .986301-3.327522 .986301-2.49066C.986301-1.713574 1.09589-.508095 1.643836 .617684C2.241594 1.843088 3.098381 2.49066 3.198007 2.49066C3.257783 2.49066 3.297634 2.460772 3.297634 2.391034Z'/>
<path id='g2-41' d='M2.879203-2.49066C2.879203-3.267746 2.769614-4.473225 2.221669-5.599004C1.62391-6.824408 .767123-7.47198 .667497-7.47198C.607721-7.47198 .56787-7.43213 .56787-7.372354C.56787-7.342466 .56787-7.32254 .757161-7.143213C1.733499-6.156912 2.30137-4.572852 2.30137-2.49066C2.30137-.787049 1.932752 .966376 .697385 2.221669C.56787 2.34122 .56787 2.361146 .56787 2.391034C.56787 2.450809 .607721 2.49066 .667497 2.49066C.767123 2.49066 1.663761 1.8132 2.251557 .547945C2.759651-.547945 2.879203-1.653798 2.879203-2.49066Z'/>
<path id='g2-61' d='M6.844334-3.257783C6.993773-3.257783 7.183064-3.257783 7.183064-3.457036S6.993773-3.656289 6.854296-3.656289H.886675C.747198-3.656289 .557908-3.656289 .557908-3.457036S.747198-3.257783 .896638-3.257783H6.844334ZM6.854296-1.325031C6.993773-1.325031 7.183064-1.325031 7.183064-1.524284S6.993773-1.723537 6.844334-1.723537H.896638C.747198-1.723537 .557908-1.723537 .557908-1.524284S.747198-1.325031 .886675-1.325031H6.854296Z'/>
<path id='g0-77' d='M9.225405-6.03736C9.315068-6.396015 9.334994-6.495641 10.082192-6.495641C10.311333-6.495641 10.400996-6.495641 10.400996-6.694894C10.400996-6.804483 10.30137-6.804483 10.132005-6.804483H8.816936C8.557908-6.804483 8.547945-6.804483 8.428394-6.615193L4.79203-.936488L4.014944-6.575342C3.985056-6.804483 3.965131-6.804483 3.706102-6.804483H2.34122C2.15193-6.804483 2.042341-6.804483 2.042341-6.615193C2.042341-6.495641 2.132005-6.495641 2.331258-6.495641C2.460772-6.495641 2.6401-6.485679 2.759651-6.475716C2.919054-6.455791 2.978829-6.425903 2.978829-6.316314C2.978829-6.276463 2.968867-6.246575 2.938979-6.127024L1.673724-1.05604C1.574097-.657534 1.404732-.33873 .597758-.308842C.547945-.308842 .418431-.298879 .418431-.119552C.418431-.029888 .478207 0 .557908 0C.876712 0 1.225405-.029888 1.554172-.029888C1.892902-.029888 2.251557 0 2.580324 0C2.630137 0 2.759651 0 2.759651-.199253C2.759651-.308842 2.650062-.308842 2.580324-.308842C2.012453-.318804 1.902864-.518057 1.902864-.747198C1.902864-.816936 1.912827-.86675 1.942715-.976339L3.297634-6.405978H3.307597L4.164384-.229141C4.184309-.109589 4.194271 0 4.313823 0C4.423412 0 4.483188-.109589 4.533001-.179328L8.557908-6.485679H8.56787L7.143213-.777086C7.043587-.388543 7.023661-.308842 6.236613-.308842C6.067248-.308842 5.957659-.308842 5.957659-.119552C5.957659 0 6.07721 0 6.107098 0C6.386052 0 7.063512-.029888 7.342466-.029888C7.750934-.029888 8.179328 0 8.587796 0C8.647572 0 8.777086 0 8.777086-.199253C8.777086-.308842 8.687422-.308842 8.498132-.308842C8.129514-.308842 7.85056-.308842 7.85056-.488169C7.85056-.52802 7.85056-.547945 7.900374-.727273L9.225405-6.03736Z'/>
<path id='g0-78' d='M7.531756-5.758406C7.631382-6.156912 7.81071-6.465753 8.607721-6.495641C8.657534-6.495641 8.777086-6.505604 8.777086-6.694894C8.777086-6.704857 8.777086-6.804483 8.647572-6.804483C8.318804-6.804483 7.970112-6.774595 7.641345-6.774595C7.302615-6.774595 6.953923-6.804483 6.625156-6.804483C6.56538-6.804483 6.445828-6.804483 6.445828-6.60523C6.445828-6.495641 6.545455-6.495641 6.625156-6.495641C7.193026-6.485679 7.302615-6.276463 7.302615-6.057285C7.302615-6.027397 7.28269-5.877958 7.272727-5.84807L6.156912-1.414695L3.955168-6.615193C3.875467-6.794521 3.865504-6.804483 3.636364-6.804483H2.30137C2.102117-6.804483 2.012453-6.804483 2.012453-6.60523C2.012453-6.495641 2.102117-6.495641 2.291407-6.495641C2.34122-6.495641 2.968867-6.495641 2.968867-6.405978L1.633873-1.05604C1.534247-.657534 1.364882-.33873 .557908-.308842C.498132-.308842 .388543-.298879 .388543-.109589C.388543-.039851 .438356 0 .518057 0C.836862 0 1.185554-.029888 1.514321-.029888C1.853051-.029888 2.211706 0 2.540473 0C2.590286 0 2.719801 0 2.719801-.199253C2.719801-.298879 2.630137-.308842 2.520548-.308842C1.942715-.328767 1.863014-.547945 1.863014-.747198C1.863014-.816936 1.872976-.86675 1.902864-.976339L3.217933-6.236613C3.257783-6.176837 3.257783-6.156912 3.307597-6.057285L5.788294-.18929C5.858032-.019925 5.88792 0 5.977584 0C6.087173 0 6.087173-.029888 6.136986-.209215L7.531756-5.758406Z'/>
<path id='g0-84' d='M4.254047-6.047323C4.323786-6.326276 4.363636-6.386052 4.483188-6.41594C4.572852-6.435866 4.901619-6.435866 5.110834-6.435866C6.117061-6.435866 6.56538-6.396015 6.56538-5.618929C6.56538-5.469489 6.525529-5.080946 6.485679-4.821918C6.475716-4.782067 6.455791-4.662516 6.455791-4.632628C6.455791-4.572852 6.485679-4.503113 6.575342-4.503113C6.684932-4.503113 6.704857-4.582814 6.724782-4.732254L6.993773-6.465753C7.003736-6.505604 7.013699-6.60523 7.013699-6.635118C7.013699-6.744707 6.914072-6.744707 6.744707-6.744707H1.215442C.976339-6.744707 .966376-6.734745 .896638-6.545455L.298879-4.79203C.288917-4.772105 .239103-4.632628 .239103-4.612702C.239103-4.552927 .288917-4.503113 .358655-4.503113C.458281-4.503113 .468244-4.552927 .52802-4.712329C1.066002-6.256538 1.325031-6.435866 2.799502-6.435866H3.188045C3.466999-6.435866 3.466999-6.396015 3.466999-6.316314C3.466999-6.256538 3.437111-6.136986 3.427148-6.107098L2.092154-.787049C2.002491-.418431 1.972603-.308842 .9066-.308842C.547945-.308842 .488169-.308842 .488169-.119552C.488169 0 .597758 0 .657534 0C.926526 0 1.205479-.019925 1.474471-.019925C1.753425-.019925 2.042341-.029888 2.321295-.029888S2.879203-.019925 3.148194-.019925C3.437111-.019925 3.73599 0 4.014944 0C4.11457 0 4.234122 0 4.234122-.199253C4.234122-.308842 4.154421-.308842 3.895392-.308842C3.646326-.308842 3.516812-.308842 3.257783-.328767C2.968867-.358655 2.889166-.388543 2.889166-.547945C2.889166-.557908 2.889166-.607721 2.929016-.757161L4.254047-6.047323Z'/>
<path id='g0-110' d='M.876712-.587796C.846824-.438356 .787049-.209215 .787049-.159402C.787049 .019925 .926526 .109589 1.075965 .109589C1.195517 .109589 1.374844 .029888 1.444583-.169365C1.454545-.18929 1.574097-.657534 1.633873-.9066L1.853051-1.803238C1.912827-2.022416 1.972603-2.241594 2.022416-2.470735C2.062267-2.6401 2.141968-2.929016 2.15193-2.968867C2.30137-3.277709 2.82939-4.184309 3.775841-4.184309C4.224159-4.184309 4.313823-3.815691 4.313823-3.486924C4.313823-2.86924 3.825654-1.594022 3.666252-1.165629C3.576588-.936488 3.566625-.816936 3.566625-.707347C3.566625-.239103 3.915318 .109589 4.383562 .109589C5.32005 .109589 5.688667-1.344956 5.688667-1.424658C5.688667-1.524284 5.599004-1.524284 5.569116-1.524284C5.469489-1.524284 5.469489-1.494396 5.419676-1.344956C5.220423-.667497 4.891656-.109589 4.403487-.109589C4.234122-.109589 4.164384-.209215 4.164384-.438356C4.164384-.687422 4.254047-.926526 4.343711-1.145704C4.533001-1.673724 4.951432-2.769614 4.951432-3.337484C4.951432-4.004981 4.523039-4.403487 3.805729-4.403487C2.909091-4.403487 2.420922-3.765878 2.251557-3.536737C2.201743-4.094645 1.793275-4.403487 1.334994-4.403487S.687422-4.014944 .587796-3.835616C.428394-3.496887 .288917-2.909091 .288917-2.86924C.288917-2.769614 .388543-2.769614 .408468-2.769614C.508095-2.769614 .518057-2.779577 .577833-2.998755C.747198-3.706102 .946451-4.184309 1.305106-4.184309C1.504359-4.184309 1.613948-4.054795 1.613948-3.726027C1.613948-3.516812 1.58406-3.407223 1.454545-2.889166L.876712-.587796Z'/>
<path id='g0-122' d='M1.325031-.826899C1.863014-1.404732 2.15193-1.653798 2.510585-1.96264C2.510585-1.972603 3.128269-2.500623 3.486924-2.859278C4.433375-3.785803 4.652553-4.26401 4.652553-4.303861C4.652553-4.403487 4.562889-4.403487 4.542964-4.403487C4.473225-4.403487 4.443337-4.383562 4.393524-4.293898C4.094645-3.815691 3.88543-3.656289 3.646326-3.656289S3.287671-3.805729 3.138232-3.975093C2.948941-4.204234 2.779577-4.403487 2.450809-4.403487C1.703611-4.403487 1.24533-3.476961 1.24533-3.267746C1.24533-3.217933 1.275218-3.158157 1.364882-3.158157S1.474471-3.20797 1.494396-3.267746C1.683686-3.726027 2.261519-3.73599 2.34122-3.73599C2.550436-3.73599 2.739726-3.666252 2.968867-3.58655C3.367372-3.437111 3.476961-3.437111 3.73599-3.437111C3.377335-3.008717 2.540473-2.291407 2.351183-2.132005L1.454545-1.295143C.777086-.627646 .428394-.059776 .428394 .009963C.428394 .109589 .52802 .109589 .547945 .109589C.627646 .109589 .647572 .089664 .707347-.019925C.936488-.368618 1.235367-.637609 1.554172-.637609C1.783313-.637609 1.882939-.547945 2.132005-.259029C2.30137-.049813 2.480697 .109589 2.769614 .109589C3.755915 .109589 4.333748-1.155666 4.333748-1.424658C4.333748-1.474471 4.293898-1.524284 4.214197-1.524284C4.124533-1.524284 4.104608-1.464508 4.07472-1.39477C3.845579-.747198 3.20797-.557908 2.879203-.557908C2.67995-.557908 2.500623-.617684 2.291407-.687422C1.952677-.816936 1.803238-.856787 1.594022-.856787C1.574097-.856787 1.414695-.856787 1.325031-.826899Z'/>
</defs>
<g id='page1' transform='matrix(1.165714 0 0 1.165714 0 0)'>
<rect x='185.547483' y='18.838598' width='96.407313' height='22.366259' fill='#242424'/>
<g fill='#f6f3e8'>
<use x='185.547483' y='29.299444' xlink:href='#g0-84'/>
<use x='192.753126' y='29.299444' xlink:href='#g2-40'/>
<use x='196.6275' y='29.299444' xlink:href='#g0-78'/>
<use x='205.71839' y='29.299444' xlink:href='#g2-41'/>
<use x='212.360096' y='29.299444' xlink:href='#g2-61'/>
<use x='227.151951' y='19.834875' xlink:href='#g4-88'/>
<use x='222.876176' y='41.204857' xlink:href='#g1-110'/>
<use x='227.801039' y='41.204857' xlink:href='#g3-58'/>
<use x='230.056484' y='41.204857' xlink:href='#g3-49'/>
<use x='234.027725' y='41.204857' xlink:href='#g1-58'/>
<use x='236.393866' y='41.204857' xlink:href='#g1-58'/>
<use x='238.760007' y='41.204857' xlink:href='#g1-78'/>
<use x='247.478634' y='29.299444' xlink:href='#g0-77'/>
<use x='258.229977' y='29.299444' xlink:href='#g2-40'/>
<use x='262.104351' y='29.299444' xlink:href='#g0-110'/>
<use x='268.084276' y='29.299444' xlink:href='#g2-41'/>
<use x='271.95865' y='29.299444' xlink:href='#g0-122'/>
<use x='277.029934' y='25.185948' xlink:href='#g1-110'/>
</g>
</g>
</svg>