<?xml version='1.0' encoding='UTF-8'?>
<!-- This file was generated by dvisvgm 2.8.1 -->
<svg version='1.1' xmlns='http://www.w3.org/2000/svg' xmlns:xlink='http://www.w3.org/1999/xlink' width='161.376181pt' height='31.719714pt' viewBox='191.392494 22.541186 161.376181 31.719714'>
<defs>
<path id='g0-0' d='M6.56538-2.291407C6.734745-2.291407 6.914072-2.291407 6.914072-2.49066S6.734745-2.689913 6.56538-2.689913H1.175592C1.006227-2.689913 .826899-2.689913 .826899-2.49066S1.006227-2.291407 1.175592-2.291407H6.56538Z'/>
<path id='g4-89' d='M12.164384 13.947696V13.409714C10.839352 13.409714 10.530511 12.951432 10.530511 12.313823V1.633873C10.530511 .986301 10.849315 .537983 12.164384 .537983V0H.557908V.537983C1.882939 .537983 2.191781 .996264 2.191781 1.633873V12.313823C2.191781 12.961395 1.872976 13.409714 .557908 13.409714V13.947696H5.349938V13.409714C4.024907 13.409714 3.716065 12.951432 3.716065 12.313823V.537983H9.006227V12.313823C9.006227 12.961395 8.687422 13.409714 7.372354 13.409714V13.947696H12.164384Z'/>
<path id='g2-75' d='M3.989041-2.803487C3.961146-2.859278 3.947198-2.880199 3.947198-2.887173C3.947198-2.901121 3.954172-2.908095 4.11457-3.019676L4.818929-3.514819C5.739477-4.163387 6.171856-4.470237 6.666999-4.51208C6.743711-4.519054 6.827397-4.526027 6.827397-4.665504C6.827397-4.721295 6.77858-4.756164 6.736737-4.756164C6.590286-4.756164 6.408966-4.735243 6.255542-4.735243C6.067248-4.735243 5.6-4.763138 5.411706-4.763138C5.369863-4.763138 5.265255-4.763138 5.265255-4.609714C5.265255-4.60274 5.265255-4.519054 5.369863-4.51208C5.453549-4.505106 5.544209-4.491158 5.544209-4.414446C5.544209-4.288917 5.32802-4.135492 5.23736-4.072727L2.329265-2.022416L2.880199-4.219178C2.942964-4.456289 2.949938-4.51208 3.493898-4.51208C3.605479-4.51208 3.703113-4.51208 3.703113-4.658531C3.703113-4.721295 3.66127-4.763138 3.591532-4.763138C3.38929-4.763138 2.880199-4.735243 2.677958-4.735243C2.559402-4.735243 2.315318-4.735243 2.196762-4.742217C2.057285-4.749191 1.889913-4.763138 1.75741-4.763138C1.715567-4.763138 1.610959-4.763138 1.610959-4.609714C1.610959-4.51208 1.687671-4.51208 1.841096-4.51208C1.952677-4.51208 1.980573-4.51208 2.106102-4.498132C2.245579-4.484184 2.259527-4.470237 2.259527-4.400498C2.259527-4.38655 2.259527-4.351681 2.231631-4.247073L1.30411-.54396C1.248319-.306849 1.234371-.251059 .690411-.251059C.564882-.251059 .481196-.251059 .481196-.097634C.481196-.09066 .481196 0 .592777 0C.795019 0 1.297136-.027895 1.499377-.027895C1.617933-.027895 1.862017-.027895 1.980573-.020922C2.12005-.013948 2.294396 0 2.426899 0C2.468742 0 2.57335 0 2.57335-.153425C2.57335-.251059 2.489664-.251059 2.350187-.251059C2.343213-.251059 2.21071-.251059 2.085181-.265006C1.924782-.278954 1.924782-.299875 1.924782-.369614C1.924782-.425405 1.994521-.683437 2.252553-1.708593L3.410212-2.524533L4.42142-.564882C4.470237-.474222 4.470237-.467248 4.470237-.432379C4.470237-.27198 4.274969-.251059 4.14944-.251059C4.065753-.251059 3.96812-.251059 3.96812-.097634C3.96812-.09066 3.975093 0 4.086675 0C4.281943 0 4.78406-.027895 4.979328-.027895C5.188543-.027895 5.467497 0 5.662765 0C5.753425 0 5.802242-.048817 5.802242-.146451C5.802242-.251059 5.711582-.251059 5.641843-.251059C5.516314-.251059 5.300125-.258032 5.181569-.481196L3.989041-2.803487Z'/>
<path id='g2-86' d='M4.986301-3.93325C5.244334-4.309838 5.467497-4.484184 5.844085-4.51208C5.927771-4.519054 6.004483-4.526027 6.004483-4.665504C6.004483-4.686426 5.990535-4.763138 5.906849-4.763138C5.739477-4.763138 5.523288-4.735243 5.348941-4.735243C5.125778-4.735243 4.832877-4.763138 4.623661-4.763138C4.560897-4.763138 4.484184-4.742217 4.484184-4.609714C4.484184-4.519054 4.581818-4.51208 4.609714-4.51208C4.832877-4.498132 4.895641-4.414446 4.895641-4.309838C4.895641-4.212204 4.846824-4.142466 4.770112-4.030884L2.48269-.655542L1.84807-4.219178C1.834122-4.281943 1.834122-4.29589 1.834122-4.323786C1.834122-4.51208 2.224658-4.51208 2.273474-4.51208C2.39203-4.51208 2.48269-4.51208 2.48269-4.665504C2.48269-4.672478 2.475716-4.763138 2.364134-4.763138C2.161893-4.763138 1.66675-4.735243 1.464508-4.735243C1.290162-4.735243 .864757-4.763138 .690411-4.763138C.627646-4.763138 .550934-4.742217 .550934-4.609714C.550934-4.51208 .648568-4.51208 .72528-4.51208C1.115816-4.51208 1.12279-4.470237 1.157659-4.288917L1.917808-.048817C1.945704 .097634 1.952677 .139477 2.085181 .139477S2.252553 .09066 2.322291-.013948L4.986301-3.93325Z'/>
<path id='g2-105' d='M2.259527-4.358655C2.259527-4.470237 2.175841-4.623661 1.980573-4.623661C1.792279-4.623661 1.590037-4.442341 1.590037-4.2401C1.590037-4.121544 1.680697-3.975093 1.868991-3.975093C2.071233-3.975093 2.259527-4.170361 2.259527-4.358655ZM.836862-.81594C.808966-.72528 .774097-.641594 .774097-.523039C.774097-.195268 1.053051 .069738 1.436613 .069738C2.133998 .069738 2.440847-.892653 2.440847-.99726C2.440847-1.08792 2.350187-1.08792 2.329265-1.08792C2.231631-1.08792 2.224658-1.046077 2.196762-.969365C2.036364-.411457 1.729514-.125529 1.457534-.125529C1.318057-.125529 1.283188-.216189 1.283188-.369614C1.283188-.530012 1.332005-.662516 1.39477-.81594C1.464508-1.004234 1.54122-1.192528 1.617933-1.373848C1.680697-1.54122 1.931756-2.175841 1.959651-2.259527C1.980573-2.329265 2.001494-2.412951 2.001494-2.48269C2.001494-2.810461 1.72254-3.075467 1.338979-3.075467C.648568-3.075467 .327771-2.127024 .327771-2.008468C.327771-1.917808 .425405-1.917808 .446326-1.917808C.54396-1.917808 .550934-1.952677 .571856-2.02939C.753176-2.629141 1.060025-2.880199 1.318057-2.880199C1.429639-2.880199 1.492403-2.824408 1.492403-2.636115C1.492403-2.475716 1.45056-2.371108 1.276214-1.93873L.836862-.81594Z'/>
<path id='g2-109' d='M3.02665-.564882C2.991781-.425405 2.929016-.188294 2.929016-.153425C2.929016 0 3.054545 .069738 3.166127 .069738C3.291656 .069738 3.403238-.020922 3.438107-.083686S3.528767-.369614 3.563636-.516065C3.598506-.648568 3.675218-.969365 3.717061-1.143711C3.758904-1.297136 3.800747-1.45056 3.835616-1.610959C3.912329-1.910834 3.912329-1.924782 4.051806-2.140971C4.274969-2.48269 4.623661-2.880199 5.167621-2.880199C5.558157-2.880199 5.579078-2.559402 5.579078-2.39203C5.579078-1.973599 5.279203-1.199502 5.167621-.9066C5.090909-.711333 5.063014-.648568 5.063014-.530012C5.063014-.160399 5.369863 .069738 5.725529 .069738C6.422914 .069738 6.729763-.892653 6.729763-.99726C6.729763-1.08792 6.639103-1.08792 6.618182-1.08792C6.520548-1.08792 6.513574-1.046077 6.485679-.969365C6.32528-.411457 6.025405-.125529 5.746451-.125529C5.6-.125529 5.572105-.223163 5.572105-.369614C5.572105-.530012 5.606974-.620672 5.732503-.934496C5.816189-1.150685 6.102117-1.889913 6.102117-2.280448C6.102117-2.39203 6.102117-2.684932 5.844085-2.887173C5.725529-2.977833 5.523288-3.075467 5.195517-3.075467C4.56787-3.075467 4.184309-2.66401 3.961146-2.371108C3.905355-2.963885 3.410212-3.075467 3.054545-3.075467C2.475716-3.075467 2.085181-2.719801 1.875965-2.440847C1.827148-2.922042 1.415691-3.075467 1.129763-3.075467C.829888-3.075467 .669489-2.859278 .578829-2.698879C.425405-2.440847 .327771-2.043337 .327771-2.008468C.327771-1.917808 .425405-1.917808 .446326-1.917808C.54396-1.917808 .550934-1.93873 .599751-2.127024C.704359-2.538481 .836862-2.880199 1.108842-2.880199C1.290162-2.880199 1.338979-2.726775 1.338979-2.538481C1.338979-2.405978 1.276214-2.147945 1.227397-1.959651S1.108842-1.48543 1.073973-1.332005L.850809-.439352C.822914-.348692 .781071-.174346 .781071-.153425C.781071 0 .9066 .069738 1.018182 .069738C1.143711 .069738 1.255293-.020922 1.290162-.083686S1.380822-.369614 1.415691-.516065C1.45056-.648568 1.527273-.969365 1.569116-1.143711C1.610959-1.297136 1.652802-1.45056 1.687671-1.610959C1.764384-1.896887 1.778331-1.952677 1.980573-2.238605C2.175841-2.517559 2.503611-2.880199 3.02665-2.880199C3.431133-2.880199 3.438107-2.524533 3.438107-2.39203C3.438107-2.217684 3.417186-2.127024 3.319552-1.736488L3.02665-.564882Z'/>
<path id='g3-40' d='M3.297634 2.391034C3.297634 2.361146 3.297634 2.34122 3.128269 2.171856C1.882939 .916563 1.564134-.966376 1.564134-2.49066C1.564134-4.224159 1.942715-5.957659 3.16812-7.202989C3.297634-7.32254 3.297634-7.342466 3.297634-7.372354C3.297634-7.442092 3.257783-7.47198 3.198007-7.47198C3.098381-7.47198 2.201743-6.794521 1.613948-5.529265C1.105853-4.433375 .986301-3.327522 .986301-2.49066C.986301-1.713574 1.09589-.508095 1.643836 .617684C2.241594 1.843088 3.098381 2.49066 3.198007 2.49066C3.257783 2.49066 3.297634 2.460772 3.297634 2.391034Z'/>
<path id='g3-41' d='M2.879203-2.49066C2.879203-3.267746 2.769614-4.473225 2.221669-5.599004C1.62391-6.824408 .767123-7.47198 .667497-7.47198C.607721-7.47198 .56787-7.43213 .56787-7.372354C.56787-7.342466 .56787-7.32254 .757161-7.143213C1.733499-6.156912 2.30137-4.572852 2.30137-2.49066C2.30137-.787049 1.932752 .966376 .697385 2.221669C.56787 2.34122 .56787 2.361146 .56787 2.391034C.56787 2.450809 .607721 2.49066 .667497 2.49066C.767123 2.49066 1.663761 1.8132 2.251557 .547945C2.759651-.547945 2.879203-1.653798 2.879203-2.49066Z'/>
<path id='g3-49' d='M2.929016-6.37609C2.929016-6.615193 2.929016-6.635118 2.699875-6.635118C2.082192-5.997509 1.205479-5.997509 .886675-5.997509V-5.688667C1.085928-5.688667 1.673724-5.688667 2.191781-5.947696V-.787049C2.191781-.428394 2.161893-.308842 1.265255-.308842H.946451V0C1.295143-.029888 2.161893-.029888 2.560399-.029888S3.825654-.029888 4.174346 0V-.308842H3.855542C2.958904-.308842 2.929016-.418431 2.929016-.787049V-6.37609Z'/>
<path id='g3-61' d='M6.844334-3.257783C6.993773-3.257783 7.183064-3.257783 7.183064-3.457036S6.993773-3.656289 6.854296-3.656289H.886675C.747198-3.656289 .557908-3.656289 .557908-3.457036S.747198-3.257783 .896638-3.257783H6.844334ZM6.854296-1.325031C6.993773-1.325031 7.183064-1.325031 7.183064-1.524284S6.993773-1.723537 6.844334-1.723537H.896638C.747198-1.723537 .557908-1.723537 .557908-1.524284S.747198-1.325031 .886675-1.325031H6.854296Z'/>
<path id='g1-67' d='M7.571606-6.924035C7.571606-6.953923 7.551681-7.023661 7.462017-7.023661C7.43213-7.023661 7.422167-7.013699 7.312578-6.90411L6.615193-6.136986C6.525529-6.276463 6.067248-7.023661 4.961395-7.023661C2.739726-7.023661 .498132-4.821918 .498132-2.510585C.498132-.86675 1.673724 .219178 3.198007 .219178C4.064757 .219178 4.821918-.179328 5.349938-.637609C6.276463-1.454545 6.445828-2.361146 6.445828-2.391034C6.445828-2.49066 6.346202-2.49066 6.326276-2.49066C6.266501-2.49066 6.216687-2.470735 6.196762-2.391034C6.107098-2.102117 5.877958-1.39477 5.190535-.816936C4.503113-.259029 3.875467-.089664 3.35741-.089664C2.460772-.089664 1.404732-.607721 1.404732-2.161893C1.404732-2.729763 1.613948-4.343711 2.610212-5.50934C3.217933-6.216687 4.154421-6.714819 5.041096-6.714819C6.057285-6.714819 6.645081-5.947696 6.645081-4.79203C6.645081-4.393524 6.615193-4.383562 6.615193-4.283935S6.724782-4.184309 6.764633-4.184309C6.894147-4.184309 6.894147-4.204234 6.94396-4.383562L7.571606-6.924035Z'/>
<path id='g1-78' d='M7.531756-5.758406C7.631382-6.156912 7.81071-6.465753 8.607721-6.495641C8.657534-6.495641 8.777086-6.505604 8.777086-6.694894C8.777086-6.704857 8.777086-6.804483 8.647572-6.804483C8.318804-6.804483 7.970112-6.774595 7.641345-6.774595C7.302615-6.774595 6.953923-6.804483 6.625156-6.804483C6.56538-6.804483 6.445828-6.804483 6.445828-6.60523C6.445828-6.495641 6.545455-6.495641 6.625156-6.495641C7.193026-6.485679 7.302615-6.276463 7.302615-6.057285C7.302615-6.027397 7.28269-5.877958 7.272727-5.84807L6.156912-1.414695L3.955168-6.615193C3.875467-6.794521 3.865504-6.804483 3.636364-6.804483H2.30137C2.102117-6.804483 2.012453-6.804483 2.012453-6.60523C2.012453-6.495641 2.102117-6.495641 2.291407-6.495641C2.34122-6.495641 2.968867-6.495641 2.968867-6.405978L1.633873-1.05604C1.534247-.657534 1.364882-.33873 .557908-.308842C.498132-.308842 .388543-.298879 .388543-.109589C.388543-.039851 .438356 0 .518057 0C.836862 0 1.185554-.029888 1.514321-.029888C1.853051-.029888 2.211706 0 2.540473 0C2.590286 0 2.719801 0 2.719801-.199253C2.719801-.298879 2.630137-.308842 2.520548-.308842C1.942715-.328767 1.863014-.547945 1.863014-.747198C1.863014-.816936 1.872976-.86675 1.902864-.976339L3.217933-6.236613C3.257783-6.176837 3.257783-6.156912 3.307597-6.057285L5.788294-.18929C5.858032-.019925 5.88792 0 5.977584 0C6.087173 0 6.087173-.029888 6.136986-.209215L7.531756-5.758406Z'/>
<path id='g1-86' d='M6.256538-5.668742C6.744707-6.445828 7.163138-6.475716 7.531756-6.495641C7.651308-6.505604 7.66127-6.674969 7.66127-6.684932C7.66127-6.764633 7.611457-6.804483 7.531756-6.804483C7.272727-6.804483 6.983811-6.774595 6.714819-6.774595C6.386052-6.774595 6.047323-6.804483 5.728518-6.804483C5.668742-6.804483 5.539228-6.804483 5.539228-6.615193C5.539228-6.505604 5.628892-6.495641 5.69863-6.495641C5.967621-6.475716 6.156912-6.37609 6.156912-6.166874C6.156912-6.017435 6.007472-5.798257 6.007472-5.788294L2.948941-.926526L2.271482-6.196762C2.271482-6.366127 2.500623-6.495641 2.958904-6.495641C3.098381-6.495641 3.20797-6.495641 3.20797-6.694894C3.20797-6.784558 3.128269-6.804483 3.068493-6.804483C2.669988-6.804483 2.241594-6.774595 1.833126-6.774595C1.653798-6.774595 1.464508-6.784558 1.285181-6.784558S.916563-6.804483 .747198-6.804483C.67746-6.804483 .557908-6.804483 .557908-6.615193C.557908-6.495641 .647572-6.495641 .806974-6.495641C1.364882-6.495641 1.374844-6.405978 1.404732-6.156912L2.191781-.009963C2.221669 .18929 2.261519 .219178 2.391034 .219178C2.550436 .219178 2.590286 .169365 2.669988 .039851L6.256538-5.668742Z'/>
<path id='g1-101' d='M1.863014-2.30137C2.15193-2.30137 2.889166-2.321295 3.387298-2.530511C4.084682-2.82939 4.134496-3.417186 4.134496-3.556663C4.134496-3.995019 3.755915-4.403487 3.068493-4.403487C1.96264-4.403487 .458281-3.437111 .458281-1.693649C.458281-.67746 1.046077 .109589 2.022416 .109589C3.447073 .109589 4.283935-.946451 4.283935-1.066002C4.283935-1.125778 4.224159-1.195517 4.164384-1.195517C4.11457-1.195517 4.094645-1.175592 4.034869-1.09589C3.247821-.109589 2.161893-.109589 2.042341-.109589C1.265255-.109589 1.175592-.946451 1.175592-1.265255C1.175592-1.384807 1.185554-1.693649 1.334994-2.30137H1.863014ZM1.39477-2.520548C1.783313-4.034869 2.809465-4.184309 3.068493-4.184309C3.536737-4.184309 3.805729-3.895392 3.805729-3.556663C3.805729-2.520548 2.211706-2.520548 1.803238-2.520548H1.39477Z'/>
<path id='g1-108' d='M2.570361-6.804483C2.570361-6.814446 2.570361-6.914072 2.440847-6.914072C2.211706-6.914072 1.484433-6.834371 1.225405-6.814446C1.145704-6.804483 1.036115-6.794521 1.036115-6.60523C1.036115-6.495641 1.135741-6.495641 1.285181-6.495641C1.763387-6.495641 1.77335-6.405978 1.77335-6.326276L1.743462-6.127024L.488169-1.145704C.458281-1.036115 .438356-.966376 .438356-.806974C.438356-.239103 .876712 .109589 1.344956 .109589C1.673724 .109589 1.92279-.089664 2.092154-.448319C2.271482-.826899 2.391034-1.404732 2.391034-1.424658C2.391034-1.524284 2.30137-1.524284 2.271482-1.524284C2.171856-1.524284 2.161893-1.484433 2.132005-1.344956C1.96264-.697385 1.77335-.109589 1.374844-.109589C1.075965-.109589 1.075965-.428394 1.075965-.56787C1.075965-.806974 1.085928-.856787 1.135741-1.046077L2.570361-6.804483Z'/>
<path id='g1-111' d='M4.672478-2.719801C4.672478-3.755915 3.975093-4.403487 3.078456-4.403487C1.743462-4.403487 .408468-2.988792 .408468-1.574097C.408468-.587796 1.075965 .109589 2.002491 .109589C3.327522 .109589 4.672478-1.265255 4.672478-2.719801ZM2.012453-.109589C1.58406-.109589 1.145704-.418431 1.145704-1.195517C1.145704-1.683686 1.404732-2.759651 1.723537-3.267746C2.221669-4.034869 2.789539-4.184309 3.068493-4.184309C3.646326-4.184309 3.945205-3.706102 3.945205-3.108344C3.945205-2.719801 3.745953-1.673724 3.367372-1.026152C3.01868-.448319 2.470735-.109589 2.012453-.109589Z'/>
<path id='g1-116' d='M2.052304-3.985056H2.988792C3.188045-3.985056 3.287671-3.985056 3.287671-4.184309C3.287671-4.293898 3.188045-4.293898 3.008717-4.293898H2.132005C2.49066-5.708593 2.540473-5.907846 2.540473-5.967621C2.540473-6.136986 2.420922-6.236613 2.251557-6.236613C2.221669-6.236613 1.942715-6.22665 1.853051-5.877958L1.464508-4.293898H.52802C.328767-4.293898 .229141-4.293898 .229141-4.104608C.229141-3.985056 .308842-3.985056 .508095-3.985056H1.384807C.667497-1.155666 .627646-.986301 .627646-.806974C.627646-.268991 1.006227 .109589 1.544209 .109589C2.560399 .109589 3.128269-1.344956 3.128269-1.424658C3.128269-1.524284 3.048568-1.524284 3.008717-1.524284C2.919054-1.524284 2.909091-1.494396 2.859278-1.384807C2.430884-.348692 1.902864-.109589 1.564134-.109589C1.354919-.109589 1.255293-.239103 1.255293-.56787C1.255293-.806974 1.275218-.876712 1.315068-1.046077L2.052304-3.985056Z'/>
<path id='g1-117' d='M3.486924-.557908C3.596513-.14944 3.945205 .109589 4.373599 .109589C4.722291 .109589 4.951432-.119552 5.110834-.438356C5.280199-.797011 5.409714-1.404732 5.409714-1.424658C5.409714-1.524284 5.32005-1.524284 5.290162-1.524284C5.190535-1.524284 5.180573-1.484433 5.150685-1.344956C5.011208-.787049 4.821918-.109589 4.403487-.109589C4.194271-.109589 4.094645-.239103 4.094645-.56787C4.094645-.787049 4.214197-1.255293 4.293898-1.603985L4.572852-2.67995C4.60274-2.82939 4.702366-3.20797 4.742217-3.35741C4.79203-3.58655 4.891656-3.965131 4.891656-4.024907C4.891656-4.204234 4.752179-4.293898 4.60274-4.293898C4.552927-4.293898 4.293898-4.283935 4.214197-3.945205C4.024907-3.217933 3.58655-1.474471 3.466999-.946451C3.457036-.9066 3.058531-.109589 2.331258-.109589C1.8132-.109589 1.713574-.557908 1.713574-.926526C1.713574-1.484433 1.992528-2.271482 2.251557-2.958904C2.371108-3.257783 2.420922-3.39726 2.420922-3.58655C2.420922-4.034869 2.102117-4.403487 1.603985-4.403487C.657534-4.403487 .288917-2.958904 .288917-2.86924C.288917-2.769614 .388543-2.769614 .408468-2.769614C.508095-2.769614 .518057-2.789539 .56787-2.948941C.816936-3.815691 1.195517-4.184309 1.574097-4.184309C1.663761-4.184309 1.823163-4.174346 1.823163-3.855542C1.823163-3.616438 1.713574-3.327522 1.653798-3.178082C1.285181-2.191781 1.075965-1.574097 1.075965-1.085928C1.075965-.139477 1.763387 .109589 2.30137 .109589C2.958904 .109589 3.317559-.33873 3.486924-.557908Z'/>
<path id='g1-122' d='M1.325031-.826899C1.863014-1.404732 2.15193-1.653798 2.510585-1.96264C2.510585-1.972603 3.128269-2.500623 3.486924-2.859278C4.433375-3.785803 4.652553-4.26401 4.652553-4.303861C4.652553-4.403487 4.562889-4.403487 4.542964-4.403487C4.473225-4.403487 4.443337-4.383562 4.393524-4.293898C4.094645-3.815691 3.88543-3.656289 3.646326-3.656289S3.287671-3.805729 3.138232-3.975093C2.948941-4.204234 2.779577-4.403487 2.450809-4.403487C1.703611-4.403487 1.24533-3.476961 1.24533-3.267746C1.24533-3.217933 1.275218-3.158157 1.364882-3.158157S1.474471-3.20797 1.494396-3.267746C1.683686-3.726027 2.261519-3.73599 2.34122-3.73599C2.550436-3.73599 2.739726-3.666252 2.968867-3.58655C3.367372-3.437111 3.476961-3.437111 3.73599-3.437111C3.377335-3.008717 2.540473-2.291407 2.351183-2.132005L1.454545-1.295143C.777086-.627646 .428394-.059776 .428394 .009963C.428394 .109589 .52802 .109589 .547945 .109589C.627646 .109589 .647572 .089664 .707347-.019925C.936488-.368618 1.235367-.637609 1.554172-.637609C1.783313-.637609 1.882939-.547945 2.132005-.259029C2.30137-.049813 2.480697 .109589 2.769614 .109589C3.755915 .109589 4.333748-1.155666 4.333748-1.424658C4.333748-1.474471 4.293898-1.524284 4.214197-1.524284C4.124533-1.524284 4.104608-1.464508 4.07472-1.39477C3.845579-.747198 3.20797-.557908 2.879203-.557908C2.67995-.557908 2.500623-.617684 2.291407-.687422C1.952677-.816936 1.803238-.856787 1.594022-.856787C1.574097-.856787 1.414695-.856787 1.325031-.826899Z'/>
</defs>
<g id='page1' transform='matrix(1.165714 0 0 1.165714 0 0)'>
<rect x='164.184738' y='19.336802' width='138.435449' height='27.210539' fill='#242424'/>
<g fill='#f6f3e8'>
<use x='164.184738' y='34.792775' xlink:href='#g1-86'/>
<use x='172.210211' y='34.792775' xlink:href='#g1-117'/>
<use x='177.913406' y='34.792775' xlink:href='#g1-101'/>
<use x='182.552278' y='34.792775' xlink:href='#g1-108'/>
<use x='185.720972' y='34.792775' xlink:href='#g1-116'/>
<use x='189.318606' y='34.792775' xlink:href='#g1-111'/>
<use x='194.147728' y='34.792775' xlink:href='#g3-40'/>
<use x='198.022102' y='34.792775' xlink:href='#g1-78'/>
<use x='207.112992' y='34.792775' xlink:href='#g3-41'/>
<use x='213.754698' y='34.792775' xlink:href='#g3-61'/>
<use x='227.101016' y='22.33943' xlink:href='#g2-109'/>
<use x='224.270778' y='25.328206' xlink:href='#g4-89'/>
<use x='229.226453' y='46.547341' xlink:href='#g2-105'/>
<use x='268.747803' y='28.052974' xlink:href='#g3-49'/>
</g>
<rect x='239.856755' y='32.102866' height='.398484' width='62.763432' fill='#f6f3e8'/>
<g fill='#f6f3e8'>
<use x='239.856755' y='41.893832' xlink:href='#g3-49'/>
<use x='247.05196' y='41.893832' xlink:href='#g0-0'/>
<use x='257.014574' y='41.893832' xlink:href='#g3-40'/>
<use x='260.888947' y='41.893832' xlink:href='#g1-122'/>
<use x='265.960232' y='39.015739' xlink:href='#g2-86'/>
<use x='272.87876' y='41.893832' xlink:href='#g3-40'/>
<use x='276.753134' y='41.893832' xlink:href='#g1-67'/>
<use x='283.873649' y='43.388213' xlink:href='#g2-105'/>
<use x='287.190496' y='41.893832' xlink:href='#g3-41'/>
<use x='291.064869' y='41.893832' xlink:href='#g3-41'/>
<use x='294.939243' y='38.462273' xlink:href='#g2-75'/>
<use x='294.939243' y='44.670833' xlink:href='#g2-105'/>
</g>
</g>
</svg>