<?xml version='1.0' encoding='UTF-8'?>
<!-- This file was generated by dvisvgm 2.8.1 -->
<svg version='1.1' xmlns='http://www.w3.org/2000/svg' xmlns:xlink='http://www.w3.org/1999/xlink' width='254.396558pt' height='25.501023pt' viewBox='146.275915 21.379829 254.396558 25.501023'>
<defs>
<path id='g3-48' d='M3.598506-2.224658C3.598506-2.991781 3.507846-3.542715 3.187049-4.030884C2.970859-4.351681 2.538481-4.630635 1.980573-4.630635C.36264-4.630635 .36264-2.726775 .36264-2.224658S.36264 .139477 1.980573 .139477S3.598506-1.72254 3.598506-2.224658ZM1.980573-.055791C1.659776-.055791 1.234371-.244085 1.094894-.81594C.99726-1.227397 .99726-1.799253 .99726-2.315318C.99726-2.824408 .99726-3.354421 1.101868-3.737983C1.248319-4.288917 1.694645-4.435367 1.980573-4.435367C2.357161-4.435367 2.719801-4.20523 2.84533-3.800747C2.956912-3.424159 2.963885-2.922042 2.963885-2.315318C2.963885-1.799253 2.963885-1.283188 2.873225-.843836C2.733748-.209215 2.259527-.055791 1.980573-.055791Z'/>
<path id='g3-49' d='M2.336239-4.435367C2.336239-4.623661 2.322291-4.630635 2.127024-4.630635C1.680697-4.191283 1.046077-4.184309 .760149-4.184309V-3.93325C.927522-3.93325 1.387796-3.93325 1.771357-4.128518V-.571856C1.771357-.341719 1.771357-.251059 1.073973-.251059H.808966V0C.934496-.006974 1.792279-.027895 2.050311-.027895C2.266501-.027895 3.145205-.006974 3.29863 0V-.251059H3.033624C2.336239-.251059 2.336239-.341719 2.336239-.571856V-4.435367Z'/>
<path id='g3-50' d='M3.521793-1.26924H3.284682C3.263761-1.115816 3.194022-.704359 3.103362-.63462C3.047572-.592777 2.510585-.592777 2.412951-.592777H1.129763C1.862017-1.241345 2.106102-1.436613 2.524533-1.764384C3.040598-2.175841 3.521793-2.608219 3.521793-3.270735C3.521793-4.11457 2.782565-4.630635 1.889913-4.630635C1.025156-4.630635 .439352-4.02391 .439352-3.382316C.439352-3.02665 .739228-2.991781 .808966-2.991781C.976339-2.991781 1.17858-3.110336 1.17858-3.361395C1.17858-3.486924 1.129763-3.731009 .767123-3.731009C.983313-4.226152 1.457534-4.379577 1.785305-4.379577C2.48269-4.379577 2.84533-3.835616 2.84533-3.270735C2.84533-2.66401 2.412951-2.182814 2.189788-1.931756L.509091-.27198C.439352-.209215 .439352-.195268 .439352 0H3.312578L3.521793-1.26924Z'/>
<path id='g0-0' d='M6.56538-2.291407C6.734745-2.291407 6.914072-2.291407 6.914072-2.49066S6.734745-2.689913 6.56538-2.689913H1.175592C1.006227-2.689913 .826899-2.689913 .826899-2.49066S1.006227-2.291407 1.175592-2.291407H6.56538Z'/>
<path id='g2-40' d='M3.297634 2.391034C3.297634 2.361146 3.297634 2.34122 3.128269 2.171856C1.882939 .916563 1.564134-.966376 1.564134-2.49066C1.564134-4.224159 1.942715-5.957659 3.16812-7.202989C3.297634-7.32254 3.297634-7.342466 3.297634-7.372354C3.297634-7.442092 3.257783-7.47198 3.198007-7.47198C3.098381-7.47198 2.201743-6.794521 1.613948-5.529265C1.105853-4.433375 .986301-3.327522 .986301-2.49066C.986301-1.713574 1.09589-.508095 1.643836 .617684C2.241594 1.843088 3.098381 2.49066 3.198007 2.49066C3.257783 2.49066 3.297634 2.460772 3.297634 2.391034Z'/>
<path id='g2-41' d='M2.879203-2.49066C2.879203-3.267746 2.769614-4.473225 2.221669-5.599004C1.62391-6.824408 .767123-7.47198 .667497-7.47198C.607721-7.47198 .56787-7.43213 .56787-7.372354C.56787-7.342466 .56787-7.32254 .757161-7.143213C1.733499-6.156912 2.30137-4.572852 2.30137-2.49066C2.30137-.787049 1.932752 .966376 .697385 2.221669C.56787 2.34122 .56787 2.361146 .56787 2.391034C.56787 2.450809 .607721 2.49066 .667497 2.49066C.767123 2.49066 1.663761 1.8132 2.251557 .547945C2.759651-.547945 2.879203-1.653798 2.879203-2.49066Z'/>
<path id='g2-43' d='M4.07472-2.291407H6.854296C6.993773-2.291407 7.183064-2.291407 7.183064-2.49066S6.993773-2.689913 6.854296-2.689913H4.07472V-5.479452C4.07472-5.618929 4.07472-5.808219 3.875467-5.808219S3.676214-5.618929 3.676214-5.479452V-2.689913H.886675C.747198-2.689913 .557908-2.689913 .557908-2.49066S.747198-2.291407 .886675-2.291407H3.676214V.498132C3.676214 .637609 3.676214 .826899 3.875467 .826899S4.07472 .637609 4.07472 .498132V-2.291407Z'/>
<path id='g2-49' d='M2.929016-6.37609C2.929016-6.615193 2.929016-6.635118 2.699875-6.635118C2.082192-5.997509 1.205479-5.997509 .886675-5.997509V-5.688667C1.085928-5.688667 1.673724-5.688667 2.191781-5.947696V-.787049C2.191781-.428394 2.161893-.308842 1.265255-.308842H.946451V0C1.295143-.029888 2.161893-.029888 2.560399-.029888S3.825654-.029888 4.174346 0V-.308842H3.855542C2.958904-.308842 2.929016-.418431 2.929016-.787049V-6.37609Z'/>
<path id='g2-52' d='M2.929016-1.643836V-.777086C2.929016-.418431 2.909091-.308842 2.171856-.308842H1.96264V0C2.371108-.029888 2.889166-.029888 3.307597-.029888S4.254047-.029888 4.662516 0V-.308842H4.4533C3.716065-.308842 3.696139-.418431 3.696139-.777086V-1.643836H4.692403V-1.952677H3.696139V-6.485679C3.696139-6.684932 3.696139-6.744707 3.536737-6.744707C3.447073-6.744707 3.417186-6.744707 3.337484-6.625156L.278954-1.952677V-1.643836H2.929016ZM2.988792-1.952677H.557908L2.988792-5.668742V-1.952677Z'/>
<path id='g2-61' d='M6.844334-3.257783C6.993773-3.257783 7.183064-3.257783 7.183064-3.457036S6.993773-3.656289 6.854296-3.656289H.886675C.747198-3.656289 .557908-3.656289 .557908-3.457036S.747198-3.257783 .896638-3.257783H6.844334ZM6.854296-1.325031C6.993773-1.325031 7.183064-1.325031 7.183064-1.524284S6.993773-1.723537 6.844334-1.723537H.896638C.747198-1.723537 .557908-1.723537 .557908-1.524284S.747198-1.325031 .886675-1.325031H6.854296Z'/>
<path id='g1-65' d='M1.783313-1.145704C1.384807-.478207 .996264-.33873 .557908-.308842C.438356-.298879 .348692-.298879 .348692-.109589C.348692-.049813 .398506 0 .478207 0C.747198 0 1.05604-.029888 1.334994-.029888C1.663761-.029888 2.012453 0 2.331258 0C2.391034 0 2.520548 0 2.520548-.18929C2.520548-.298879 2.430884-.308842 2.361146-.308842C2.132005-.328767 1.892902-.408468 1.892902-.657534C1.892902-.777086 1.952677-.886675 2.032379-1.026152L2.789539-2.30137H5.290162C5.310087-2.092154 5.449564-.737235 5.449564-.637609C5.449564-.33873 4.931507-.308842 4.732254-.308842C4.592777-.308842 4.493151-.308842 4.493151-.109589C4.493151 0 4.612702 0 4.632628 0C5.041096 0 5.469489-.029888 5.877958-.029888C6.127024-.029888 6.75467 0 7.003736 0C7.063512 0 7.183064 0 7.183064-.199253C7.183064-.308842 7.083437-.308842 6.953923-.308842C6.336239-.308842 6.336239-.37858 6.306351-.667497L5.69863-6.894147C5.678705-7.0934 5.678705-7.13325 5.50934-7.13325C5.349938-7.13325 5.310087-7.063512 5.250311-6.963885L1.783313-1.145704ZM2.978829-2.610212L4.941469-5.897883L5.260274-2.610212H2.978829Z'/>
<path id='g1-97' d='M3.716065-3.765878C3.536737-4.134496 3.247821-4.403487 2.799502-4.403487C1.633873-4.403487 .398506-2.938979 .398506-1.484433C.398506-.547945 .946451 .109589 1.723537 .109589C1.92279 .109589 2.420922 .069738 3.01868-.637609C3.098381-.219178 3.447073 .109589 3.92528 .109589C4.273973 .109589 4.503113-.119552 4.662516-.438356C4.83188-.797011 4.961395-1.404732 4.961395-1.424658C4.961395-1.524284 4.871731-1.524284 4.841843-1.524284C4.742217-1.524284 4.732254-1.484433 4.702366-1.344956C4.533001-.697385 4.353674-.109589 3.945205-.109589C3.676214-.109589 3.646326-.368618 3.646326-.56787C3.646326-.787049 3.666252-.86675 3.775841-1.305106C3.88543-1.723537 3.905355-1.823163 3.995019-2.201743L4.353674-3.596513C4.423412-3.875467 4.423412-3.895392 4.423412-3.935243C4.423412-4.104608 4.303861-4.204234 4.134496-4.204234C3.895392-4.204234 3.745953-3.985056 3.716065-3.765878ZM3.068493-1.185554C3.01868-1.006227 3.01868-.986301 2.86924-.816936C2.430884-.268991 2.022416-.109589 1.743462-.109589C1.24533-.109589 1.105853-.657534 1.105853-1.046077C1.105853-1.544209 1.424658-2.769614 1.653798-3.227895C1.96264-3.815691 2.410959-4.184309 2.809465-4.184309C3.457036-4.184309 3.596513-3.367372 3.596513-3.307597S3.576588-3.188045 3.566625-3.138232L3.068493-1.185554Z'/>
<path id='g1-122' d='M1.325031-.826899C1.863014-1.404732 2.15193-1.653798 2.510585-1.96264C2.510585-1.972603 3.128269-2.500623 3.486924-2.859278C4.433375-3.785803 4.652553-4.26401 4.652553-4.303861C4.652553-4.403487 4.562889-4.403487 4.542964-4.403487C4.473225-4.403487 4.443337-4.383562 4.393524-4.293898C4.094645-3.815691 3.88543-3.656289 3.646326-3.656289S3.287671-3.805729 3.138232-3.975093C2.948941-4.204234 2.779577-4.403487 2.450809-4.403487C1.703611-4.403487 1.24533-3.476961 1.24533-3.267746C1.24533-3.217933 1.275218-3.158157 1.364882-3.158157S1.474471-3.20797 1.494396-3.267746C1.683686-3.726027 2.261519-3.73599 2.34122-3.73599C2.550436-3.73599 2.739726-3.666252 2.968867-3.58655C3.367372-3.437111 3.476961-3.437111 3.73599-3.437111C3.377335-3.008717 2.540473-2.291407 2.351183-2.132005L1.454545-1.295143C.777086-.627646 .428394-.059776 .428394 .009963C.428394 .109589 .52802 .109589 .547945 .109589C.627646 .109589 .647572 .089664 .707347-.019925C.936488-.368618 1.235367-.637609 1.554172-.637609C1.783313-.637609 1.882939-.547945 2.132005-.259029C2.30137-.049813 2.480697 .109589 2.769614 .109589C3.755915 .109589 4.333748-1.155666 4.333748-1.424658C4.333748-1.474471 4.293898-1.524284 4.214197-1.524284C4.124533-1.524284 4.104608-1.464508 4.07472-1.39477C3.845579-.747198 3.20797-.557908 2.879203-.557908C2.67995-.557908 2.500623-.617684 2.291407-.687422C1.952677-.816936 1.803238-.856787 1.594022-.856787C1.574097-.856787 1.414695-.856787 1.325031-.826899Z'/>
</defs>
<g id='page1' transform='matrix(1.165714 0 0 1.165714 0 0)'>
<rect x='125.48179' y='18.34054' width='218.232341' height='21.875878' fill='#242424'/>
<g fill='#f6f3e8'>
<use x='125.48179' y='25.81252' xlink:href='#g1-65'/>
<use x='132.953789' y='25.81252' xlink:href='#g2-40'/>
<use x='136.828163' y='25.81252' xlink:href='#g1-122'/>
<use x='141.899447' y='25.81252' xlink:href='#g2-41'/>
<use x='147.987687' y='25.81252' xlink:href='#g0-0'/>
<use x='157.9503' y='25.81252' xlink:href='#g2-40'/>
<use x='161.824674' y='25.81252' xlink:href='#g1-97'/>
<use x='167.090828' y='27.306901' xlink:href='#g3-48'/>
<use x='173.774064' y='25.81252' xlink:href='#g2-43'/>
<use x='183.736677' y='25.81252' xlink:href='#g1-97'/>
<use x='189.002831' y='27.306901' xlink:href='#g3-49'/>
<use x='193.472201' y='25.81252' xlink:href='#g1-122'/>
<use x='198.543485' y='25.81252' xlink:href='#g2-41'/>
</g>
<rect x='125.48179' y='29.862412' height='.398484' width='76.936023' fill='#f6f3e8'/>
<g fill='#f6f3e8'>
<use x='159.179475' y='39.386192' xlink:href='#g1-122'/>
<use x='164.250759' y='36.508099' xlink:href='#g3-50'/>
<use x='206.380659' y='32.552321' xlink:href='#g2-61'/>
<use x='226.716133' y='25.81252' xlink:href='#g2-49'/>
</g>
<rect x='218.092253' y='29.862412' height='.398484' width='22.229095' fill='#f6f3e8'/>
<g fill='#f6f3e8'>
<use x='218.092253' y='39.386192' xlink:href='#g2-49'/>
<use x='225.287458' y='39.386192' xlink:href='#g0-0'/>
<use x='235.250072' y='39.386192' xlink:href='#g1-122'/>
<use x='243.730728' y='32.552321' xlink:href='#g2-43'/>
<use x='254.888855' y='25.81252' xlink:href='#g2-52'/>
<use x='259.870194' y='25.81252' xlink:href='#g2-40'/>
<use x='263.744568' y='25.81252' xlink:href='#g1-65'/>
<use x='271.216567' y='25.81252' xlink:href='#g2-40'/>
<use x='275.090941' y='25.81252' xlink:href='#g1-122'/>
<use x='280.162225' y='25.81252' xlink:href='#g2-41'/>
<use x='286.250465' y='25.81252' xlink:href='#g0-0'/>
<use x='296.213078' y='25.81252' xlink:href='#g2-49'/>
<use x='301.194417' y='25.81252' xlink:href='#g2-41'/>
</g>
<rect x='254.888855' y='29.862412' height='.398484' width='50.179913' fill='#f6f3e8'/>
<g fill='#f6f3e8'>
<use x='277.443177' y='39.386192' xlink:href='#g1-122'/>
<use x='308.478148' y='32.552321' xlink:href='#g0-0'/>
<use x='318.440762' y='32.552321' xlink:href='#g2-52'/>
<use x='323.422101' y='32.552321' xlink:href='#g1-65'/>
<use x='330.8941' y='32.552321' xlink:href='#g2-40'/>
<use x='334.768473' y='32.552321' xlink:href='#g1-122'/>
<use x='339.839758' y='32.552321' xlink:href='#g2-41'/>
</g>
</g>
</svg>