<?xml version='1.0' encoding='UTF-8'?>
<!-- This file was generated by dvisvgm 2.8.1 -->
<svg version='1.1' xmlns='http://www.w3.org/2000/svg' xmlns:xlink='http://www.w3.org/1999/xlink' width='150.782214pt' height='37.33783pt' viewBox='197.386281 22.541189 150.782214 37.33783'>
<defs>
<path id='g4-40' d='M2.475716-5.230386C1.150685-4.29589 .801993-2.817435 .801993-1.750436C.801993-.767123 1.094894 .760149 2.475716 1.736488C2.531507 1.736488 2.615193 1.736488 2.615193 1.652802C2.615193 1.610959 2.594271 1.597011 2.545455 1.548194C1.617933 .711333 1.276214-.474222 1.276214-1.743462C1.276214-3.626401 1.994521-4.546949 2.566376-5.063014C2.594271-5.090909 2.615193-5.111831 2.615193-5.1467C2.615193-5.230386 2.531507-5.230386 2.475716-5.230386Z'/>
<path id='g4-41' d='M.627646-5.230386C.578829-5.230386 .495143-5.230386 .495143-5.1467C.495143-5.111831 .516065-5.090909 .557908-5.042092C1.157659-4.491158 1.827148-3.549689 1.827148-1.750436C1.827148-.292902 1.373848 .808966 .620672 1.492403C.502117 1.610959 .495143 1.617933 .495143 1.652802S.516065 1.736488 .585803 1.736488C.669489 1.736488 1.332005 1.276214 1.792279 .404483C2.099128-.174346 2.30137-.927522 2.30137-1.743462C2.30137-2.726775 2.008468-4.254047 .627646-5.230386Z'/>
<path id='g4-49' d='M2.336239-4.435367C2.336239-4.623661 2.322291-4.630635 2.127024-4.630635C1.680697-4.191283 1.046077-4.184309 .760149-4.184309V-3.93325C.927522-3.93325 1.387796-3.93325 1.771357-4.128518V-.571856C1.771357-.341719 1.771357-.251059 1.073973-.251059H.808966V0C.934496-.006974 1.792279-.027895 2.050311-.027895C2.266501-.027895 3.145205-.006974 3.29863 0V-.251059H3.033624C2.336239-.251059 2.336239-.341719 2.336239-.571856V-4.435367Z'/>
<path id='g4-61' d='M5.355915-2.343213C5.460523-2.343213 5.620922-2.343213 5.620922-2.517559C5.620922-2.684932 5.453549-2.684932 5.362889-2.684932H.746202C.655542-2.684932 .488169-2.684932 .488169-2.517559C.488169-2.343213 .648568-2.343213 .753176-2.343213H5.355915ZM5.362889-.808966C5.453549-.808966 5.620922-.808966 5.620922-.976339C5.620922-1.150685 5.460523-1.150685 5.355915-1.150685H.753176C.648568-1.150685 .488169-1.150685 .488169-.976339C.488169-.808966 .655542-.808966 .746202-.808966H5.362889Z'/>
<path id='g1-67' d='M5.878954-4.811955C5.878954-4.846824 5.858032-4.902615 5.788294-4.902615C5.739477-4.902615 5.725529-4.888667 5.662765-4.818929L5.153674-4.281943C5.090909-4.365629 4.700374-4.902615 3.84259-4.902615C2.147945-4.902615 .488169-3.403238 .488169-1.827148C.488169-.690411 1.380822 .139477 2.629141 .139477C3.005729 .139477 3.675218 .062765 4.393524-.54396C4.944458-1.011208 5.097883-1.617933 5.097883-1.673724C5.097883-1.764384 5.014197-1.764384 4.979328-1.764384C4.888667-1.764384 4.87472-1.729514 4.853798-1.652802C4.56787-.697385 3.591532-.111582 2.747696-.111582C2.008468-.111582 1.185554-.509091 1.185554-1.610959C1.185554-1.8132 1.234371-2.915068 2.036364-3.793773C2.517559-4.33076 3.249813-4.651557 3.912329-4.651557C4.721295-4.651557 5.195517-4.065753 5.195517-3.284682C5.195517-3.089415 5.174595-3.040598 5.174595-2.998755C5.174595-2.908095 5.265255-2.908095 5.300125-2.908095C5.411706-2.908095 5.411706-2.929016 5.446575-3.061519L5.878954-4.811955Z'/>
<path id='g1-105' d='M2.259527-4.358655C2.259527-4.470237 2.175841-4.623661 1.980573-4.623661C1.792279-4.623661 1.590037-4.442341 1.590037-4.2401C1.590037-4.121544 1.680697-3.975093 1.868991-3.975093C2.071233-3.975093 2.259527-4.170361 2.259527-4.358655ZM.836862-.81594C.808966-.72528 .774097-.641594 .774097-.523039C.774097-.195268 1.053051 .069738 1.436613 .069738C2.133998 .069738 2.440847-.892653 2.440847-.99726C2.440847-1.08792 2.350187-1.08792 2.329265-1.08792C2.231631-1.08792 2.224658-1.046077 2.196762-.969365C2.036364-.411457 1.729514-.125529 1.457534-.125529C1.318057-.125529 1.283188-.216189 1.283188-.369614C1.283188-.530012 1.332005-.662516 1.39477-.81594C1.464508-1.004234 1.54122-1.192528 1.617933-1.373848C1.680697-1.54122 1.931756-2.175841 1.959651-2.259527C1.980573-2.329265 2.001494-2.412951 2.001494-2.48269C2.001494-2.810461 1.72254-3.075467 1.338979-3.075467C.648568-3.075467 .327771-2.127024 .327771-2.008468C.327771-1.917808 .425405-1.917808 .446326-1.917808C.54396-1.917808 .550934-1.952677 .571856-2.02939C.753176-2.629141 1.060025-2.880199 1.318057-2.880199C1.429639-2.880199 1.492403-2.824408 1.492403-2.636115C1.492403-2.475716 1.45056-2.371108 1.276214-1.93873L.836862-.81594Z'/>
<path id='g1-106' d='M3.061519-4.358655C3.061519-4.47721 2.970859-4.623661 2.782565-4.623661C2.580324-4.623661 2.39203-4.428394 2.39203-4.2401C2.39203-4.128518 2.475716-3.975093 2.670984-3.975093C2.859278-3.975093 3.061519-4.156413 3.061519-4.358655ZM1.583064 .341719C1.464508 .822914 1.094894 1.227397 .683437 1.227397C.592777 1.227397 .509091 1.21345 .432379 1.185554C.613699 1.101868 .669489 .934496 .669489 .829888C.669489 .662516 .536986 .571856 .397509 .571856C.18132 .571856 0 .760149 0 .983313C0 1.248319 .27198 1.422665 .690411 1.422665S1.924782 1.171606 2.140971 .320797L2.768618-2.175841C2.789539-2.252553 2.803487-2.315318 2.803487-2.419925C2.803487-2.803487 2.475716-3.075467 2.057285-3.075467C1.283188-3.075467 .836862-2.106102 .836862-2.008468C.836862-1.917808 .934496-1.917808 .955417-1.917808C1.039103-1.917808 1.046077-1.93873 1.094894-2.043337C1.26924-2.447821 1.63188-2.880199 2.036364-2.880199C2.21071-2.880199 2.273474-2.761644 2.273474-2.538481C2.273474-2.461768 2.259527-2.364134 2.252553-2.329265L1.583064 .341719Z'/>
<path id='g1-107' d='M2.182814-4.630635C2.189788-4.644583 2.21071-4.735243 2.21071-4.742217C2.21071-4.777086 2.182814-4.839851 2.099128-4.839851C1.959651-4.839851 1.380822-4.78406 1.206476-4.770112C1.150685-4.763138 1.053051-4.756164 1.053051-4.609714C1.053051-4.51208 1.150685-4.51208 1.234371-4.51208C1.569116-4.51208 1.569116-4.463263 1.569116-4.407472C1.569116-4.358655 1.555168-4.316812 1.54122-4.254047L.557908-.306849C.523039-.18132 .523039-.167372 .523039-.153425C.523039-.048817 .606725 .069738 .760149 .069738C.948443 .069738 1.039103-.069738 1.080946-.223163C1.094894-.251059 1.39477-1.478456 1.422665-1.57609C1.917808-1.527273 2.315318-1.366874 2.315318-1.004234C2.315318-.969365 2.315318-.934496 2.30137-.864757C2.273474-.760149 2.273474-.72528 2.273474-.648568C2.273474-.153425 2.677958 .069738 3.012702 .069738C3.689166 .069738 3.898381-.990286 3.898381-.99726C3.898381-1.08792 3.807721-1.08792 3.7868-1.08792C3.689166-1.08792 3.682192-1.053051 3.647323-.920548C3.563636-.620672 3.375342-.125529 3.033624-.125529C2.84533-.125529 2.789539-.299875 2.789539-.488169C2.789539-.606725 2.789539-.620672 2.831382-.801993C2.838356-.822914 2.866252-.941469 2.866252-1.018182C2.866252-1.638854 2.02939-1.736488 1.736488-1.75741C1.93873-1.882939 2.196762-2.113076 2.315318-2.217684C2.670984-2.552428 3.019676-2.880199 3.410212-2.880199C3.493898-2.880199 3.584558-2.859278 3.640349-2.789539C3.340473-2.740722 3.277709-2.503611 3.277709-2.399004C3.277709-2.245579 3.396264-2.140971 3.556663-2.140971C3.744956-2.140971 3.954172-2.294396 3.954172-2.587298C3.954172-2.817435 3.7868-3.075467 3.417186-3.075467C3.019676-3.075467 2.657036-2.789539 2.30137-2.461768C2.008468-2.182814 1.778331-1.966625 1.492403-1.84807L2.182814-4.630635Z'/>
<path id='g1-115' d='M3.005729-2.622167C2.824408-2.580324 2.712827-2.433873 2.712827-2.294396C2.712827-2.133998 2.852304-2.071233 2.942964-2.071233C3.012702-2.071233 3.277709-2.113076 3.277709-2.468742C3.277709-2.922042 2.775592-3.075467 2.350187-3.075467C1.262267-3.075467 1.066999-2.273474 1.066999-2.057285C1.066999-1.799253 1.21345-1.63188 1.311083-1.548194C1.492403-1.408717 1.617933-1.380822 2.099128-1.297136C2.245579-1.26924 2.691905-1.185554 2.691905-.836862C2.691905-.718306 2.615193-.4533 2.322291-.278954C2.050311-.125529 1.708593-.125529 1.624907-.125529C1.345953-.125529 .948443-.188294 .788045-.418431C1.018182-.446326 1.171606-.620672 1.171606-.81594C1.171606-.990286 1.046077-1.073973 .899626-1.073973C.697385-1.073973 .495143-.913574 .495143-.606725C.495143-.188294 .941469 .069738 1.617933 .069738C2.901121 .069738 3.138232-.808966 3.138232-1.080946C3.138232-1.72254 2.433873-1.84807 2.175841-1.896887C2.113076-1.910834 1.93873-1.93873 1.896887-1.952677C1.638854-2.001494 1.513325-2.147945 1.513325-2.30137C1.513325-2.461768 1.638854-2.650062 1.792279-2.747696C1.980573-2.866252 2.224658-2.880199 2.343213-2.880199C2.489664-2.880199 2.852304-2.859278 3.005729-2.622167Z'/>
<path id='g2-107' d='M1.833126-3.267746C1.853051-3.337484 1.853051-3.347447 1.853051-3.372354C1.853051-3.457036 1.778331-3.457036 1.69863-3.452055L1.085928-3.407223C1.001245-3.402242 .991283-3.39726 .966376-3.377335C.946451-3.352428 .931507-3.292653 .931507-3.262765C.931507-3.178082 1.011208-3.178082 1.080946-3.178082C1.085928-3.178082 1.175592-3.178082 1.250311-3.16812C1.344956-3.158157 1.349938-3.143213 1.349938-3.103362C1.349938-3.088418 1.349938-3.078456 1.325031-2.988792L.637609-.239103C.617684-.164384 .617684-.154421 .617684-.124533C.617684-.009963 .707347 .054795 .806974 .054795C1.001245 .054795 1.046077-.129514 1.066002-.199253L1.290162-1.115816C1.419676-1.110834 2.042341-1.075965 2.042341-.722291C2.042341-.687422 2.042341-.667497 2.027397-.607721C2.012453-.537983 2.012453-.508095 2.012453-.478207C2.012453-.124533 2.331258 .054795 2.620174 .054795C3.128269 .054795 3.327522-.657534 3.327522-.71731C3.327522-.787049 3.242839-.787049 3.222914-.787049C3.138232-.787049 3.128269-.762142 3.103362-.672478C3.053549-.498132 2.909091-.11457 2.6401-.11457C2.455791-.11457 2.430884-.298879 2.430884-.408468C2.430884-.41345 2.430884-.483188 2.450809-.56787C2.470735-.647572 2.475716-.697385 2.475716-.737235C2.475716-1.175592 1.927771-1.250311 1.599004-1.275218C1.738481-1.354919 1.947696-1.524284 2.027397-1.594022C2.311333-1.818182 2.585305-2.032379 2.86924-2.032379C2.983811-2.032379 3.013699-2.002491 3.043587-1.972603C3.038605-1.972603 3.013699-1.957659 3.003736-1.957659C2.774595-1.877958 2.774595-1.673724 2.774595-1.65878C2.774595-1.574097 2.834371-1.454545 2.998755-1.454545C3.098381-1.454545 3.307597-1.534247 3.307597-1.808219C3.307597-2.052304 3.118306-2.201743 2.879203-2.201743C2.540473-2.201743 2.251557-1.972603 1.88792-1.678705C1.713574-1.539228 1.549191-1.414695 1.349938-1.334994L1.833126-3.267746Z'/>
<path id='g5-81' d='M3.576588 9.96264V9.564134C2.550436 9.564134 2.550436 9.075965 2.550436 8.777086V.398506H6.844334V8.777086C6.844334 9.075965 6.844334 9.564134 5.818182 9.564134V9.96264H8.836862V9.564134C7.81071 9.564134 7.81071 9.075965 7.81071 8.777086V1.185554C7.81071 .886675 7.81071 .398506 8.836862 .398506V0H.557908V.398506C1.58406 .398506 1.58406 .886675 1.58406 1.185554V8.777086C1.58406 9.075965 1.58406 9.564134 .557908 9.564134V9.96264H3.576588Z'/>
<path id='g5-89' d='M12.164384 13.947696V13.409714C10.839352 13.409714 10.530511 12.951432 10.530511 12.313823V1.633873C10.530511 .986301 10.849315 .537983 12.164384 .537983V0H.557908V.537983C1.882939 .537983 2.191781 .996264 2.191781 1.633873V12.313823C2.191781 12.961395 1.872976 13.409714 .557908 13.409714V13.947696H5.349938V13.409714C4.024907 13.409714 3.716065 12.951432 3.716065 12.313823V.537983H9.006227V12.313823C9.006227 12.961395 8.687422 13.409714 7.372354 13.409714V13.947696H12.164384Z'/>
<path id='g3-33' d='M1.524284-2.082192L1.912827-6.625156C1.912827-6.953923 1.643836-7.13325 1.384807-7.13325S.856787-6.953923 .856787-6.625156L1.24533-2.092154C1.255293-1.942715 1.265255-1.863014 1.384807-1.863014C1.484433-1.863014 1.514321-1.912827 1.524284-2.082192ZM1.912827-.52802C1.912827-.816936 1.673724-1.05604 1.384807-1.05604S.856787-.816936 .856787-.52802S1.09589 0 1.384807 0S1.912827-.239103 1.912827-.52802Z'/>
<path id='g3-40' d='M3.297634 2.391034C3.297634 2.361146 3.297634 2.34122 3.128269 2.171856C1.882939 .916563 1.564134-.966376 1.564134-2.49066C1.564134-4.224159 1.942715-5.957659 3.16812-7.202989C3.297634-7.32254 3.297634-7.342466 3.297634-7.372354C3.297634-7.442092 3.257783-7.47198 3.198007-7.47198C3.098381-7.47198 2.201743-6.794521 1.613948-5.529265C1.105853-4.433375 .986301-3.327522 .986301-2.49066C.986301-1.713574 1.09589-.508095 1.643836 .617684C2.241594 1.843088 3.098381 2.49066 3.198007 2.49066C3.257783 2.49066 3.297634 2.460772 3.297634 2.391034Z'/>
<path id='g3-41' d='M2.879203-2.49066C2.879203-3.267746 2.769614-4.473225 2.221669-5.599004C1.62391-6.824408 .767123-7.47198 .667497-7.47198C.607721-7.47198 .56787-7.43213 .56787-7.372354C.56787-7.342466 .56787-7.32254 .757161-7.143213C1.733499-6.156912 2.30137-4.572852 2.30137-2.49066C2.30137-.787049 1.932752 .966376 .697385 2.221669C.56787 2.34122 .56787 2.361146 .56787 2.391034C.56787 2.450809 .607721 2.49066 .667497 2.49066C.767123 2.49066 1.663761 1.8132 2.251557 .547945C2.759651-.547945 2.879203-1.653798 2.879203-2.49066Z'/>
<path id='g3-61' d='M6.844334-3.257783C6.993773-3.257783 7.183064-3.257783 7.183064-3.457036S6.993773-3.656289 6.854296-3.656289H.886675C.747198-3.656289 .557908-3.656289 .557908-3.457036S.747198-3.257783 .896638-3.257783H6.844334ZM6.854296-1.325031C6.993773-1.325031 7.183064-1.325031 7.183064-1.524284S6.993773-1.723537 6.844334-1.723537H.896638C.747198-1.723537 .557908-1.723537 .557908-1.524284S.747198-1.325031 .886675-1.325031H6.854296Z'/>
<path id='g0-78' d='M7.531756-5.758406C7.631382-6.156912 7.81071-6.465753 8.607721-6.495641C8.657534-6.495641 8.777086-6.505604 8.777086-6.694894C8.777086-6.704857 8.777086-6.804483 8.647572-6.804483C8.318804-6.804483 7.970112-6.774595 7.641345-6.774595C7.302615-6.774595 6.953923-6.804483 6.625156-6.804483C6.56538-6.804483 6.445828-6.804483 6.445828-6.60523C6.445828-6.495641 6.545455-6.495641 6.625156-6.495641C7.193026-6.485679 7.302615-6.276463 7.302615-6.057285C7.302615-6.027397 7.28269-5.877958 7.272727-5.84807L6.156912-1.414695L3.955168-6.615193C3.875467-6.794521 3.865504-6.804483 3.636364-6.804483H2.30137C2.102117-6.804483 2.012453-6.804483 2.012453-6.60523C2.012453-6.495641 2.102117-6.495641 2.291407-6.495641C2.34122-6.495641 2.968867-6.495641 2.968867-6.405978L1.633873-1.05604C1.534247-.657534 1.364882-.33873 .557908-.308842C.498132-.308842 .388543-.298879 .388543-.109589C.388543-.039851 .438356 0 .518057 0C.836862 0 1.185554-.029888 1.514321-.029888C1.853051-.029888 2.211706 0 2.540473 0C2.590286 0 2.719801 0 2.719801-.199253C2.719801-.298879 2.630137-.308842 2.520548-.308842C1.942715-.328767 1.863014-.547945 1.863014-.747198C1.863014-.816936 1.872976-.86675 1.902864-.976339L3.217933-6.236613C3.257783-6.176837 3.257783-6.156912 3.307597-6.057285L5.788294-.18929C5.858032-.019925 5.88792 0 5.977584 0C6.087173 0 6.087173-.029888 6.136986-.209215L7.531756-5.758406Z'/>
<path id='g0-80' d='M3.01868-3.148194H4.712329C6.127024-3.148194 7.511831-4.184309 7.511831-5.300125C7.511831-6.067248 6.854296-6.804483 5.549191-6.804483H2.321295C2.132005-6.804483 2.022416-6.804483 2.022416-6.615193C2.022416-6.495641 2.11208-6.495641 2.311333-6.495641C2.440847-6.495641 2.620174-6.485679 2.739726-6.475716C2.899128-6.455791 2.958904-6.425903 2.958904-6.316314C2.958904-6.276463 2.948941-6.246575 2.919054-6.127024L1.58406-.777086C1.484433-.388543 1.464508-.308842 .67746-.308842C.508095-.308842 .398506-.308842 .398506-.119552C.398506 0 .518057 0 .547945 0C.826899 0 1.534247-.029888 1.8132-.029888C2.022416-.029888 2.241594-.019925 2.450809-.019925C2.669988-.019925 2.889166 0 3.098381 0C3.16812 0 3.297634 0 3.297634-.199253C3.297634-.308842 3.20797-.308842 3.01868-.308842C2.650062-.308842 2.371108-.308842 2.371108-.488169C2.371108-.547945 2.391034-.597758 2.400996-.657534L3.01868-3.148194ZM3.73599-6.117061C3.825654-6.465753 3.845579-6.495641 4.273973-6.495641H5.230386C6.057285-6.495641 6.585305-6.22665 6.585305-5.539228C6.585305-5.150685 6.386052-4.293898 5.997509-3.935243C5.499377-3.486924 4.901619-3.407223 4.463263-3.407223H3.058531L3.73599-6.117061Z'/>
<path id='g0-87' d='M9.135741-5.648817C9.384807-6.087173 9.62391-6.445828 10.251557-6.495641C10.34122-6.505604 10.440847-6.505604 10.440847-6.694894C10.440847-6.734745 10.400996-6.804483 10.321295-6.804483C10.082192-6.804483 9.803238-6.774595 9.554172-6.774595C9.215442-6.774595 8.846824-6.804483 8.518057-6.804483C8.458281-6.804483 8.328767-6.804483 8.328767-6.615193C8.328767-6.505604 8.418431-6.495641 8.478207-6.495641C8.71731-6.485679 9.066002-6.405978 9.066002-6.107098C9.066002-5.997509 9.016189-5.917808 8.936488-5.778331L6.246575-1.085928L5.877958-6.027397C5.867995-6.22665 5.84807-6.485679 6.575342-6.495641C6.744707-6.495641 6.844334-6.495641 6.844334-6.694894C6.844334-6.794521 6.734745-6.804483 6.694894-6.804483C6.296389-6.804483 5.877958-6.774595 5.479452-6.774595C5.250311-6.774595 4.662516-6.804483 4.433375-6.804483C4.373599-6.804483 4.244085-6.804483 4.244085-6.60523C4.244085-6.495641 4.343711-6.495641 4.483188-6.495641C4.921544-6.495641 4.991283-6.435866 5.011208-6.246575L5.070984-5.479452L2.550436-1.085928L2.171856-6.136986C2.171856-6.256538 2.171856-6.485679 2.929016-6.495641C3.028643-6.495641 3.138232-6.495641 3.138232-6.694894C3.138232-6.804483 3.01868-6.804483 2.998755-6.804483C2.600249-6.804483 2.181818-6.774595 1.77335-6.774595C1.424658-6.774595 1.066002-6.804483 .727273-6.804483C.67746-6.804483 .547945-6.804483 .547945-6.615193C.547945-6.495641 .637609-6.495641 .797011-6.495641C1.295143-6.495641 1.305106-6.405978 1.325031-6.127024L1.77335-.039851C1.783313 .139477 1.793275 .219178 1.932752 .219178C2.052304 .219178 2.082192 .159402 2.171856 .009963L5.100872-5.070984L5.469489-.039851C5.489415 .169365 5.50934 .219178 5.628892 .219178C5.758406 .219178 5.818182 .119552 5.867995 .029888L9.135741-5.648817Z'/>
<path id='g0-107' d='M2.859278-6.804483C2.859278-6.814446 2.859278-6.914072 2.729763-6.914072C2.500623-6.914072 1.77335-6.834371 1.514321-6.814446C1.43462-6.804483 1.325031-6.794521 1.325031-6.615193C1.325031-6.495641 1.414695-6.495641 1.564134-6.495641C2.042341-6.495641 2.062267-6.425903 2.062267-6.326276L2.032379-6.127024L.587796-.388543C.547945-.249066 .547945-.229141 .547945-.169365C.547945 .059776 .747198 .109589 .836862 .109589C.966376 .109589 1.115816 .019925 1.175592-.099626C1.225405-.18929 1.673724-2.032379 1.733499-2.281445C2.072229-2.251557 2.889166-2.092154 2.889166-1.43462C2.889166-1.364882 2.889166-1.325031 2.859278-1.225405C2.839352-1.105853 2.819427-.986301 2.819427-.876712C2.819427-.288917 3.217933 .109589 3.73599 .109589C4.034869 .109589 4.303861-.049813 4.523039-.418431C4.772105-.856787 4.881694-1.404732 4.881694-1.424658C4.881694-1.524284 4.79203-1.524284 4.762142-1.524284C4.662516-1.524284 4.652553-1.484433 4.622665-1.344956C4.423412-.617684 4.194271-.109589 3.755915-.109589C3.566625-.109589 3.437111-.219178 3.437111-.577833C3.437111-.747198 3.476961-.976339 3.516812-1.135741C3.556663-1.305106 3.556663-1.344956 3.556663-1.444583C3.556663-2.092154 2.929016-2.381071 2.082192-2.49066C2.391034-2.669988 2.709838-2.988792 2.938979-3.227895C3.417186-3.755915 3.875467-4.184309 4.363636-4.184309C4.423412-4.184309 4.433375-4.184309 4.4533-4.174346C4.572852-4.154421 4.582814-4.154421 4.662516-4.094645C4.682441-4.084682 4.682441-4.07472 4.702366-4.054795C4.224159-4.024907 4.134496-3.636364 4.134496-3.516812C4.134496-3.35741 4.244085-3.16812 4.513076-3.16812C4.772105-3.16812 5.061021-3.387298 5.061021-3.775841C5.061021-4.07472 4.83188-4.403487 4.383562-4.403487C4.104608-4.403487 3.646326-4.323786 2.929016-3.526775C2.590286-3.148194 2.201743-2.749689 1.823163-2.600249L2.859278-6.804483Z'/>
<path id='g0-114' d='M.876712-.587796C.846824-.438356 .787049-.209215 .787049-.159402C.787049 .019925 .926526 .109589 1.075965 .109589C1.195517 .109589 1.374844 .029888 1.444583-.169365C1.464508-.209215 1.803238-1.564134 1.843088-1.743462C1.92279-2.072229 2.102117-2.769614 2.161893-3.038605C2.201743-3.16812 2.480697-3.636364 2.719801-3.855542C2.799502-3.92528 3.088418-4.184309 3.516812-4.184309C3.775841-4.184309 3.92528-4.064757 3.935243-4.064757C3.636364-4.014944 3.417186-3.775841 3.417186-3.516812C3.417186-3.35741 3.526775-3.16812 3.795766-3.16812S4.343711-3.39726 4.343711-3.755915C4.343711-4.104608 4.024907-4.403487 3.516812-4.403487C2.86924-4.403487 2.430884-3.915318 2.241594-3.636364C2.161893-4.084682 1.803238-4.403487 1.334994-4.403487C.876712-4.403487 .687422-4.014944 .597758-3.835616C.418431-3.496887 .288917-2.899128 .288917-2.86924C.288917-2.769614 .388543-2.769614 .408468-2.769614C.508095-2.769614 .518057-2.779577 .577833-2.998755C.747198-3.706102 .946451-4.184309 1.305106-4.184309C1.474471-4.184309 1.613948-4.104608 1.613948-3.726027C1.613948-3.516812 1.58406-3.407223 1.454545-2.889166L.876712-.587796Z'/>
<path id='g0-115' d='M3.895392-3.726027C3.616438-3.716065 3.417186-3.496887 3.417186-3.277709C3.417186-3.138232 3.506849-2.988792 3.726027-2.988792S4.184309-3.158157 4.184309-3.5467C4.184309-3.995019 3.755915-4.403487 2.998755-4.403487C1.683686-4.403487 1.315068-3.387298 1.315068-2.948941C1.315068-2.171856 2.052304-2.022416 2.34122-1.96264C2.859278-1.863014 3.377335-1.753425 3.377335-1.205479C3.377335-.946451 3.148194-.109589 1.952677-.109589C1.8132-.109589 1.046077-.109589 .816936-.637609C1.195517-.587796 1.444583-.886675 1.444583-1.165629C1.444583-1.39477 1.285181-1.514321 1.075965-1.514321C.816936-1.514321 .518057-1.305106 .518057-.856787C.518057-.288917 1.085928 .109589 1.942715 .109589C3.556663 .109589 3.945205-1.09589 3.945205-1.544209C3.945205-1.902864 3.755915-2.15193 3.636364-2.271482C3.367372-2.550436 3.078456-2.600249 2.6401-2.689913C2.281445-2.769614 1.882939-2.839352 1.882939-3.287671C1.882939-3.576588 2.122042-4.184309 2.998755-4.184309C3.247821-4.184309 3.745953-4.11457 3.895392-3.726027Z'/>
</defs>
<g id='page1' transform='matrix(1.165714 0 0 1.165714 0 0)'>
<rect x='169.326467' y='19.336804' width='129.347487' height='32.030002' fill='#242424'/>
<g fill='#f6f3e8'>
<use x='169.326467' y='37.878448' xlink:href='#g0-87'/>
<use x='180.11935' y='37.878448' xlink:href='#g3-40'/>
<use x='183.993724' y='37.878448' xlink:href='#g0-115'/>
<use x='188.663712' y='37.878448' xlink:href='#g3-41'/>
<use x='195.305418' y='37.878448' xlink:href='#g3-61'/>
<use x='219.772554' y='31.138647' xlink:href='#g0-107'/>
<use x='225.272773' y='31.138647' xlink:href='#g3-40'/>
<use x='229.147147' y='31.138647' xlink:href='#g0-115'/>
<use x='233.817134' y='31.138647' xlink:href='#g3-41'/>
<use x='237.691508' y='31.138647' xlink:href='#g3-33'/>
</g>
<rect x='207.017012' y='35.188539' height='.398484' width='46.197441' fill='#f6f3e8'/>
<g fill='#f6f3e8'>
<use x='207.017012' y='39.5499' xlink:href='#g5-81'/>
<use x='216.4262' y='42.012862' xlink:href='#g1-67'/>
<use x='222.140491' y='43.070009' xlink:href='#g2-107'/>
<use x='226.495725' y='42.012862' xlink:href='#g4-40'/>
<use x='229.609068' y='42.012862' xlink:href='#g1-115'/>
<use x='233.369293' y='42.012862' xlink:href='#g4-41'/>
<use x='236.482636' y='42.012862' xlink:href='#g4-41'/>
<use x='216.4262' y='50.010778' xlink:href='#g1-106'/>
<use x='220.12589' y='50.010778' xlink:href='#g4-61'/>
<use x='226.241874' y='50.010778' xlink:href='#g4-49'/>
<use x='241.754498' y='47.02194' xlink:href='#g0-114'/>
<use x='246.249238' y='48.516321' xlink:href='#g1-106'/>
<use x='250.447058' y='47.02194' xlink:href='#g3-33'/>
<use x='256.070366' y='24.56719' xlink:href='#g1-107'/>
<use x='260.47402' y='24.56719' xlink:href='#g4-40'/>
<use x='263.587364' y='24.56719' xlink:href='#g1-115'/>
<use x='267.347588' y='24.56719' xlink:href='#g4-41'/>
<use x='256.900612' y='28.413879' xlink:href='#g5-89'/>
<use x='256.812684' y='49.633014' xlink:href='#g1-105'/>
<use x='259.631411' y='49.633014' xlink:href='#g4-61'/>
<use x='265.747395' y='49.633014' xlink:href='#g4-49'/>
<use x='272.12132' y='37.878448' xlink:href='#g0-78'/>
<use x='281.21221' y='37.878448' xlink:href='#g3-40'/>
<use x='285.086584' y='37.878448' xlink:href='#g0-80'/>
<use x='291.482734' y='39.372829' xlink:href='#g1-105'/>
<use x='294.79958' y='37.878448' xlink:href='#g3-41'/>
</g>
</g>
</svg>