<?xml version='1.0' encoding='UTF-8'?>
<!-- This file was generated by dvisvgm 2.8.1 -->
<svg version='1.1' xmlns='http://www.w3.org/2000/svg' xmlns:xlink='http://www.w3.org/1999/xlink' width='164.222715pt' height='34.131156pt' viewBox='190.666024 22.541173 164.222715 34.131156'>
<defs>
<path id='g5-88' d='M12.612702 13.947696L13.818182 10.759651H13.569116C13.180573 11.795766 12.124533 12.473225 10.978829 12.772105C10.769614 12.821918 9.793275 13.080946 7.880448 13.080946H1.872976L6.94396 7.13325C7.013699 7.053549 7.033624 7.023661 7.033624 6.973848C7.033624 6.953923 7.033624 6.924035 6.963885 6.824408L2.321295 .478207H7.780822C9.115816 .478207 10.022416 .617684 10.11208 .637609C10.650062 .71731 11.516812 .886675 12.303861 1.384807C12.552927 1.544209 13.230386 1.992528 13.569116 2.799502H13.818182L12.612702 0H.836862C.607721 0 .597758 .009963 .56787 .069738C.557908 .099626 .557908 .288917 .557908 .398506L5.828144 7.611457L.667497 13.65878C.56787 13.778331 .56787 13.828144 .56787 13.838107C.56787 13.947696 .657534 13.947696 .836862 13.947696H12.612702Z'/>
<path id='g5-89' d='M12.164384 13.947696V13.409714C10.839352 13.409714 10.530511 12.951432 10.530511 12.313823V1.633873C10.530511 .986301 10.849315 .537983 12.164384 .537983V0H.557908V.537983C1.882939 .537983 2.191781 .996264 2.191781 1.633873V12.313823C2.191781 12.961395 1.872976 13.409714 .557908 13.409714V13.947696H5.349938V13.409714C4.024907 13.409714 3.716065 12.951432 3.716065 12.313823V.537983H9.006227V12.313823C9.006227 12.961395 8.687422 13.409714 7.372354 13.409714V13.947696H12.164384Z'/>
<path id='g4-49' d='M2.336239-4.435367C2.336239-4.623661 2.322291-4.630635 2.127024-4.630635C1.680697-4.191283 1.046077-4.184309 .760149-4.184309V-3.93325C.927522-3.93325 1.387796-3.93325 1.771357-4.128518V-.571856C1.771357-.341719 1.771357-.251059 1.073973-.251059H.808966V0C.934496-.006974 1.792279-.027895 2.050311-.027895C2.266501-.027895 3.145205-.006974 3.29863 0V-.251059H3.033624C2.336239-.251059 2.336239-.341719 2.336239-.571856V-4.435367Z'/>
<path id='g4-61' d='M5.355915-2.343213C5.460523-2.343213 5.620922-2.343213 5.620922-2.517559C5.620922-2.684932 5.453549-2.684932 5.362889-2.684932H.746202C.655542-2.684932 .488169-2.684932 .488169-2.517559C.488169-2.343213 .648568-2.343213 .753176-2.343213H5.355915ZM5.362889-.808966C5.453549-.808966 5.620922-.808966 5.620922-.976339C5.620922-1.150685 5.460523-1.150685 5.355915-1.150685H.753176C.648568-1.150685 .488169-1.150685 .488169-.976339C.488169-.808966 .655542-.808966 .746202-.808966H5.362889Z'/>
<path id='g3-33' d='M1.524284-2.082192L1.912827-6.625156C1.912827-6.953923 1.643836-7.13325 1.384807-7.13325S.856787-6.953923 .856787-6.625156L1.24533-2.092154C1.255293-1.942715 1.265255-1.863014 1.384807-1.863014C1.484433-1.863014 1.514321-1.912827 1.524284-2.082192ZM1.912827-.52802C1.912827-.816936 1.673724-1.05604 1.384807-1.05604S.856787-.816936 .856787-.52802S1.09589 0 1.384807 0S1.912827-.239103 1.912827-.52802Z'/>
<path id='g3-40' d='M3.297634 2.391034C3.297634 2.361146 3.297634 2.34122 3.128269 2.171856C1.882939 .916563 1.564134-.966376 1.564134-2.49066C1.564134-4.224159 1.942715-5.957659 3.16812-7.202989C3.297634-7.32254 3.297634-7.342466 3.297634-7.372354C3.297634-7.442092 3.257783-7.47198 3.198007-7.47198C3.098381-7.47198 2.201743-6.794521 1.613948-5.529265C1.105853-4.433375 .986301-3.327522 .986301-2.49066C.986301-1.713574 1.09589-.508095 1.643836 .617684C2.241594 1.843088 3.098381 2.49066 3.198007 2.49066C3.257783 2.49066 3.297634 2.460772 3.297634 2.391034Z'/>
<path id='g3-41' d='M2.879203-2.49066C2.879203-3.267746 2.769614-4.473225 2.221669-5.599004C1.62391-6.824408 .767123-7.47198 .667497-7.47198C.607721-7.47198 .56787-7.43213 .56787-7.372354C.56787-7.342466 .56787-7.32254 .757161-7.143213C1.733499-6.156912 2.30137-4.572852 2.30137-2.49066C2.30137-.787049 1.932752 .966376 .697385 2.221669C.56787 2.34122 .56787 2.361146 .56787 2.391034C.56787 2.450809 .607721 2.49066 .667497 2.49066C.767123 2.49066 1.663761 1.8132 2.251557 .547945C2.759651-.547945 2.879203-1.653798 2.879203-2.49066Z'/>
<path id='g3-61' d='M6.844334-3.257783C6.993773-3.257783 7.183064-3.257783 7.183064-3.457036S6.993773-3.656289 6.854296-3.656289H.886675C.747198-3.656289 .557908-3.656289 .557908-3.457036S.747198-3.257783 .896638-3.257783H6.844334ZM6.854296-1.325031C6.993773-1.325031 7.183064-1.325031 7.183064-1.524284S6.993773-1.723537 6.844334-1.723537H.896638C.747198-1.723537 .557908-1.723537 .557908-1.524284S.747198-1.325031 .886675-1.325031H6.854296Z'/>
<path id='g0-0' d='M5.188543-1.57609C5.300125-1.57609 5.467497-1.57609 5.467497-1.743462C5.467497-1.917808 5.307098-1.917808 5.188543-1.917808H1.03213C.920548-1.917808 .753176-1.917808 .753176-1.750436C.753176-1.57609 .913574-1.57609 1.03213-1.57609H5.188543Z'/>
<path id='g2-105' d='M2.259527-4.358655C2.259527-4.470237 2.175841-4.623661 1.980573-4.623661C1.792279-4.623661 1.590037-4.442341 1.590037-4.2401C1.590037-4.121544 1.680697-3.975093 1.868991-3.975093C2.071233-3.975093 2.259527-4.170361 2.259527-4.358655ZM.836862-.81594C.808966-.72528 .774097-.641594 .774097-.523039C.774097-.195268 1.053051 .069738 1.436613 .069738C2.133998 .069738 2.440847-.892653 2.440847-.99726C2.440847-1.08792 2.350187-1.08792 2.329265-1.08792C2.231631-1.08792 2.224658-1.046077 2.196762-.969365C2.036364-.411457 1.729514-.125529 1.457534-.125529C1.318057-.125529 1.283188-.216189 1.283188-.369614C1.283188-.530012 1.332005-.662516 1.39477-.81594C1.464508-1.004234 1.54122-1.192528 1.617933-1.373848C1.680697-1.54122 1.931756-2.175841 1.959651-2.259527C1.980573-2.329265 2.001494-2.412951 2.001494-2.48269C2.001494-2.810461 1.72254-3.075467 1.338979-3.075467C.648568-3.075467 .327771-2.127024 .327771-2.008468C.327771-1.917808 .425405-1.917808 .446326-1.917808C.54396-1.917808 .550934-1.952677 .571856-2.02939C.753176-2.629141 1.060025-2.880199 1.318057-2.880199C1.429639-2.880199 1.492403-2.824408 1.492403-2.636115C1.492403-2.475716 1.45056-2.371108 1.276214-1.93873L.836862-.81594Z'/>
<path id='g2-107' d='M2.182814-4.630635C2.189788-4.644583 2.21071-4.735243 2.21071-4.742217C2.21071-4.777086 2.182814-4.839851 2.099128-4.839851C1.959651-4.839851 1.380822-4.78406 1.206476-4.770112C1.150685-4.763138 1.053051-4.756164 1.053051-4.609714C1.053051-4.51208 1.150685-4.51208 1.234371-4.51208C1.569116-4.51208 1.569116-4.463263 1.569116-4.407472C1.569116-4.358655 1.555168-4.316812 1.54122-4.254047L.557908-.306849C.523039-.18132 .523039-.167372 .523039-.153425C.523039-.048817 .606725 .069738 .760149 .069738C.948443 .069738 1.039103-.069738 1.080946-.223163C1.094894-.251059 1.39477-1.478456 1.422665-1.57609C1.917808-1.527273 2.315318-1.366874 2.315318-1.004234C2.315318-.969365 2.315318-.934496 2.30137-.864757C2.273474-.760149 2.273474-.72528 2.273474-.648568C2.273474-.153425 2.677958 .069738 3.012702 .069738C3.689166 .069738 3.898381-.990286 3.898381-.99726C3.898381-1.08792 3.807721-1.08792 3.7868-1.08792C3.689166-1.08792 3.682192-1.053051 3.647323-.920548C3.563636-.620672 3.375342-.125529 3.033624-.125529C2.84533-.125529 2.789539-.299875 2.789539-.488169C2.789539-.606725 2.789539-.620672 2.831382-.801993C2.838356-.822914 2.866252-.941469 2.866252-1.018182C2.866252-1.638854 2.02939-1.736488 1.736488-1.75741C1.93873-1.882939 2.196762-2.113076 2.315318-2.217684C2.670984-2.552428 3.019676-2.880199 3.410212-2.880199C3.493898-2.880199 3.584558-2.859278 3.640349-2.789539C3.340473-2.740722 3.277709-2.503611 3.277709-2.399004C3.277709-2.245579 3.396264-2.140971 3.556663-2.140971C3.744956-2.140971 3.954172-2.294396 3.954172-2.587298C3.954172-2.817435 3.7868-3.075467 3.417186-3.075467C3.019676-3.075467 2.657036-2.789539 2.30137-2.461768C2.008468-2.182814 1.778331-1.966625 1.492403-1.84807L2.182814-4.630635Z'/>
<path id='g2-110' d='M.850809-.439352C.822914-.348692 .781071-.174346 .781071-.153425C.781071 0 .9066 .069738 1.018182 .069738C1.143711 .069738 1.255293-.020922 1.290162-.083686S1.380822-.369614 1.415691-.516065C1.45056-.648568 1.527273-.969365 1.569116-1.143711C1.610959-1.297136 1.652802-1.45056 1.687671-1.610959C1.764384-1.896887 1.778331-1.952677 1.980573-2.238605C2.175841-2.517559 2.503611-2.880199 3.02665-2.880199C3.431133-2.880199 3.438107-2.524533 3.438107-2.39203C3.438107-1.973599 3.138232-1.199502 3.02665-.9066C2.949938-.711333 2.922042-.648568 2.922042-.530012C2.922042-.160399 3.228892 .069738 3.584558 .069738C4.281943 .069738 4.588792-.892653 4.588792-.99726C4.588792-1.08792 4.498132-1.08792 4.47721-1.08792C4.379577-1.08792 4.372603-1.046077 4.344707-.969365C4.184309-.411457 3.884433-.125529 3.605479-.125529C3.459029-.125529 3.431133-.223163 3.431133-.369614C3.431133-.530012 3.466002-.620672 3.591532-.934496C3.675218-1.150685 3.961146-1.889913 3.961146-2.280448C3.961146-2.956912 3.424159-3.075467 3.054545-3.075467C2.475716-3.075467 2.085181-2.719801 1.875965-2.440847C1.827148-2.922042 1.415691-3.075467 1.129763-3.075467C.829888-3.075467 .669489-2.859278 .578829-2.698879C.425405-2.440847 .327771-2.043337 .327771-2.008468C.327771-1.917808 .425405-1.917808 .446326-1.917808C.54396-1.917808 .550934-1.93873 .599751-2.127024C.704359-2.538481 .836862-2.880199 1.108842-2.880199C1.290162-2.880199 1.338979-2.726775 1.338979-2.538481C1.338979-2.405978 1.276214-2.147945 1.227397-1.959651S1.108842-1.48543 1.073973-1.332005L.850809-.439352Z'/>
<path id='g1-78' d='M7.531756-5.758406C7.631382-6.156912 7.81071-6.465753 8.607721-6.495641C8.657534-6.495641 8.777086-6.505604 8.777086-6.694894C8.777086-6.704857 8.777086-6.804483 8.647572-6.804483C8.318804-6.804483 7.970112-6.774595 7.641345-6.774595C7.302615-6.774595 6.953923-6.804483 6.625156-6.804483C6.56538-6.804483 6.445828-6.804483 6.445828-6.60523C6.445828-6.495641 6.545455-6.495641 6.625156-6.495641C7.193026-6.485679 7.302615-6.276463 7.302615-6.057285C7.302615-6.027397 7.28269-5.877958 7.272727-5.84807L6.156912-1.414695L3.955168-6.615193C3.875467-6.794521 3.865504-6.804483 3.636364-6.804483H2.30137C2.102117-6.804483 2.012453-6.804483 2.012453-6.60523C2.012453-6.495641 2.102117-6.495641 2.291407-6.495641C2.34122-6.495641 2.968867-6.495641 2.968867-6.405978L1.633873-1.05604C1.534247-.657534 1.364882-.33873 .557908-.308842C.498132-.308842 .388543-.298879 .388543-.109589C.388543-.039851 .438356 0 .518057 0C.836862 0 1.185554-.029888 1.514321-.029888C1.853051-.029888 2.211706 0 2.540473 0C2.590286 0 2.719801 0 2.719801-.199253C2.719801-.298879 2.630137-.308842 2.520548-.308842C1.942715-.328767 1.863014-.547945 1.863014-.747198C1.863014-.816936 1.872976-.86675 1.902864-.976339L3.217933-6.236613C3.257783-6.176837 3.257783-6.156912 3.307597-6.057285L5.788294-.18929C5.858032-.019925 5.88792 0 5.977584 0C6.087173 0 6.087173-.029888 6.136986-.209215L7.531756-5.758406Z'/>
<path id='g1-80' d='M3.01868-3.148194H4.712329C6.127024-3.148194 7.511831-4.184309 7.511831-5.300125C7.511831-6.067248 6.854296-6.804483 5.549191-6.804483H2.321295C2.132005-6.804483 2.022416-6.804483 2.022416-6.615193C2.022416-6.495641 2.11208-6.495641 2.311333-6.495641C2.440847-6.495641 2.620174-6.485679 2.739726-6.475716C2.899128-6.455791 2.958904-6.425903 2.958904-6.316314C2.958904-6.276463 2.948941-6.246575 2.919054-6.127024L1.58406-.777086C1.484433-.388543 1.464508-.308842 .67746-.308842C.508095-.308842 .398506-.308842 .398506-.119552C.398506 0 .518057 0 .547945 0C.826899 0 1.534247-.029888 1.8132-.029888C2.022416-.029888 2.241594-.019925 2.450809-.019925C2.669988-.019925 2.889166 0 3.098381 0C3.16812 0 3.297634 0 3.297634-.199253C3.297634-.308842 3.20797-.308842 3.01868-.308842C2.650062-.308842 2.371108-.308842 2.371108-.488169C2.371108-.547945 2.391034-.597758 2.400996-.657534L3.01868-3.148194ZM3.73599-6.117061C3.825654-6.465753 3.845579-6.495641 4.273973-6.495641H5.230386C6.057285-6.495641 6.585305-6.22665 6.585305-5.539228C6.585305-5.150685 6.386052-4.293898 5.997509-3.935243C5.499377-3.486924 4.901619-3.407223 4.463263-3.407223H3.058531L3.73599-6.117061Z'/>
<path id='g1-87' d='M9.135741-5.648817C9.384807-6.087173 9.62391-6.445828 10.251557-6.495641C10.34122-6.505604 10.440847-6.505604 10.440847-6.694894C10.440847-6.734745 10.400996-6.804483 10.321295-6.804483C10.082192-6.804483 9.803238-6.774595 9.554172-6.774595C9.215442-6.774595 8.846824-6.804483 8.518057-6.804483C8.458281-6.804483 8.328767-6.804483 8.328767-6.615193C8.328767-6.505604 8.418431-6.495641 8.478207-6.495641C8.71731-6.485679 9.066002-6.405978 9.066002-6.107098C9.066002-5.997509 9.016189-5.917808 8.936488-5.778331L6.246575-1.085928L5.877958-6.027397C5.867995-6.22665 5.84807-6.485679 6.575342-6.495641C6.744707-6.495641 6.844334-6.495641 6.844334-6.694894C6.844334-6.794521 6.734745-6.804483 6.694894-6.804483C6.296389-6.804483 5.877958-6.774595 5.479452-6.774595C5.250311-6.774595 4.662516-6.804483 4.433375-6.804483C4.373599-6.804483 4.244085-6.804483 4.244085-6.60523C4.244085-6.495641 4.343711-6.495641 4.483188-6.495641C4.921544-6.495641 4.991283-6.435866 5.011208-6.246575L5.070984-5.479452L2.550436-1.085928L2.171856-6.136986C2.171856-6.256538 2.171856-6.485679 2.929016-6.495641C3.028643-6.495641 3.138232-6.495641 3.138232-6.694894C3.138232-6.804483 3.01868-6.804483 2.998755-6.804483C2.600249-6.804483 2.181818-6.774595 1.77335-6.774595C1.424658-6.774595 1.066002-6.804483 .727273-6.804483C.67746-6.804483 .547945-6.804483 .547945-6.615193C.547945-6.495641 .637609-6.495641 .797011-6.495641C1.295143-6.495641 1.305106-6.405978 1.325031-6.127024L1.77335-.039851C1.783313 .139477 1.793275 .219178 1.932752 .219178C2.052304 .219178 2.082192 .159402 2.171856 .009963L5.100872-5.070984L5.469489-.039851C5.489415 .169365 5.50934 .219178 5.628892 .219178C5.758406 .219178 5.818182 .119552 5.867995 .029888L9.135741-5.648817Z'/>
<path id='g1-107' d='M2.859278-6.804483C2.859278-6.814446 2.859278-6.914072 2.729763-6.914072C2.500623-6.914072 1.77335-6.834371 1.514321-6.814446C1.43462-6.804483 1.325031-6.794521 1.325031-6.615193C1.325031-6.495641 1.414695-6.495641 1.564134-6.495641C2.042341-6.495641 2.062267-6.425903 2.062267-6.326276L2.032379-6.127024L.587796-.388543C.547945-.249066 .547945-.229141 .547945-.169365C.547945 .059776 .747198 .109589 .836862 .109589C.966376 .109589 1.115816 .019925 1.175592-.099626C1.225405-.18929 1.673724-2.032379 1.733499-2.281445C2.072229-2.251557 2.889166-2.092154 2.889166-1.43462C2.889166-1.364882 2.889166-1.325031 2.859278-1.225405C2.839352-1.105853 2.819427-.986301 2.819427-.876712C2.819427-.288917 3.217933 .109589 3.73599 .109589C4.034869 .109589 4.303861-.049813 4.523039-.418431C4.772105-.856787 4.881694-1.404732 4.881694-1.424658C4.881694-1.524284 4.79203-1.524284 4.762142-1.524284C4.662516-1.524284 4.652553-1.484433 4.622665-1.344956C4.423412-.617684 4.194271-.109589 3.755915-.109589C3.566625-.109589 3.437111-.219178 3.437111-.577833C3.437111-.747198 3.476961-.976339 3.516812-1.135741C3.556663-1.305106 3.556663-1.344956 3.556663-1.444583C3.556663-2.092154 2.929016-2.381071 2.082192-2.49066C2.391034-2.669988 2.709838-2.988792 2.938979-3.227895C3.417186-3.755915 3.875467-4.184309 4.363636-4.184309C4.423412-4.184309 4.433375-4.184309 4.4533-4.174346C4.572852-4.154421 4.582814-4.154421 4.662516-4.094645C4.682441-4.084682 4.682441-4.07472 4.702366-4.054795C4.224159-4.024907 4.134496-3.636364 4.134496-3.516812C4.134496-3.35741 4.244085-3.16812 4.513076-3.16812C4.772105-3.16812 5.061021-3.387298 5.061021-3.775841C5.061021-4.07472 4.83188-4.403487 4.383562-4.403487C4.104608-4.403487 3.646326-4.323786 2.929016-3.526775C2.590286-3.148194 2.201743-2.749689 1.823163-2.600249L2.859278-6.804483Z'/>
</defs>
<g id='page1' transform='matrix(1.165714 0 0 1.165714 0 0)'>
<rect x='163.56154' y='19.336791' width='140.877329' height='29.279178' fill='#242424'/>
<g fill='#f6f3e8'>
<use x='163.56154' y='36.633088' xlink:href='#g1-80'/>
<use x='169.95769' y='38.127469' xlink:href='#g2-110'/>
<use x='178.148015' y='36.633088' xlink:href='#g3-61'/>
<use x='188.664095' y='24.179742' xlink:href='#g2-110'/>
<use x='193.588958' y='24.179742' xlink:href='#g0-0'/>
<use x='199.815638' y='24.179742' xlink:href='#g4-49'/>
<use x='189.03023' y='27.168519' xlink:href='#g5-88'/>
<use x='188.980049' y='48.615969' xlink:href='#g2-107'/>
<use x='193.383704' y='48.615969' xlink:href='#g4-61'/>
<use x='199.499687' y='48.615969' xlink:href='#g4-49'/>
<use x='205.447258' y='36.633088' xlink:href='#g1-87'/>
<use x='216.240142' y='36.633088' xlink:href='#g1-107'/>
<use x='224.507694' y='36.633088' xlink:href='#g3-61'/>
<use x='235.023774' y='24.179742' xlink:href='#g2-110'/>
<use x='239.948637' y='24.179742' xlink:href='#g0-0'/>
<use x='246.175316' y='24.179742' xlink:href='#g4-49'/>
<use x='235.389909' y='27.168519' xlink:href='#g5-88'/>
<use x='235.339728' y='48.615969' xlink:href='#g2-107'/>
<use x='239.743382' y='48.615969' xlink:href='#g4-61'/>
<use x='245.859366' y='48.615969' xlink:href='#g4-49'/>
<use x='251.806937' y='36.633088' xlink:href='#g1-107'/>
<use x='257.307157' y='36.633088' xlink:href='#g3-33'/>
<use x='265.986113' y='24.179742' xlink:href='#g2-107'/>
<use x='261.822907' y='27.168519' xlink:href='#g5-89'/>
<use x='261.734965' y='48.387653' xlink:href='#g2-105'/>
<use x='264.553691' y='48.387653' xlink:href='#g4-61'/>
<use x='270.669675' y='48.387653' xlink:href='#g4-49'/>
<use x='276.301297' y='36.633088' xlink:href='#g1-78'/>
<use x='285.392187' y='36.633088' xlink:href='#g3-40'/>
<use x='289.266561' y='36.633088' xlink:href='#g1-80'/>
<use x='295.662711' y='38.127469' xlink:href='#g2-107'/>
<use x='300.564495' y='36.633088' xlink:href='#g3-41'/>
</g>
</g>
</svg>