<?xml version='1.0' encoding='UTF-8'?>
<!-- This file was generated by dvisvgm 2.8.1 -->
<svg version='1.1' xmlns='http://www.w3.org/2000/svg' xmlns:xlink='http://www.w3.org/1999/xlink' width='125.67545pt' height='11.613592pt' viewBox='209.649345 25.444587 125.67545 11.613592'>
<defs>
<path id='g1-109' d='M3.02665-.564882C2.991781-.425405 2.929016-.188294 2.929016-.153425C2.929016 0 3.054545 .069738 3.166127 .069738C3.291656 .069738 3.403238-.020922 3.438107-.083686S3.528767-.369614 3.563636-.516065C3.598506-.648568 3.675218-.969365 3.717061-1.143711C3.758904-1.297136 3.800747-1.45056 3.835616-1.610959C3.912329-1.910834 3.912329-1.924782 4.051806-2.140971C4.274969-2.48269 4.623661-2.880199 5.167621-2.880199C5.558157-2.880199 5.579078-2.559402 5.579078-2.39203C5.579078-1.973599 5.279203-1.199502 5.167621-.9066C5.090909-.711333 5.063014-.648568 5.063014-.530012C5.063014-.160399 5.369863 .069738 5.725529 .069738C6.422914 .069738 6.729763-.892653 6.729763-.99726C6.729763-1.08792 6.639103-1.08792 6.618182-1.08792C6.520548-1.08792 6.513574-1.046077 6.485679-.969365C6.32528-.411457 6.025405-.125529 5.746451-.125529C5.6-.125529 5.572105-.223163 5.572105-.369614C5.572105-.530012 5.606974-.620672 5.732503-.934496C5.816189-1.150685 6.102117-1.889913 6.102117-2.280448C6.102117-2.39203 6.102117-2.684932 5.844085-2.887173C5.725529-2.977833 5.523288-3.075467 5.195517-3.075467C4.56787-3.075467 4.184309-2.66401 3.961146-2.371108C3.905355-2.963885 3.410212-3.075467 3.054545-3.075467C2.475716-3.075467 2.085181-2.719801 1.875965-2.440847C1.827148-2.922042 1.415691-3.075467 1.129763-3.075467C.829888-3.075467 .669489-2.859278 .578829-2.698879C.425405-2.440847 .327771-2.043337 .327771-2.008468C.327771-1.917808 .425405-1.917808 .446326-1.917808C.54396-1.917808 .550934-1.93873 .599751-2.127024C.704359-2.538481 .836862-2.880199 1.108842-2.880199C1.290162-2.880199 1.338979-2.726775 1.338979-2.538481C1.338979-2.405978 1.276214-2.147945 1.227397-1.959651S1.108842-1.48543 1.073973-1.332005L.850809-.439352C.822914-.348692 .781071-.174346 .781071-.153425C.781071 0 .9066 .069738 1.018182 .069738C1.143711 .069738 1.255293-.020922 1.290162-.083686S1.380822-.369614 1.415691-.516065C1.45056-.648568 1.527273-.969365 1.569116-1.143711C1.610959-1.297136 1.652802-1.45056 1.687671-1.610959C1.764384-1.896887 1.778331-1.952677 1.980573-2.238605C2.175841-2.517559 2.503611-2.880199 3.02665-2.880199C3.431133-2.880199 3.438107-2.524533 3.438107-2.39203C3.438107-2.217684 3.417186-2.127024 3.319552-1.736488L3.02665-.564882Z'/>
<path id='g3-49' d='M2.336239-4.435367C2.336239-4.623661 2.322291-4.630635 2.127024-4.630635C1.680697-4.191283 1.046077-4.184309 .760149-4.184309V-3.93325C.927522-3.93325 1.387796-3.93325 1.771357-4.128518V-.571856C1.771357-.341719 1.771357-.251059 1.073973-.251059H.808966V0C.934496-.006974 1.792279-.027895 2.050311-.027895C2.266501-.027895 3.145205-.006974 3.29863 0V-.251059H3.033624C2.336239-.251059 2.336239-.341719 2.336239-.571856V-4.435367Z'/>
<path id='g3-50' d='M3.521793-1.26924H3.284682C3.263761-1.115816 3.194022-.704359 3.103362-.63462C3.047572-.592777 2.510585-.592777 2.412951-.592777H1.129763C1.862017-1.241345 2.106102-1.436613 2.524533-1.764384C3.040598-2.175841 3.521793-2.608219 3.521793-3.270735C3.521793-4.11457 2.782565-4.630635 1.889913-4.630635C1.025156-4.630635 .439352-4.02391 .439352-3.382316C.439352-3.02665 .739228-2.991781 .808966-2.991781C.976339-2.991781 1.17858-3.110336 1.17858-3.361395C1.17858-3.486924 1.129763-3.731009 .767123-3.731009C.983313-4.226152 1.457534-4.379577 1.785305-4.379577C2.48269-4.379577 2.84533-3.835616 2.84533-3.270735C2.84533-2.66401 2.412951-2.182814 2.189788-1.931756L.509091-.27198C.439352-.209215 .439352-.195268 .439352 0H3.312578L3.521793-1.26924Z'/>
<path id='g2-40' d='M3.297634 2.391034C3.297634 2.361146 3.297634 2.34122 3.128269 2.171856C1.882939 .916563 1.564134-.966376 1.564134-2.49066C1.564134-4.224159 1.942715-5.957659 3.16812-7.202989C3.297634-7.32254 3.297634-7.342466 3.297634-7.372354C3.297634-7.442092 3.257783-7.47198 3.198007-7.47198C3.098381-7.47198 2.201743-6.794521 1.613948-5.529265C1.105853-4.433375 .986301-3.327522 .986301-2.49066C.986301-1.713574 1.09589-.508095 1.643836 .617684C2.241594 1.843088 3.098381 2.49066 3.198007 2.49066C3.257783 2.49066 3.297634 2.460772 3.297634 2.391034Z'/>
<path id='g2-41' d='M2.879203-2.49066C2.879203-3.267746 2.769614-4.473225 2.221669-5.599004C1.62391-6.824408 .767123-7.47198 .667497-7.47198C.607721-7.47198 .56787-7.43213 .56787-7.372354C.56787-7.342466 .56787-7.32254 .757161-7.143213C1.733499-6.156912 2.30137-4.572852 2.30137-2.49066C2.30137-.787049 1.932752 .966376 .697385 2.221669C.56787 2.34122 .56787 2.361146 .56787 2.391034C.56787 2.450809 .607721 2.49066 .667497 2.49066C.767123 2.49066 1.663761 1.8132 2.251557 .547945C2.759651-.547945 2.879203-1.653798 2.879203-2.49066Z'/>
<path id='g2-58' d='M1.912827-3.765878C1.912827-4.054795 1.673724-4.293898 1.384807-4.293898S.856787-4.054795 .856787-3.765878S1.09589-3.237858 1.384807-3.237858S1.912827-3.476961 1.912827-3.765878ZM1.912827-.52802C1.912827-.816936 1.673724-1.05604 1.384807-1.05604S.856787-.816936 .856787-.52802S1.09589 0 1.384807 0S1.912827-.239103 1.912827-.52802Z'/>
<path id='g2-61' d='M6.844334-3.257783C6.993773-3.257783 7.183064-3.257783 7.183064-3.457036S6.993773-3.656289 6.854296-3.656289H.886675C.747198-3.656289 .557908-3.656289 .557908-3.457036S.747198-3.257783 .896638-3.257783H6.844334ZM6.854296-1.325031C6.993773-1.325031 7.183064-1.325031 7.183064-1.524284S6.993773-1.723537 6.844334-1.723537H.896638C.747198-1.723537 .557908-1.723537 .557908-1.524284S.747198-1.325031 .886675-1.325031H6.854296Z'/>
<path id='g0-58' d='M1.912827-.52802C1.912827-.816936 1.673724-1.05604 1.384807-1.05604S.856787-.816936 .856787-.52802S1.09589 0 1.384807 0S1.912827-.239103 1.912827-.52802Z'/>
<path id='g0-59' d='M2.022416-.009963C2.022416-.667497 1.77335-1.05604 1.384807-1.05604C1.05604-1.05604 .856787-.806974 .856787-.52802C.856787-.259029 1.05604 0 1.384807 0C1.504359 0 1.633873-.039851 1.733499-.129514C1.763387-.14944 1.77335-.159402 1.783313-.159402S1.803238-.14944 1.803238-.009963C1.803238 .727273 1.454545 1.325031 1.125778 1.653798C1.016189 1.763387 1.016189 1.783313 1.016189 1.8132C1.016189 1.882939 1.066002 1.92279 1.115816 1.92279C1.225405 1.92279 2.022416 1.155666 2.022416-.009963Z'/>
<path id='g0-75' d='M5.070984-4.024907C5.061021-4.054795 5.021171-4.134496 5.021171-4.164384C5.021171-4.174346 5.200498-4.313823 5.310087-4.393524L7.053549-5.738481C7.990037-6.425903 8.37858-6.465753 8.67746-6.495641C8.757161-6.505604 8.856787-6.515567 8.856787-6.694894C8.856787-6.734745 8.826899-6.804483 8.747198-6.804483C8.52802-6.804483 8.278954-6.774595 8.039851-6.774595C7.681196-6.774595 7.292653-6.804483 6.933998-6.804483C6.864259-6.804483 6.744707-6.804483 6.744707-6.60523C6.744707-6.535492 6.794521-6.505604 6.864259-6.495641C7.083437-6.475716 7.173101-6.425903 7.173101-6.286426C7.173101-6.107098 6.874222-5.877958 6.814446-5.828144L2.929016-2.839352L3.726027-6.03736C3.815691-6.396015 3.835616-6.495641 4.562889-6.495641C4.811955-6.495641 4.901619-6.495641 4.901619-6.694894C4.901619-6.784558 4.821918-6.804483 4.762142-6.804483C4.483188-6.804483 3.765878-6.774595 3.486924-6.774595C3.198007-6.774595 2.49066-6.804483 2.201743-6.804483C2.132005-6.804483 2.002491-6.804483 2.002491-6.615193C2.002491-6.495641 2.092154-6.495641 2.291407-6.495641C2.420922-6.495641 2.600249-6.485679 2.719801-6.475716C2.879203-6.455791 2.938979-6.425903 2.938979-6.316314C2.938979-6.276463 2.929016-6.246575 2.899128-6.127024L1.564134-.777086C1.464508-.388543 1.444583-.308842 .657534-.308842C.488169-.308842 .37858-.308842 .37858-.119552C.37858 0 .498132 0 .52802 0C.806974 0 1.514321-.029888 1.793275-.029888C2.002491-.029888 2.221669-.019925 2.430884-.019925C2.650062-.019925 2.86924 0 3.078456 0C3.148194 0 3.277709 0 3.277709-.199253C3.277709-.308842 3.188045-.308842 2.998755-.308842C2.630137-.308842 2.351183-.308842 2.351183-.488169C2.351183-.557908 2.410959-.777086 2.440847-.926526C2.580324-1.444583 2.709838-1.972603 2.839352-2.49066L4.323786-3.646326L5.479452-.966376C5.599004-.697385 5.599004-.67746 5.599004-.617684C5.599004-.318804 5.17061-.308842 5.080946-.308842C4.971357-.308842 4.861768-.308842 4.861768-.109589C4.861768 0 4.98132 0 5.001245 0C5.399751 0 5.818182-.029888 6.216687-.029888C6.435866-.029888 6.973848 0 7.193026 0C7.242839 0 7.372354 0 7.372354-.199253C7.372354-.308842 7.262765-.308842 7.173101-.308842C6.764633-.318804 6.635118-.408468 6.485679-.757161L5.070984-4.024907Z'/>
<path id='g0-78' d='M7.531756-5.758406C7.631382-6.156912 7.81071-6.465753 8.607721-6.495641C8.657534-6.495641 8.777086-6.505604 8.777086-6.694894C8.777086-6.704857 8.777086-6.804483 8.647572-6.804483C8.318804-6.804483 7.970112-6.774595 7.641345-6.774595C7.302615-6.774595 6.953923-6.804483 6.625156-6.804483C6.56538-6.804483 6.445828-6.804483 6.445828-6.60523C6.445828-6.495641 6.545455-6.495641 6.625156-6.495641C7.193026-6.485679 7.302615-6.276463 7.302615-6.057285C7.302615-6.027397 7.28269-5.877958 7.272727-5.84807L6.156912-1.414695L3.955168-6.615193C3.875467-6.794521 3.865504-6.804483 3.636364-6.804483H2.30137C2.102117-6.804483 2.012453-6.804483 2.012453-6.60523C2.012453-6.495641 2.102117-6.495641 2.291407-6.495641C2.34122-6.495641 2.968867-6.495641 2.968867-6.405978L1.633873-1.05604C1.534247-.657534 1.364882-.33873 .557908-.308842C.498132-.308842 .388543-.298879 .388543-.109589C.388543-.039851 .438356 0 .518057 0C.836862 0 1.185554-.029888 1.514321-.029888C1.853051-.029888 2.211706 0 2.540473 0C2.590286 0 2.719801 0 2.719801-.199253C2.719801-.298879 2.630137-.308842 2.520548-.308842C1.942715-.328767 1.863014-.547945 1.863014-.747198C1.863014-.816936 1.872976-.86675 1.902864-.976339L3.217933-6.236613C3.257783-6.176837 3.257783-6.156912 3.307597-6.057285L5.788294-.18929C5.858032-.019925 5.88792 0 5.977584 0C6.087173 0 6.087173-.029888 6.136986-.209215L7.531756-5.758406Z'/>
</defs>
<g id='page1' transform='matrix(1.165714 0 0 1.165714 0 0)'>
<rect x='179.846252' y='21.827464' width='107.809823' height='9.96264' fill='#242424'/>
<g fill='#f6f3e8'>
<use x='179.846252' y='29.299444' xlink:href='#g0-75'/>
<use x='189.020192' y='29.299444' xlink:href='#g2-40'/>
<use x='192.894565' y='29.299444' xlink:href='#g0-78'/>
<use x='201.985455' y='29.299444' xlink:href='#g2-41'/>
<use x='208.627162' y='29.299444' xlink:href='#g2-58'/>
<use x='211.39457' y='29.299444' xlink:href='#g2-61'/>
<use x='221.91065' y='29.299444' xlink:href='#g0-75'/>
<use x='230.371991' y='30.793825' xlink:href='#g3-49'/>
<use x='234.84136' y='29.299444' xlink:href='#g0-59'/>
<use x='239.269168' y='29.299444' xlink:href='#g0-75'/>
<use x='247.730509' y='30.793825' xlink:href='#g3-50'/>
<use x='252.199878' y='29.299444' xlink:href='#g0-59'/>
<use x='256.627686' y='29.299444' xlink:href='#g0-58'/>
<use x='259.395095' y='29.299444' xlink:href='#g0-58'/>
<use x='262.162503' y='29.299444' xlink:href='#g0-58'/>
<use x='264.929912' y='29.299444' xlink:href='#g0-58'/>
<use x='267.69732' y='29.299444' xlink:href='#g0-59'/>
<use x='272.125128' y='29.299444' xlink:href='#g0-75'/>
<use x='280.586469' y='30.793825' xlink:href='#g1-109'/>
</g>
</g>
</svg>