<?xml version='1.0' encoding='UTF-8'?>
<!-- This file was generated by dvisvgm 2.8.1 -->
<svg version='1.1' xmlns='http://www.w3.org/2000/svg' xmlns:xlink='http://www.w3.org/1999/xlink' width='78.933472pt' height='11.776203pt' viewBox='233.310639 24.120599 78.933472 11.776203'>
<defs>
<path id='g4-49' d='M2.336239-4.435367C2.336239-4.623661 2.322291-4.630635 2.127024-4.630635C1.680697-4.191283 1.046077-4.184309 .760149-4.184309V-3.93325C.927522-3.93325 1.387796-3.93325 1.771357-4.128518V-.571856C1.771357-.341719 1.771357-.251059 1.073973-.251059H.808966V0C.934496-.006974 1.792279-.027895 2.050311-.027895C2.266501-.027895 3.145205-.006974 3.29863 0V-.251059H3.033624C2.336239-.251059 2.336239-.341719 2.336239-.571856V-4.435367Z'/>
<path id='g3-43' d='M4.07472-2.291407H6.854296C6.993773-2.291407 7.183064-2.291407 7.183064-2.49066S6.993773-2.689913 6.854296-2.689913H4.07472V-5.479452C4.07472-5.618929 4.07472-5.808219 3.875467-5.808219S3.676214-5.618929 3.676214-5.479452V-2.689913H.886675C.747198-2.689913 .557908-2.689913 .557908-2.49066S.747198-2.291407 .886675-2.291407H3.676214V.498132C3.676214 .637609 3.676214 .826899 3.875467 .826899S4.07472 .637609 4.07472 .498132V-2.291407Z'/>
<path id='g3-49' d='M2.929016-6.37609C2.929016-6.615193 2.929016-6.635118 2.699875-6.635118C2.082192-5.997509 1.205479-5.997509 .886675-5.997509V-5.688667C1.085928-5.688667 1.673724-5.688667 2.191781-5.947696V-.787049C2.191781-.428394 2.161893-.308842 1.265255-.308842H.946451V0C1.295143-.029888 2.161893-.029888 2.560399-.029888S3.825654-.029888 4.174346 0V-.308842H3.855542C2.958904-.308842 2.929016-.418431 2.929016-.787049V-6.37609Z'/>
<path id='g3-50' d='M1.265255-.767123L2.321295-1.793275C3.875467-3.16812 4.473225-3.706102 4.473225-4.702366C4.473225-5.838107 3.576588-6.635118 2.361146-6.635118C1.235367-6.635118 .498132-5.718555 .498132-4.83188C.498132-4.273973 .996264-4.273973 1.026152-4.273973C1.195517-4.273973 1.544209-4.393524 1.544209-4.801993C1.544209-5.061021 1.364882-5.32005 1.016189-5.32005C.936488-5.32005 .916563-5.32005 .886675-5.310087C1.115816-5.957659 1.653798-6.326276 2.231631-6.326276C3.138232-6.326276 3.566625-5.519303 3.566625-4.702366C3.566625-3.905355 3.068493-3.118306 2.520548-2.500623L.607721-.368618C.498132-.259029 .498132-.239103 .498132 0H4.194271L4.473225-1.733499H4.224159C4.174346-1.43462 4.104608-.996264 4.004981-.846824C3.935243-.767123 3.277709-.767123 3.058531-.767123H1.265255Z'/>
<path id='g3-61' d='M6.844334-3.257783C6.993773-3.257783 7.183064-3.257783 7.183064-3.457036S6.993773-3.656289 6.854296-3.656289H.886675C.747198-3.656289 .557908-3.656289 .557908-3.457036S.747198-3.257783 .896638-3.257783H6.844334ZM6.854296-1.325031C6.993773-1.325031 7.183064-1.325031 7.183064-1.524284S6.993773-1.723537 6.844334-1.723537H.896638C.747198-1.723537 .557908-1.723537 .557908-1.524284S.747198-1.325031 .886675-1.325031H6.854296Z'/>
<path id='g0-0' d='M5.188543-1.57609C5.300125-1.57609 5.467497-1.57609 5.467497-1.743462C5.467497-1.917808 5.307098-1.917808 5.188543-1.917808H1.03213C.920548-1.917808 .753176-1.917808 .753176-1.750436C.753176-1.57609 .913574-1.57609 1.03213-1.57609H5.188543Z'/>
<path id='g2-110' d='M.850809-.439352C.822914-.348692 .781071-.174346 .781071-.153425C.781071 0 .9066 .069738 1.018182 .069738C1.143711 .069738 1.255293-.020922 1.290162-.083686S1.380822-.369614 1.415691-.516065C1.45056-.648568 1.527273-.969365 1.569116-1.143711C1.610959-1.297136 1.652802-1.45056 1.687671-1.610959C1.764384-1.896887 1.778331-1.952677 1.980573-2.238605C2.175841-2.517559 2.503611-2.880199 3.02665-2.880199C3.431133-2.880199 3.438107-2.524533 3.438107-2.39203C3.438107-1.973599 3.138232-1.199502 3.02665-.9066C2.949938-.711333 2.922042-.648568 2.922042-.530012C2.922042-.160399 3.228892 .069738 3.584558 .069738C4.281943 .069738 4.588792-.892653 4.588792-.99726C4.588792-1.08792 4.498132-1.08792 4.47721-1.08792C4.379577-1.08792 4.372603-1.046077 4.344707-.969365C4.184309-.411457 3.884433-.125529 3.605479-.125529C3.459029-.125529 3.431133-.223163 3.431133-.369614C3.431133-.530012 3.466002-.620672 3.591532-.934496C3.675218-1.150685 3.961146-1.889913 3.961146-2.280448C3.961146-2.956912 3.424159-3.075467 3.054545-3.075467C2.475716-3.075467 2.085181-2.719801 1.875965-2.440847C1.827148-2.922042 1.415691-3.075467 1.129763-3.075467C.829888-3.075467 .669489-2.859278 .578829-2.698879C.425405-2.440847 .327771-2.043337 .327771-2.008468C.327771-1.917808 .425405-1.917808 .446326-1.917808C.54396-1.917808 .550934-1.93873 .599751-2.127024C.704359-2.538481 .836862-2.880199 1.108842-2.880199C1.290162-2.880199 1.338979-2.726775 1.338979-2.538481C1.338979-2.405978 1.276214-2.147945 1.227397-1.959651S1.108842-1.48543 1.073973-1.332005L.850809-.439352Z'/>
<path id='g1-97' d='M3.716065-3.765878C3.536737-4.134496 3.247821-4.403487 2.799502-4.403487C1.633873-4.403487 .398506-2.938979 .398506-1.484433C.398506-.547945 .946451 .109589 1.723537 .109589C1.92279 .109589 2.420922 .069738 3.01868-.637609C3.098381-.219178 3.447073 .109589 3.92528 .109589C4.273973 .109589 4.503113-.119552 4.662516-.438356C4.83188-.797011 4.961395-1.404732 4.961395-1.424658C4.961395-1.524284 4.871731-1.524284 4.841843-1.524284C4.742217-1.524284 4.732254-1.484433 4.702366-1.344956C4.533001-.697385 4.353674-.109589 3.945205-.109589C3.676214-.109589 3.646326-.368618 3.646326-.56787C3.646326-.787049 3.666252-.86675 3.775841-1.305106C3.88543-1.723537 3.905355-1.823163 3.995019-2.201743L4.353674-3.596513C4.423412-3.875467 4.423412-3.895392 4.423412-3.935243C4.423412-4.104608 4.303861-4.204234 4.134496-4.204234C3.895392-4.204234 3.745953-3.985056 3.716065-3.765878ZM3.068493-1.185554C3.01868-1.006227 3.01868-.986301 2.86924-.816936C2.430884-.268991 2.022416-.109589 1.743462-.109589C1.24533-.109589 1.105853-.657534 1.105853-1.046077C1.105853-1.544209 1.424658-2.769614 1.653798-3.227895C1.96264-3.815691 2.410959-4.184309 2.809465-4.184309C3.457036-4.184309 3.596513-3.367372 3.596513-3.307597S3.576588-3.188045 3.566625-3.138232L3.068493-1.185554Z'/>
<path id='g1-110' d='M.876712-.587796C.846824-.438356 .787049-.209215 .787049-.159402C.787049 .019925 .926526 .109589 1.075965 .109589C1.195517 .109589 1.374844 .029888 1.444583-.169365C1.454545-.18929 1.574097-.657534 1.633873-.9066L1.853051-1.803238C1.912827-2.022416 1.972603-2.241594 2.022416-2.470735C2.062267-2.6401 2.141968-2.929016 2.15193-2.968867C2.30137-3.277709 2.82939-4.184309 3.775841-4.184309C4.224159-4.184309 4.313823-3.815691 4.313823-3.486924C4.313823-2.86924 3.825654-1.594022 3.666252-1.165629C3.576588-.936488 3.566625-.816936 3.566625-.707347C3.566625-.239103 3.915318 .109589 4.383562 .109589C5.32005 .109589 5.688667-1.344956 5.688667-1.424658C5.688667-1.524284 5.599004-1.524284 5.569116-1.524284C5.469489-1.524284 5.469489-1.494396 5.419676-1.344956C5.220423-.667497 4.891656-.109589 4.403487-.109589C4.234122-.109589 4.164384-.209215 4.164384-.438356C4.164384-.687422 4.254047-.926526 4.343711-1.145704C4.533001-1.673724 4.951432-2.769614 4.951432-3.337484C4.951432-4.004981 4.523039-4.403487 3.805729-4.403487C2.909091-4.403487 2.420922-3.765878 2.251557-3.536737C2.201743-4.094645 1.793275-4.403487 1.334994-4.403487S.687422-4.014944 .587796-3.835616C.428394-3.496887 .288917-2.909091 .288917-2.86924C.288917-2.769614 .388543-2.769614 .408468-2.769614C.508095-2.769614 .518057-2.779577 .577833-2.998755C.747198-3.706102 .946451-4.184309 1.305106-4.184309C1.504359-4.184309 1.613948-4.054795 1.613948-3.726027C1.613948-3.516812 1.58406-3.407223 1.454545-2.889166L.876712-.587796Z'/>
</defs>
<g id='page1' transform='matrix(1.165714 0 0 1.165714 0 0)'>
<rect x='200.14393' y='20.69169' width='67.712537' height='10.102135' fill='#242424'/>
<g fill='#f6f3e8'>
<use x='200.14393' y='29.299444' xlink:href='#g1-97'/>
<use x='205.410084' y='30.793825' xlink:href='#g2-110'/>
<use x='213.60041' y='29.299444' xlink:href='#g3-61'/>
<use x='224.11649' y='29.299444' xlink:href='#g1-110'/>
<use x='230.096415' y='29.299444' xlink:href='#g3-50'/>
<use x='235.077754' y='25.185948' xlink:href='#g2-110'/>
<use x='240.002616' y='25.185948' xlink:href='#g0-0'/>
<use x='246.229296' y='25.185948' xlink:href='#g4-49'/>
<use x='252.912515' y='29.299444' xlink:href='#g3-43'/>
<use x='262.875129' y='29.299444' xlink:href='#g3-49'/>
</g>
</g>
</svg>