<?xml version='1.0' encoding='UTF-8'?>
<!-- This file was generated by dvisvgm 2.8.1 -->
<svg version='1.1' xmlns='http://www.w3.org/2000/svg' xmlns:xlink='http://www.w3.org/1999/xlink' width='676.706839pt' height='27.534725pt' viewBox='-34.365412 32.993418 676.706839 27.534725'>
<defs>
<path id='g0-0' d='M6.56538-2.291407C6.734745-2.291407 6.914072-2.291407 6.914072-2.49066S6.734745-2.689913 6.56538-2.689913H1.175592C1.006227-2.689913 .826899-2.689913 .826899-2.49066S1.006227-2.291407 1.175592-2.291407H6.56538Z'/>
<path id='g3-50' d='M3.521793-1.26924H3.284682C3.263761-1.115816 3.194022-.704359 3.103362-.63462C3.047572-.592777 2.510585-.592777 2.412951-.592777H1.129763C1.862017-1.241345 2.106102-1.436613 2.524533-1.764384C3.040598-2.175841 3.521793-2.608219 3.521793-3.270735C3.521793-4.11457 2.782565-4.630635 1.889913-4.630635C1.025156-4.630635 .439352-4.02391 .439352-3.382316C.439352-3.02665 .739228-2.991781 .808966-2.991781C.976339-2.991781 1.17858-3.110336 1.17858-3.361395C1.17858-3.486924 1.129763-3.731009 .767123-3.731009C.983313-4.226152 1.457534-4.379577 1.785305-4.379577C2.48269-4.379577 2.84533-3.835616 2.84533-3.270735C2.84533-2.66401 2.412951-2.182814 2.189788-1.931756L.509091-.27198C.439352-.209215 .439352-.195268 .439352 0H3.312578L3.521793-1.26924Z'/>
<path id='g3-52' d='M3.689166-1.143711V-1.39477H2.915068V-4.505106C2.915068-4.651557 2.915068-4.700374 2.761644-4.700374C2.677958-4.700374 2.650062-4.700374 2.580324-4.60274L.27198-1.39477V-1.143711H2.322291V-.571856C2.322291-.334745 2.322291-.251059 1.75741-.251059H1.569116V0C1.917808-.013948 2.364134-.027895 2.615193-.027895C2.873225-.027895 3.319552-.013948 3.668244 0V-.251059H3.47995C2.915068-.251059 2.915068-.334745 2.915068-.571856V-1.143711H3.689166ZM2.371108-3.947198V-1.39477H.530012L2.371108-3.947198Z'/>
<path id='g3-53' d='M1.080946-3.891407C1.436613-3.800747 1.645828-3.800747 1.75741-3.800747C2.677958-3.800747 3.221918-4.428394 3.221918-4.533001C3.221918-4.609714 3.173101-4.630635 3.138232-4.630635C3.124284-4.630635 3.110336-4.630635 3.082441-4.609714C2.915068-4.546949 2.545455-4.407472 2.02939-4.407472C1.834122-4.407472 1.464508-4.42142 1.011208-4.595766C.941469-4.630635 .927522-4.630635 .920548-4.630635C.829888-4.630635 .829888-4.553923 .829888-4.442341V-2.385056C.829888-2.266501 .829888-2.182814 .941469-2.182814C1.004234-2.182814 1.011208-2.196762 1.080946-2.280448C1.380822-2.66401 1.806227-2.719801 2.050311-2.719801C2.468742-2.719801 2.657036-2.385056 2.691905-2.329265C2.817435-2.099128 2.859278-1.834122 2.859278-1.429639C2.859278-1.220423 2.859278-.808966 2.650062-.502117C2.475716-.251059 2.175841-.083686 1.834122-.083686C1.380822-.083686 .913574-.334745 .739228-.795019C1.004234-.774097 1.136737-.948443 1.136737-1.136737C1.136737-1.436613 .878705-1.492403 .788045-1.492403C.774097-1.492403 .439352-1.492403 .439352-1.115816C.439352-.488169 1.011208 .139477 1.84807 .139477C2.740722 .139477 3.521793-.523039 3.521793-1.401743C3.521793-2.189788 2.922042-2.915068 2.057285-2.915068C1.750436-2.915068 1.387796-2.838356 1.080946-2.57335V-3.891407Z'/>
<path id='g3-54' d='M1.046077-2.280448C1.046077-2.852304 1.094894-3.368369 1.3599-3.793773C1.597011-4.170361 1.973599-4.428394 2.419925-4.428394C2.629141-4.428394 2.908095-4.372603 3.047572-4.184309C2.873225-4.170361 2.726775-4.051806 2.726775-3.849564C2.726775-3.675218 2.84533-3.521793 3.054545-3.521793S3.38929-3.66127 3.38929-3.863512C3.38929-4.267995 3.096389-4.630635 2.405978-4.630635C1.401743-4.630635 .376588-3.710087 .376588-2.21071C.376588-.404483 1.227397 .139477 1.994521 .139477C2.84533 .139477 3.584558-.509091 3.584558-1.422665C3.584558-2.308344 2.880199-2.963885 2.064259-2.963885C1.506351-2.963885 1.199502-2.594271 1.046077-2.280448ZM1.994521-.083686C1.645828-.083686 1.373848-.285928 1.227397-.592777C1.12279-.801993 1.066999-1.150685 1.066999-1.569116C1.066999-2.245579 1.471482-2.768618 2.02939-2.768618C2.350187-2.768618 2.566376-2.643088 2.740722-2.385056C2.908095-2.12005 2.915068-1.827148 2.915068-1.422665C2.915068-1.025156 2.915068-.732254 2.726775-.460274C2.559402-.216189 2.336239-.083686 1.994521-.083686Z'/>
<path id='g3-55' d='M3.731009-4.212204C3.800747-4.29589 3.800747-4.309838 3.800747-4.491158H1.973599C1.694645-4.491158 1.617933-4.498132 1.366874-4.519054C1.004234-4.546949 .990286-4.595766 .969365-4.714321H.732254L.488169-3.221918H.72528C.739228-3.326526 .808966-3.7868 .920548-3.856538C.976339-3.898381 1.54122-3.898381 1.645828-3.898381H3.166127C2.942964-3.605479 2.587298-3.173101 2.440847-2.977833C1.527273-1.778331 1.443587-.669489 1.443587-.258032C1.443587-.18132 1.443587 .139477 1.771357 .139477C2.106102 .139477 2.106102-.174346 2.106102-.265006V-.54396C2.106102-1.896887 2.385056-2.517559 2.684932-2.894147L3.731009-4.212204Z'/>
<path id='g3-56' d='M2.475716-2.517559C3.019676-2.782565 3.368369-3.110336 3.368369-3.591532C3.368369-4.267995 2.66401-4.630635 1.987547-4.630635C1.220423-4.630635 .592777-4.128518 .592777-3.466002C.592777-3.138232 .746202-2.901121 .871731-2.761644C.99726-2.615193 1.046077-2.587298 1.457534-2.343213C1.066999-2.175841 .376588-1.799253 .376588-1.066999C.376588-.292902 1.17858 .139477 1.973599 .139477C2.859278 .139477 3.584558-.425405 3.584558-1.17858C3.584558-1.638854 3.312578-2.02939 2.908095-2.266501C2.817435-2.322291 2.57335-2.461768 2.475716-2.517559ZM1.338979-3.180075C1.157659-3.284682 .962391-3.472976 .962391-3.731009C.962391-4.170361 1.471482-4.428394 1.973599-4.428394C2.517559-4.428394 2.998755-4.086675 2.998755-3.591532C2.998755-2.970859 2.273474-2.657036 2.259527-2.657036S2.231631-2.66401 2.182814-2.691905L1.338979-3.180075ZM1.680697-2.21071L2.636115-1.659776C2.817435-1.555168 3.166127-1.345953 3.166127-.934496C3.166127-.411457 2.587298-.083686 1.987547-.083686C1.345953-.083686 .795019-.495143 .795019-1.066999C.795019-1.583064 1.17858-1.980573 1.680697-2.21071Z'/>
<path id='g2-43' d='M4.07472-2.291407H6.854296C6.993773-2.291407 7.183064-2.291407 7.183064-2.49066S6.993773-2.689913 6.854296-2.689913H4.07472V-5.479452C4.07472-5.618929 4.07472-5.808219 3.875467-5.808219S3.676214-5.618929 3.676214-5.479452V-2.689913H.886675C.747198-2.689913 .557908-2.689913 .557908-2.49066S.747198-2.291407 .886675-2.291407H3.676214V.498132C3.676214 .637609 3.676214 .826899 3.875467 .826899S4.07472 .637609 4.07472 .498132V-2.291407Z'/>
<path id='g2-48' d='M4.582814-3.188045C4.582814-3.985056 4.533001-4.782067 4.184309-5.519303C3.726027-6.475716 2.909091-6.635118 2.49066-6.635118C1.892902-6.635118 1.165629-6.37609 .757161-5.449564C.438356-4.762142 .388543-3.985056 .388543-3.188045C.388543-2.440847 .428394-1.544209 .836862-.787049C1.265255 .019925 1.992528 .219178 2.480697 .219178C3.01868 .219178 3.775841 .009963 4.214197-.936488C4.533001-1.62391 4.582814-2.400996 4.582814-3.188045ZM2.480697 0C2.092154 0 1.504359-.249066 1.325031-1.205479C1.215442-1.803238 1.215442-2.719801 1.215442-3.307597C1.215442-3.945205 1.215442-4.60274 1.295143-5.140722C1.484433-6.326276 2.231631-6.41594 2.480697-6.41594C2.809465-6.41594 3.466999-6.236613 3.656289-5.250311C3.755915-4.692403 3.755915-3.935243 3.755915-3.307597C3.755915-2.560399 3.755915-1.882939 3.646326-1.24533C3.496887-.298879 2.929016 0 2.480697 0Z'/>
<path id='g2-49' d='M2.929016-6.37609C2.929016-6.615193 2.929016-6.635118 2.699875-6.635118C2.082192-5.997509 1.205479-5.997509 .886675-5.997509V-5.688667C1.085928-5.688667 1.673724-5.688667 2.191781-5.947696V-.787049C2.191781-.428394 2.161893-.308842 1.265255-.308842H.946451V0C1.295143-.029888 2.161893-.029888 2.560399-.029888S3.825654-.029888 4.174346 0V-.308842H3.855542C2.958904-.308842 2.929016-.418431 2.929016-.787049V-6.37609Z'/>
<path id='g2-50' d='M1.265255-.767123L2.321295-1.793275C3.875467-3.16812 4.473225-3.706102 4.473225-4.702366C4.473225-5.838107 3.576588-6.635118 2.361146-6.635118C1.235367-6.635118 .498132-5.718555 .498132-4.83188C.498132-4.273973 .996264-4.273973 1.026152-4.273973C1.195517-4.273973 1.544209-4.393524 1.544209-4.801993C1.544209-5.061021 1.364882-5.32005 1.016189-5.32005C.936488-5.32005 .916563-5.32005 .886675-5.310087C1.115816-5.957659 1.653798-6.326276 2.231631-6.326276C3.138232-6.326276 3.566625-5.519303 3.566625-4.702366C3.566625-3.905355 3.068493-3.118306 2.520548-2.500623L.607721-.368618C.498132-.259029 .498132-.239103 .498132 0H4.194271L4.473225-1.733499H4.224159C4.174346-1.43462 4.104608-.996264 4.004981-.846824C3.935243-.767123 3.277709-.767123 3.058531-.767123H1.265255Z'/>
<path id='g2-52' d='M2.929016-1.643836V-.777086C2.929016-.418431 2.909091-.308842 2.171856-.308842H1.96264V0C2.371108-.029888 2.889166-.029888 3.307597-.029888S4.254047-.029888 4.662516 0V-.308842H4.4533C3.716065-.308842 3.696139-.418431 3.696139-.777086V-1.643836H4.692403V-1.952677H3.696139V-6.485679C3.696139-6.684932 3.696139-6.744707 3.536737-6.744707C3.447073-6.744707 3.417186-6.744707 3.337484-6.625156L.278954-1.952677V-1.643836H2.929016ZM2.988792-1.952677H.557908L2.988792-5.668742V-1.952677Z'/>
<path id='g2-54' d='M1.315068-3.267746V-3.506849C1.315068-6.027397 2.550436-6.386052 3.058531-6.386052C3.297634-6.386052 3.716065-6.326276 3.935243-5.987547C3.785803-5.987547 3.387298-5.987547 3.387298-5.539228C3.387298-5.230386 3.626401-5.080946 3.845579-5.080946C4.004981-5.080946 4.303861-5.17061 4.303861-5.559153C4.303861-6.156912 3.865504-6.635118 3.038605-6.635118C1.763387-6.635118 .418431-5.349938 .418431-3.148194C.418431-.488169 1.574097 .219178 2.500623 .219178C3.606476 .219178 4.552927-.71731 4.552927-2.032379C4.552927-3.297634 3.666252-4.254047 2.560399-4.254047C1.882939-4.254047 1.514321-3.745953 1.315068-3.267746ZM2.500623-.059776C1.872976-.059776 1.574097-.657534 1.514321-.806974C1.334994-1.275218 1.334994-2.072229 1.334994-2.251557C1.334994-3.028643 1.653798-4.024907 2.550436-4.024907C2.709838-4.024907 3.16812-4.024907 3.476961-3.407223C3.656289-3.038605 3.656289-2.530511 3.656289-2.042341C3.656289-1.564134 3.656289-1.066002 3.486924-.707347C3.188045-.109589 2.729763-.059776 2.500623-.059776Z'/>
<path id='g2-61' d='M6.844334-3.257783C6.993773-3.257783 7.183064-3.257783 7.183064-3.457036S6.993773-3.656289 6.854296-3.656289H.886675C.747198-3.656289 .557908-3.656289 .557908-3.457036S.747198-3.257783 .896638-3.257783H6.844334ZM6.854296-1.325031C6.993773-1.325031 7.183064-1.325031 7.183064-1.524284S6.993773-1.723537 6.844334-1.723537H.896638C.747198-1.723537 .557908-1.723537 .557908-1.524284S.747198-1.325031 .886675-1.325031H6.854296Z'/>
<path id='g1-83' d='M6.425903-6.924035C6.425903-6.953923 6.405978-7.023661 6.316314-7.023661C6.266501-7.023661 6.256538-7.013699 6.136986-6.874222L5.65878-6.306351C5.399751-6.774595 4.881694-7.023661 4.234122-7.023661C2.968867-7.023661 1.77335-5.877958 1.77335-4.672478C1.77335-3.865504 2.30137-3.407223 2.809465-3.257783L3.875467-2.978829C4.244085-2.889166 4.79203-2.739726 4.79203-1.92279C4.79203-1.026152 3.975093-.089664 2.998755-.089664C2.361146-.089664 1.255293-.308842 1.255293-1.544209C1.255293-1.783313 1.305106-2.022416 1.315068-2.082192C1.325031-2.122042 1.334994-2.132005 1.334994-2.15193C1.334994-2.251557 1.265255-2.261519 1.215442-2.261519S1.145704-2.251557 1.115816-2.221669C1.075965-2.181818 .518057 .089664 .518057 .119552C.518057 .179328 .56787 .219178 .627646 .219178C.67746 .219178 .687422 .209215 .806974 .069738L1.295143-.498132C1.723537 .079701 2.400996 .219178 2.978829 .219178C4.333748 .219178 5.50934-1.105853 5.50934-2.34122C5.50934-3.028643 5.17061-3.367372 5.021171-3.506849C4.79203-3.73599 4.64259-3.775841 3.755915-4.004981C3.536737-4.064757 3.178082-4.164384 3.088418-4.184309C2.819427-4.273973 2.480697-4.562889 2.480697-5.090909C2.480697-5.897883 3.277709-6.744707 4.224159-6.744707C5.051059-6.744707 5.65878-6.316314 5.65878-5.200498C5.65878-4.881694 5.618929-4.702366 5.618929-4.64259C5.618929-4.632628 5.618929-4.542964 5.738481-4.542964C5.838107-4.542964 5.84807-4.572852 5.88792-4.742217L6.425903-6.924035Z'/>
<path id='g1-97' d='M3.716065-3.765878C3.536737-4.134496 3.247821-4.403487 2.799502-4.403487C1.633873-4.403487 .398506-2.938979 .398506-1.484433C.398506-.547945 .946451 .109589 1.723537 .109589C1.92279 .109589 2.420922 .069738 3.01868-.637609C3.098381-.219178 3.447073 .109589 3.92528 .109589C4.273973 .109589 4.503113-.119552 4.662516-.438356C4.83188-.797011 4.961395-1.404732 4.961395-1.424658C4.961395-1.524284 4.871731-1.524284 4.841843-1.524284C4.742217-1.524284 4.732254-1.484433 4.702366-1.344956C4.533001-.697385 4.353674-.109589 3.945205-.109589C3.676214-.109589 3.646326-.368618 3.646326-.56787C3.646326-.787049 3.666252-.86675 3.775841-1.305106C3.88543-1.723537 3.905355-1.823163 3.995019-2.201743L4.353674-3.596513C4.423412-3.875467 4.423412-3.895392 4.423412-3.935243C4.423412-4.104608 4.303861-4.204234 4.134496-4.204234C3.895392-4.204234 3.745953-3.985056 3.716065-3.765878ZM3.068493-1.185554C3.01868-1.006227 3.01868-.986301 2.86924-.816936C2.430884-.268991 2.022416-.109589 1.743462-.109589C1.24533-.109589 1.105853-.657534 1.105853-1.046077C1.105853-1.544209 1.424658-2.769614 1.653798-3.227895C1.96264-3.815691 2.410959-4.184309 2.809465-4.184309C3.457036-4.184309 3.596513-3.367372 3.596513-3.307597S3.576588-3.188045 3.566625-3.138232L3.068493-1.185554Z'/>
<path id='g1-112' d='M.448319 1.215442C.368618 1.554172 .348692 1.62391-.089664 1.62391C-.209215 1.62391-.318804 1.62391-.318804 1.8132C-.318804 1.892902-.268991 1.932752-.18929 1.932752C.079701 1.932752 .368618 1.902864 .647572 1.902864C.976339 1.902864 1.315068 1.932752 1.633873 1.932752C1.683686 1.932752 1.8132 1.932752 1.8132 1.733499C1.8132 1.62391 1.713574 1.62391 1.574097 1.62391C1.075965 1.62391 1.075965 1.554172 1.075965 1.464508C1.075965 1.344956 1.494396-.278954 1.564134-.52802C1.693649-.239103 1.972603 .109589 2.480697 .109589C3.636364 .109589 4.881694-1.344956 4.881694-2.809465C4.881694-3.745953 4.313823-4.403487 3.556663-4.403487C3.058531-4.403487 2.580324-4.044832 2.251557-3.656289C2.15193-4.194271 1.723537-4.403487 1.354919-4.403487C.896638-4.403487 .707347-4.014944 .617684-3.835616C.438356-3.496887 .308842-2.899128 .308842-2.86924C.308842-2.769614 .408468-2.769614 .428394-2.769614C.52802-2.769614 .537983-2.779577 .597758-2.998755C.767123-3.706102 .966376-4.184309 1.325031-4.184309C1.494396-4.184309 1.633873-4.104608 1.633873-3.726027C1.633873-3.496887 1.603985-3.387298 1.564134-3.217933L.448319 1.215442ZM2.201743-3.108344C2.271482-3.377335 2.540473-3.656289 2.719801-3.805729C3.068493-4.11457 3.35741-4.184309 3.526775-4.184309C3.92528-4.184309 4.164384-3.835616 4.164384-3.247821S3.835616-1.514321 3.656289-1.135741C3.317559-.438356 2.839352-.109589 2.470735-.109589C1.8132-.109589 1.683686-.936488 1.683686-.996264C1.683686-1.016189 1.683686-1.036115 1.713574-1.155666L2.201743-3.108344Z'/>
<path id='g1-122' d='M1.325031-.826899C1.863014-1.404732 2.15193-1.653798 2.510585-1.96264C2.510585-1.972603 3.128269-2.500623 3.486924-2.859278C4.433375-3.785803 4.652553-4.26401 4.652553-4.303861C4.652553-4.403487 4.562889-4.403487 4.542964-4.403487C4.473225-4.403487 4.443337-4.383562 4.393524-4.293898C4.094645-3.815691 3.88543-3.656289 3.646326-3.656289S3.287671-3.805729 3.138232-3.975093C2.948941-4.204234 2.779577-4.403487 2.450809-4.403487C1.703611-4.403487 1.24533-3.476961 1.24533-3.267746C1.24533-3.217933 1.275218-3.158157 1.364882-3.158157S1.474471-3.20797 1.494396-3.267746C1.683686-3.726027 2.261519-3.73599 2.34122-3.73599C2.550436-3.73599 2.739726-3.666252 2.968867-3.58655C3.367372-3.437111 3.476961-3.437111 3.73599-3.437111C3.377335-3.008717 2.540473-2.291407 2.351183-2.132005L1.454545-1.295143C.777086-.627646 .428394-.059776 .428394 .009963C.428394 .109589 .52802 .109589 .547945 .109589C.627646 .109589 .647572 .089664 .707347-.019925C.936488-.368618 1.235367-.637609 1.554172-.637609C1.783313-.637609 1.882939-.547945 2.132005-.259029C2.30137-.049813 2.480697 .109589 2.769614 .109589C3.755915 .109589 4.333748-1.155666 4.333748-1.424658C4.333748-1.474471 4.293898-1.524284 4.214197-1.524284C4.124533-1.524284 4.104608-1.464508 4.07472-1.39477C3.845579-.747198 3.20797-.557908 2.879203-.557908C2.67995-.557908 2.500623-.617684 2.291407-.687422C1.952677-.816936 1.803238-.856787 1.594022-.856787C1.574097-.856787 1.414695-.856787 1.325031-.826899Z'/>
</defs>
<g id='page1' transform='matrix(1.165714 0 0 1.165714 0 0)'>
<rect x='-29.480132' y='28.303177' width='580.508317' height='23.620475' fill='#242424'/>
<g fill='#f6f3e8'>
<use x='-29.480132' y='43.1526' xlink:href='#g1-83'/>
<use x='-22.79687' y='43.1526' xlink:href='#g1-97'/>
<use x='-14.763384' y='43.1526' xlink:href='#g2-61'/>
<use x='22.766279' y='36.412799' xlink:href='#g2-50'/>
<use x='27.747618' y='36.412799' xlink:href='#g2-48'/>
<use x='32.728957' y='36.412799' xlink:href='#g1-112'/>
<use x='37.741421' y='32.797435' xlink:href='#g3-56'/>
<use x='42.210791' y='36.412799' xlink:href='#g1-122'/>
<use x='47.282075' y='32.797435' xlink:href='#g3-56'/>
</g>
<rect x='-3.05179' y='40.462691' height='.398484' width='80.621285' fill='#f6f3e8'/>
<g fill='#f6f3e8'>
<use x='-3.05179' y='49.98647' xlink:href='#g0-0'/>
<use x='4.696957' y='49.98647' xlink:href='#g2-50'/>
<use x='9.678296' y='49.98647' xlink:href='#g1-112'/>
<use x='14.690761' y='47.108378' xlink:href='#g3-50'/>
<use x='19.160131' y='49.98647' xlink:href='#g1-122'/>
<use x='24.231415' y='47.108378' xlink:href='#g3-50'/>
<use x='30.914651' y='49.98647' xlink:href='#g2-43'/>
<use x='40.877264' y='49.98647' xlink:href='#g2-50'/>
<use x='45.858603' y='49.98647' xlink:href='#g1-112'/>
<use x='50.871068' y='49.98647' xlink:href='#g1-122'/>
<use x='55.942352' y='47.108378' xlink:href='#g3-50'/>
<use x='62.625588' y='49.98647' xlink:href='#g0-0'/>
<use x='72.588201' y='49.98647' xlink:href='#g2-49'/>
<use x='78.765008' y='43.1526' xlink:href='#g0-0'/>
<use x='113.527338' y='36.412799' xlink:href='#g2-54'/>
<use x='118.508677' y='36.412799' xlink:href='#g2-48'/>
<use x='123.490016' y='36.412799' xlink:href='#g1-112'/>
<use x='128.502481' y='32.797435' xlink:href='#g3-55'/>
<use x='132.971851' y='36.412799' xlink:href='#g1-122'/>
<use x='138.043135' y='32.797435' xlink:href='#g3-56'/>
</g>
<rect x='87.70927' y='40.462691' height='.398484' width='80.621285' fill='#f6f3e8'/>
<g fill='#f6f3e8'>
<use x='87.70927' y='49.98647' xlink:href='#g0-0'/>
<use x='95.458017' y='49.98647' xlink:href='#g2-50'/>
<use x='100.439356' y='49.98647' xlink:href='#g1-112'/>
<use x='105.451821' y='47.108378' xlink:href='#g3-50'/>
<use x='109.921191' y='49.98647' xlink:href='#g1-122'/>
<use x='114.992475' y='47.108378' xlink:href='#g3-50'/>
<use x='121.67571' y='49.98647' xlink:href='#g2-43'/>
<use x='131.638324' y='49.98647' xlink:href='#g2-50'/>
<use x='136.619663' y='49.98647' xlink:href='#g1-112'/>
<use x='141.632128' y='49.98647' xlink:href='#g1-122'/>
<use x='146.703412' y='47.108378' xlink:href='#g3-50'/>
<use x='153.386647' y='49.98647' xlink:href='#g0-0'/>
<use x='163.349261' y='49.98647' xlink:href='#g2-49'/>
<use x='169.526068' y='43.1526' xlink:href='#g2-43'/>
<use x='204.288398' y='36.412799' xlink:href='#g2-54'/>
<use x='209.269737' y='36.412799' xlink:href='#g2-48'/>
<use x='214.251076' y='36.412799' xlink:href='#g1-112'/>
<use x='219.263541' y='32.797435' xlink:href='#g3-54'/>
<use x='223.732911' y='36.412799' xlink:href='#g1-122'/>
<use x='228.804195' y='32.797435' xlink:href='#g3-56'/>
</g>
<rect x='178.470329' y='40.462691' height='.398484' width='80.621285' fill='#f6f3e8'/>
<g fill='#f6f3e8'>
<use x='178.470329' y='49.98647' xlink:href='#g0-0'/>
<use x='186.219077' y='49.98647' xlink:href='#g2-50'/>
<use x='191.200416' y='49.98647' xlink:href='#g1-112'/>
<use x='196.212881' y='47.108378' xlink:href='#g3-50'/>
<use x='200.68225' y='49.98647' xlink:href='#g1-122'/>
<use x='205.753534' y='47.108378' xlink:href='#g3-50'/>
<use x='212.43677' y='49.98647' xlink:href='#g2-43'/>
<use x='222.399384' y='49.98647' xlink:href='#g2-50'/>
<use x='227.380723' y='49.98647' xlink:href='#g1-112'/>
<use x='232.393187' y='49.98647' xlink:href='#g1-122'/>
<use x='237.464472' y='47.108378' xlink:href='#g3-50'/>
<use x='244.147707' y='49.98647' xlink:href='#g0-0'/>
<use x='254.110321' y='49.98647' xlink:href='#g2-49'/>
<use x='260.287128' y='43.1526' xlink:href='#g2-43'/>
<use x='268.035875' y='43.1526' xlink:href='#g2-49'/>
<use x='273.017214' y='43.1526' xlink:href='#g2-48'/>
<use x='277.998553' y='43.1526' xlink:href='#g1-112'/>
<use x='283.011018' y='39.039104' xlink:href='#g3-54'/>
<use x='287.480388' y='43.1526' xlink:href='#g1-122'/>
<use x='292.551672' y='39.039104' xlink:href='#g3-54'/>
<use x='297.021042' y='43.1526' xlink:href='#g0-0'/>
<use x='331.783372' y='36.412799' xlink:href='#g2-50'/>
<use x='336.764711' y='36.412799' xlink:href='#g2-48'/>
<use x='341.74605' y='36.412799' xlink:href='#g1-112'/>
<use x='346.758514' y='32.797435' xlink:href='#g3-53'/>
<use x='351.227884' y='36.412799' xlink:href='#g1-122'/>
<use x='356.299168' y='32.797435' xlink:href='#g3-56'/>
</g>
<rect x='305.965303' y='40.462691' height='.398484' width='80.621285' fill='#f6f3e8'/>
<g fill='#f6f3e8'>
<use x='305.965303' y='49.98647' xlink:href='#g0-0'/>
<use x='313.71405' y='49.98647' xlink:href='#g2-50'/>
<use x='318.695389' y='49.98647' xlink:href='#g1-112'/>
<use x='323.707854' y='47.108378' xlink:href='#g3-50'/>
<use x='328.177224' y='49.98647' xlink:href='#g1-122'/>
<use x='333.248508' y='47.108378' xlink:href='#g3-50'/>
<use x='339.931744' y='49.98647' xlink:href='#g2-43'/>
<use x='349.894357' y='49.98647' xlink:href='#g2-50'/>
<use x='354.875696' y='49.98647' xlink:href='#g1-112'/>
<use x='359.888161' y='49.98647' xlink:href='#g1-122'/>
<use x='364.959445' y='47.108378' xlink:href='#g3-50'/>
<use x='371.642681' y='49.98647' xlink:href='#g0-0'/>
<use x='381.605294' y='49.98647' xlink:href='#g2-49'/>
<use x='387.782101' y='43.1526' xlink:href='#g0-0'/>
<use x='395.530849' y='43.1526' xlink:href='#g2-50'/>
<use x='400.512188' y='43.1526' xlink:href='#g2-48'/>
<use x='405.493527' y='43.1526' xlink:href='#g1-112'/>
<use x='410.505992' y='39.039104' xlink:href='#g3-53'/>
<use x='414.975361' y='43.1526' xlink:href='#g1-122'/>
<use x='420.046646' y='39.039104' xlink:href='#g3-54'/>
<use x='424.516015' y='43.1526' xlink:href='#g0-0'/>
<use x='432.264763' y='43.1526' xlink:href='#g2-52'/>
<use x='437.246102' y='43.1526' xlink:href='#g1-112'/>
<use x='442.258566' y='39.039104' xlink:href='#g3-53'/>
<use x='446.727936' y='43.1526' xlink:href='#g1-122'/>
<use x='451.79922' y='39.039104' xlink:href='#g3-53'/>
<use x='456.26859' y='43.1526' xlink:href='#g2-43'/>
<use x='464.017337' y='43.1526' xlink:href='#g2-49'/>
<use x='468.998676' y='43.1526' xlink:href='#g2-48'/>
<use x='473.980016' y='43.1526' xlink:href='#g1-112'/>
<use x='478.99248' y='39.039104' xlink:href='#g3-52'/>
<use x='483.46185' y='43.1526' xlink:href='#g1-122'/>
<use x='488.533134' y='39.039104' xlink:href='#g3-54'/>
<use x='493.002504' y='43.1526' xlink:href='#g2-43'/>
<use x='500.751251' y='43.1526' xlink:href='#g2-52'/>
<use x='505.73259' y='43.1526' xlink:href='#g1-112'/>
<use x='510.745055' y='39.039104' xlink:href='#g3-52'/>
<use x='515.214425' y='43.1526' xlink:href='#g1-122'/>
<use x='520.285709' y='39.039104' xlink:href='#g3-53'/>
<use x='524.755078' y='43.1526' xlink:href='#g2-43'/>
<use x='532.503826' y='43.1526' xlink:href='#g1-112'/>
<use x='537.516291' y='39.039104' xlink:href='#g3-52'/>
<use x='541.98566' y='43.1526' xlink:href='#g1-122'/>
<use x='547.056944' y='39.039104' xlink:href='#g3-52'/>
</g>
</g>
</svg>