<?xml version='1.0' encoding='UTF-8'?>
<!-- This file was generated by dvisvgm 2.8.1 -->
<svg version='1.1' xmlns='http://www.w3.org/2000/svg' xmlns:xlink='http://www.w3.org/1999/xlink' width='292.303492pt' height='11.387759pt' viewBox='126.62572 26.089784 292.303492 11.387759'>
<defs>
<path id='g6-50' d='M2.933998-.961395H2.724782C2.709838-.86675 2.660025-.557908 2.580324-.508095C2.540473-.478207 2.122042-.478207 2.047323-.478207H1.070984C1.399751-.722291 1.768369-1.001245 2.067248-1.200498C2.515567-1.50934 2.933998-1.798257 2.933998-2.326276C2.933998-2.963885 2.331258-3.317559 1.618929-3.317559C.946451-3.317559 .4533-2.929016 .4533-2.440847C.4533-2.181818 .672478-2.136986 .742217-2.136986C.876712-2.136986 1.036115-2.22665 1.036115-2.430884C1.036115-2.610212 .9066-2.709838 .752179-2.724782C.891656-2.948941 1.180573-3.098381 1.514321-3.098381C1.997509-3.098381 2.400996-2.809465 2.400996-2.321295C2.400996-1.902864 2.11208-1.58406 1.728518-1.260274L.513076-.229141C.463263-.184309 .458281-.184309 .4533-.14944V0H2.769614L2.933998-.961395Z'/>
<path id='g0-3' d='M2.739726-4.254047C2.749689-4.393524 2.749689-4.632628 2.49066-4.632628C2.331258-4.632628 2.201743-4.503113 2.231631-4.373599V-4.244085L2.371108-2.699875L1.09589-3.626401C1.006227-3.676214 .986301-3.696139 .916563-3.696139C.777086-3.696139 .647572-3.556663 .647572-3.417186C.647572-3.257783 .747198-3.217933 .846824-3.16812L2.261519-2.49066L.886675-1.823163C.727273-1.743462 .647572-1.703611 .647572-1.554172S.777086-1.275218 .916563-1.275218C.986301-1.275218 1.006227-1.275218 1.255293-1.464508L2.371108-2.271482L2.221669-.597758C2.221669-.388543 2.400996-.33873 2.480697-.33873C2.600249-.33873 2.749689-.408468 2.749689-.597758L2.600249-2.271482L3.875467-1.344956C3.965131-1.295143 3.985056-1.275218 4.054795-1.275218C4.194271-1.275218 4.323786-1.414695 4.323786-1.554172C4.323786-1.703611 4.234122-1.753425 4.11457-1.8132C3.516812-2.11208 3.496887-2.11208 2.709838-2.480697L4.084682-3.148194C4.244085-3.227895 4.323786-3.267746 4.323786-3.417186S4.194271-3.696139 4.054795-3.696139C3.985056-3.696139 3.965131-3.696139 3.716065-3.506849L2.600249-2.699875L2.739726-4.254047Z'/>
<path id='g4-43' d='M4.07472-2.291407H6.854296C6.993773-2.291407 7.183064-2.291407 7.183064-2.49066S6.993773-2.689913 6.854296-2.689913H4.07472V-5.479452C4.07472-5.618929 4.07472-5.808219 3.875467-5.808219S3.676214-5.618929 3.676214-5.479452V-2.689913H.886675C.747198-2.689913 .557908-2.689913 .557908-2.49066S.747198-2.291407 .886675-2.291407H3.676214V.498132C3.676214 .637609 3.676214 .826899 3.875467 .826899S4.07472 .637609 4.07472 .498132V-2.291407Z'/>
<path id='g4-49' d='M2.929016-6.37609C2.929016-6.615193 2.929016-6.635118 2.699875-6.635118C2.082192-5.997509 1.205479-5.997509 .886675-5.997509V-5.688667C1.085928-5.688667 1.673724-5.688667 2.191781-5.947696V-.787049C2.191781-.428394 2.161893-.308842 1.265255-.308842H.946451V0C1.295143-.029888 2.161893-.029888 2.560399-.029888S3.825654-.029888 4.174346 0V-.308842H3.855542C2.958904-.308842 2.929016-.418431 2.929016-.787049V-6.37609Z'/>
<path id='g4-61' d='M6.844334-3.257783C6.993773-3.257783 7.183064-3.257783 7.183064-3.457036S6.993773-3.656289 6.854296-3.656289H.886675C.747198-3.656289 .557908-3.656289 .557908-3.457036S.747198-3.257783 .896638-3.257783H6.844334ZM6.854296-1.325031C6.993773-1.325031 7.183064-1.325031 7.183064-1.524284S6.993773-1.723537 6.844334-1.723537H.896638C.747198-1.723537 .557908-1.723537 .557908-1.524284S.747198-1.325031 .886675-1.325031H6.854296Z'/>
<path id='g5-49' d='M2.336239-4.435367C2.336239-4.623661 2.322291-4.630635 2.127024-4.630635C1.680697-4.191283 1.046077-4.184309 .760149-4.184309V-3.93325C.927522-3.93325 1.387796-3.93325 1.771357-4.128518V-.571856C1.771357-.341719 1.771357-.251059 1.073973-.251059H.808966V0C.934496-.006974 1.792279-.027895 2.050311-.027895C2.266501-.027895 3.145205-.006974 3.29863 0V-.251059H3.033624C2.336239-.251059 2.336239-.341719 2.336239-.571856V-4.435367Z'/>
<path id='g5-50' d='M3.521793-1.26924H3.284682C3.263761-1.115816 3.194022-.704359 3.103362-.63462C3.047572-.592777 2.510585-.592777 2.412951-.592777H1.129763C1.862017-1.241345 2.106102-1.436613 2.524533-1.764384C3.040598-2.175841 3.521793-2.608219 3.521793-3.270735C3.521793-4.11457 2.782565-4.630635 1.889913-4.630635C1.025156-4.630635 .439352-4.02391 .439352-3.382316C.439352-3.02665 .739228-2.991781 .808966-2.991781C.976339-2.991781 1.17858-3.110336 1.17858-3.361395C1.17858-3.486924 1.129763-3.731009 .767123-3.731009C.983313-4.226152 1.457534-4.379577 1.785305-4.379577C2.48269-4.379577 2.84533-3.835616 2.84533-3.270735C2.84533-2.66401 2.412951-2.182814 2.189788-1.931756L.509091-.27198C.439352-.209215 .439352-.195268 .439352 0H3.312578L3.521793-1.26924Z'/>
<path id='g1-0' d='M5.188543-1.57609C5.300125-1.57609 5.467497-1.57609 5.467497-1.743462C5.467497-1.917808 5.307098-1.917808 5.188543-1.917808H1.03213C.920548-1.917808 .753176-1.917808 .753176-1.750436C.753176-1.57609 .913574-1.57609 1.03213-1.57609H5.188543Z'/>
<path id='g3-59' d='M1.471482-.111582C1.471482 .27198 1.401743 .718306 .927522 1.164633C.899626 1.192528 .878705 1.21345 .878705 1.248319C.878705 1.297136 .934496 1.345953 .976339 1.345953C1.073973 1.345953 1.66675 .788045 1.66675-.041843C1.66675-.474222 1.499377-.801993 1.17858-.801993C.948443-.801993 .781071-.620672 .781071-.404483C.781071-.18132 .941469 0 1.185554 0C1.352927 0 1.464508-.111582 1.471482-.111582Z'/>
<path id='g3-110' d='M.850809-.439352C.822914-.348692 .781071-.174346 .781071-.153425C.781071 0 .9066 .069738 1.018182 .069738C1.143711 .069738 1.255293-.020922 1.290162-.083686S1.380822-.369614 1.415691-.516065C1.45056-.648568 1.527273-.969365 1.569116-1.143711C1.610959-1.297136 1.652802-1.45056 1.687671-1.610959C1.764384-1.896887 1.778331-1.952677 1.980573-2.238605C2.175841-2.517559 2.503611-2.880199 3.02665-2.880199C3.431133-2.880199 3.438107-2.524533 3.438107-2.39203C3.438107-1.973599 3.138232-1.199502 3.02665-.9066C2.949938-.711333 2.922042-.648568 2.922042-.530012C2.922042-.160399 3.228892 .069738 3.584558 .069738C4.281943 .069738 4.588792-.892653 4.588792-.99726C4.588792-1.08792 4.498132-1.08792 4.47721-1.08792C4.379577-1.08792 4.372603-1.046077 4.344707-.969365C4.184309-.411457 3.884433-.125529 3.605479-.125529C3.459029-.125529 3.431133-.223163 3.431133-.369614C3.431133-.530012 3.466002-.620672 3.591532-.934496C3.675218-1.150685 3.961146-1.889913 3.961146-2.280448C3.961146-2.956912 3.424159-3.075467 3.054545-3.075467C2.475716-3.075467 2.085181-2.719801 1.875965-2.440847C1.827148-2.922042 1.415691-3.075467 1.129763-3.075467C.829888-3.075467 .669489-2.859278 .578829-2.698879C.425405-2.440847 .327771-2.043337 .327771-2.008468C.327771-1.917808 .425405-1.917808 .446326-1.917808C.54396-1.917808 .550934-1.93873 .599751-2.127024C.704359-2.538481 .836862-2.880199 1.108842-2.880199C1.290162-2.880199 1.338979-2.726775 1.338979-2.538481C1.338979-2.405978 1.276214-2.147945 1.227397-1.959651S1.108842-1.48543 1.073973-1.332005L.850809-.439352Z'/>
<path id='g2-83' d='M6.425903-6.924035C6.425903-6.953923 6.405978-7.023661 6.316314-7.023661C6.266501-7.023661 6.256538-7.013699 6.136986-6.874222L5.65878-6.306351C5.399751-6.774595 4.881694-7.023661 4.234122-7.023661C2.968867-7.023661 1.77335-5.877958 1.77335-4.672478C1.77335-3.865504 2.30137-3.407223 2.809465-3.257783L3.875467-2.978829C4.244085-2.889166 4.79203-2.739726 4.79203-1.92279C4.79203-1.026152 3.975093-.089664 2.998755-.089664C2.361146-.089664 1.255293-.308842 1.255293-1.544209C1.255293-1.783313 1.305106-2.022416 1.315068-2.082192C1.325031-2.122042 1.334994-2.132005 1.334994-2.15193C1.334994-2.251557 1.265255-2.261519 1.215442-2.261519S1.145704-2.251557 1.115816-2.221669C1.075965-2.181818 .518057 .089664 .518057 .119552C.518057 .179328 .56787 .219178 .627646 .219178C.67746 .219178 .687422 .209215 .806974 .069738L1.295143-.498132C1.723537 .079701 2.400996 .219178 2.978829 .219178C4.333748 .219178 5.50934-1.105853 5.50934-2.34122C5.50934-3.028643 5.17061-3.367372 5.021171-3.506849C4.79203-3.73599 4.64259-3.775841 3.755915-4.004981C3.536737-4.064757 3.178082-4.164384 3.088418-4.184309C2.819427-4.273973 2.480697-4.562889 2.480697-5.090909C2.480697-5.897883 3.277709-6.744707 4.224159-6.744707C5.051059-6.744707 5.65878-6.316314 5.65878-5.200498C5.65878-4.881694 5.618929-4.702366 5.618929-4.64259C5.618929-4.632628 5.618929-4.542964 5.738481-4.542964C5.838107-4.542964 5.84807-4.572852 5.88792-4.742217L6.425903-6.924035Z'/>
<path id='g2-97' d='M3.716065-3.765878C3.536737-4.134496 3.247821-4.403487 2.799502-4.403487C1.633873-4.403487 .398506-2.938979 .398506-1.484433C.398506-.547945 .946451 .109589 1.723537 .109589C1.92279 .109589 2.420922 .069738 3.01868-.637609C3.098381-.219178 3.447073 .109589 3.92528 .109589C4.273973 .109589 4.503113-.119552 4.662516-.438356C4.83188-.797011 4.961395-1.404732 4.961395-1.424658C4.961395-1.524284 4.871731-1.524284 4.841843-1.524284C4.742217-1.524284 4.732254-1.484433 4.702366-1.344956C4.533001-.697385 4.353674-.109589 3.945205-.109589C3.676214-.109589 3.646326-.368618 3.646326-.56787C3.646326-.787049 3.666252-.86675 3.775841-1.305106C3.88543-1.723537 3.905355-1.823163 3.995019-2.201743L4.353674-3.596513C4.423412-3.875467 4.423412-3.895392 4.423412-3.935243C4.423412-4.104608 4.303861-4.204234 4.134496-4.204234C3.895392-4.204234 3.745953-3.985056 3.716065-3.765878ZM3.068493-1.185554C3.01868-1.006227 3.01868-.986301 2.86924-.816936C2.430884-.268991 2.022416-.109589 1.743462-.109589C1.24533-.109589 1.105853-.657534 1.105853-1.046077C1.105853-1.544209 1.424658-2.769614 1.653798-3.227895C1.96264-3.815691 2.410959-4.184309 2.809465-4.184309C3.457036-4.184309 3.596513-3.367372 3.596513-3.307597S3.576588-3.188045 3.566625-3.138232L3.068493-1.185554Z'/>
<path id='g2-98' d='M2.381071-6.804483C2.381071-6.814446 2.381071-6.914072 2.251557-6.914072C2.022416-6.914072 1.295143-6.834371 1.036115-6.814446C.956413-6.804483 .846824-6.794521 .846824-6.615193C.846824-6.495641 .936488-6.495641 1.085928-6.495641C1.564134-6.495641 1.58406-6.425903 1.58406-6.326276C1.58406-6.256538 1.494396-5.917808 1.444583-5.708593L.627646-2.460772C.508095-1.96264 .468244-1.803238 .468244-1.454545C.468244-.508095 .996264 .109589 1.733499 .109589C2.909091 .109589 4.134496-1.374844 4.134496-2.809465C4.134496-3.716065 3.606476-4.403487 2.809465-4.403487C2.351183-4.403487 1.942715-4.11457 1.643836-3.805729L2.381071-6.804483ZM1.444583-3.038605C1.504359-3.257783 1.504359-3.277709 1.594022-3.387298C2.082192-4.034869 2.530511-4.184309 2.789539-4.184309C3.148194-4.184309 3.417186-3.88543 3.417186-3.247821C3.417186-2.660025 3.088418-1.514321 2.909091-1.135741C2.580324-.468244 2.122042-.109589 1.733499-.109589C1.39477-.109589 1.066002-.37858 1.066002-1.115816C1.066002-1.305106 1.066002-1.494396 1.225405-2.122042L1.444583-3.038605Z'/>
</defs>
<g id='page1' transform='matrix(1.165714 0 0 1.165714 0 0)'>
<rect x='108.625005' y='22.380942' width='250.750544' height='9.76891' fill='#242424'/>
<g fill='#f6f3e8'>
<use x='108.625005' y='29.299444' xlink:href='#g2-83'/>
<use x='114.73405' y='30.793825' xlink:href='#g3-110'/>
<use x='119.658913' y='30.793825' xlink:href='#g1-0'/>
<use x='125.885592' y='30.793825' xlink:href='#g5-49'/>
<use x='129.856833' y='30.793825' xlink:href='#g3-59'/>
<use x='132.222974' y='30.793825' xlink:href='#g3-110'/>
<use x='137.147836' y='30.793825' xlink:href='#g1-0'/>
<use x='143.374516' y='30.793825' xlink:href='#g5-49'/>
<use x='150.611169' y='29.299444' xlink:href='#g4-61'/>
<use x='161.127249' y='29.299444' xlink:href='#g2-97'/>
<use x='168.607269' y='29.299444' xlink:href='#g0-3'/>
<use x='175.802474' y='29.299444' xlink:href='#g2-83'/>
<use x='181.911519' y='30.793825' xlink:href='#g3-110'/>
<use x='186.836381' y='30.793825' xlink:href='#g1-0'/>
<use x='193.063061' y='30.793825' xlink:href='#g5-49'/>
<use x='197.034301' y='30.793825' xlink:href='#g3-59'/>
<use x='199.400443' y='30.793825' xlink:href='#g3-110'/>
<use x='204.325305' y='30.793825' xlink:href='#g1-0'/>
<use x='210.551985' y='30.793825' xlink:href='#g5-50'/>
<use x='217.235171' y='29.299444' xlink:href='#g4-43'/>
<use x='227.197784' y='29.299444' xlink:href='#g2-98'/>
<use x='233.687285' y='29.299444' xlink:href='#g0-3'/>
<use x='240.88249' y='29.299444' xlink:href='#g2-83'/>
<use x='246.991535' y='30.793825' xlink:href='#g3-110'/>
<use x='251.916397' y='31.790089' xlink:href='#g6-50'/>
<use x='255.804649' y='30.793825' xlink:href='#g3-59'/>
<use x='258.17079' y='30.793825' xlink:href='#g3-110'/>
<use x='263.095652' y='30.793825' xlink:href='#g1-0'/>
<use x='269.322332' y='30.793825' xlink:href='#g5-49'/>
<use x='276.005535' y='29.299444' xlink:href='#g4-43'/>
<use x='285.968149' y='29.299444' xlink:href='#g2-98'/>
<use x='292.457649' y='29.299444' xlink:href='#g0-3'/>
<use x='299.652854' y='29.299444' xlink:href='#g2-83'/>
<use x='306.336116' y='29.299444' xlink:href='#g2-97'/>
<use x='311.60227' y='29.299444' xlink:href='#g4-49'/>
<use x='318.797475' y='29.299444' xlink:href='#g4-43'/>
<use x='328.760089' y='29.299444' xlink:href='#g2-97'/>
<use x='336.240109' y='29.299444' xlink:href='#g0-3'/>
<use x='343.435314' y='29.299444' xlink:href='#g2-83'/>
<use x='350.118576' y='29.299444' xlink:href='#g2-98'/>
<use x='354.39421' y='29.299444' xlink:href='#g4-49'/>
</g>
</g>
</svg>