<?xml version='1.0' encoding='UTF-8'?>
<!-- This file was generated by dvisvgm 2.8.1 -->
<svg version='1.1' xmlns='http://www.w3.org/2000/svg' xmlns:xlink='http://www.w3.org/1999/xlink' width='943.106612pt' height='105.714506pt' viewBox='-34.365412 32.993418 943.106612 105.714506'>
<defs>
<path id='g0-40' d='M3.158157-7.47198C3.01868-7.422167 2.839352-7.222914 2.719801-7.103362C1.494396-5.877958 .996264-4.184309 .996264-2.500623C.996264-.697385 1.58406 1.225405 3.048568 2.400996C3.098381 2.430884 3.158157 2.480697 3.217933 2.480697S3.307597 2.420922 3.307597 2.381071C3.307597 2.271482 3.038605 2.062267 2.929016 1.932752C1.902864 .707347 1.58406-.926526 1.58406-2.49066C1.58406-4.134496 1.912827-5.937733 3.148194-7.173101C3.20797-7.232877 3.307597-7.302615 3.307597-7.382316C3.307597-7.442092 3.257783-7.481943 3.198007-7.481943C3.188045-7.481943 3.16812-7.47198 3.158157-7.47198Z'/>
<path id='g0-41' d='M.617684-7.47198C.577833-7.452055 .557908-7.422167 .557908-7.392279C.557908-7.272727 .787049-7.103362 .896638-6.983811C1.96264-5.748443 2.281445-4.064757 2.281445-2.49066C2.281445-.886675 1.952677 .936488 .757161 2.132005C.687422 2.201743 .557908 2.30137 .557908 2.381071C.557908 2.430884 .607721 2.480697 .667497 2.480697H.67746C.797011 2.460772 .996264 2.251557 1.115816 2.132005C2.371108 .876712 2.86924-.816936 2.86924-2.510585C2.86924-4.343711 2.271482-6.166874 .816936-7.402242C.767123-7.43213 .71731-7.481943 .657534-7.481943C.647572-7.481943 .637609-7.481943 .617684-7.47198Z'/>
<path id='g0-49' d='M.896638-6.007472V-5.69863C1.325031-5.69863 1.803238-5.748443 2.191781-5.957659V-.757161C2.191781-.368618 1.8132-.308842 1.424658-.308842C1.255293-.308842 1.085928-.318804 .946451-.318804V-.009963H4.184309V-.318804C4.014944-.318804 3.845579-.308842 3.686177-.308842C3.287671-.308842 2.938979-.368618 2.938979-.747198V-6.485679C2.938979-6.575342 2.909091-6.645081 2.799502-6.645081C2.660025-6.645081 2.49066-6.455791 2.381071-6.37609C1.942715-6.087173 1.404732-6.007472 .896638-6.007472Z'/>
<path id='g1-0' d='M6.56538-2.291407C6.734745-2.291407 6.914072-2.291407 6.914072-2.49066S6.734745-2.689913 6.56538-2.689913H1.175592C1.006227-2.689913 .826899-2.689913 .826899-2.49066S1.006227-2.291407 1.175592-2.291407H6.56538Z'/>
<path id='g4-50' d='M3.521793-1.26924H3.284682C3.263761-1.115816 3.194022-.704359 3.103362-.63462C3.047572-.592777 2.510585-.592777 2.412951-.592777H1.129763C1.862017-1.241345 2.106102-1.436613 2.524533-1.764384C3.040598-2.175841 3.521793-2.608219 3.521793-3.270735C3.521793-4.11457 2.782565-4.630635 1.889913-4.630635C1.025156-4.630635 .439352-4.02391 .439352-3.382316C.439352-3.02665 .739228-2.991781 .808966-2.991781C.976339-2.991781 1.17858-3.110336 1.17858-3.361395C1.17858-3.486924 1.129763-3.731009 .767123-3.731009C.983313-4.226152 1.457534-4.379577 1.785305-4.379577C2.48269-4.379577 2.84533-3.835616 2.84533-3.270735C2.84533-2.66401 2.412951-2.182814 2.189788-1.931756L.509091-.27198C.439352-.209215 .439352-.195268 .439352 0H3.312578L3.521793-1.26924Z'/>
<path id='g4-51' d='M1.903861-2.329265C2.447821-2.329265 2.838356-1.952677 2.838356-1.206476C2.838356-.341719 2.336239-.083686 1.931756-.083686C1.652802-.083686 1.039103-.160399 .746202-.571856C1.073973-.585803 1.150685-.81594 1.150685-.962391C1.150685-1.185554 .983313-1.345953 .767123-1.345953C.571856-1.345953 .376588-1.227397 .376588-.941469C.376588-.285928 1.101868 .139477 1.945704 .139477C2.915068 .139477 3.584558-.509091 3.584558-1.206476C3.584558-1.750436 3.138232-2.294396 2.371108-2.454795C3.103362-2.719801 3.368369-3.242839 3.368369-3.668244C3.368369-4.219178 2.733748-4.630635 1.959651-4.630635S.592777-4.254047 .592777-3.696139C.592777-3.459029 .746202-3.326526 .955417-3.326526C1.171606-3.326526 1.311083-3.486924 1.311083-3.682192C1.311083-3.884433 1.171606-4.030884 .955417-4.044832C1.199502-4.351681 1.680697-4.428394 1.93873-4.428394C2.252553-4.428394 2.691905-4.274969 2.691905-3.668244C2.691905-3.375342 2.594271-3.054545 2.412951-2.838356C2.182814-2.57335 1.987547-2.559402 1.638854-2.538481C1.464508-2.524533 1.45056-2.524533 1.415691-2.517559C1.401743-2.517559 1.345953-2.503611 1.345953-2.426899C1.345953-2.329265 1.408717-2.329265 1.527273-2.329265H1.903861Z'/>
<path id='g4-52' d='M3.689166-1.143711V-1.39477H2.915068V-4.505106C2.915068-4.651557 2.915068-4.700374 2.761644-4.700374C2.677958-4.700374 2.650062-4.700374 2.580324-4.60274L.27198-1.39477V-1.143711H2.322291V-.571856C2.322291-.334745 2.322291-.251059 1.75741-.251059H1.569116V0C1.917808-.013948 2.364134-.027895 2.615193-.027895C2.873225-.027895 3.319552-.013948 3.668244 0V-.251059H3.47995C2.915068-.251059 2.915068-.334745 2.915068-.571856V-1.143711H3.689166ZM2.371108-3.947198V-1.39477H.530012L2.371108-3.947198Z'/>
<path id='g4-53' d='M1.080946-3.891407C1.436613-3.800747 1.645828-3.800747 1.75741-3.800747C2.677958-3.800747 3.221918-4.428394 3.221918-4.533001C3.221918-4.609714 3.173101-4.630635 3.138232-4.630635C3.124284-4.630635 3.110336-4.630635 3.082441-4.609714C2.915068-4.546949 2.545455-4.407472 2.02939-4.407472C1.834122-4.407472 1.464508-4.42142 1.011208-4.595766C.941469-4.630635 .927522-4.630635 .920548-4.630635C.829888-4.630635 .829888-4.553923 .829888-4.442341V-2.385056C.829888-2.266501 .829888-2.182814 .941469-2.182814C1.004234-2.182814 1.011208-2.196762 1.080946-2.280448C1.380822-2.66401 1.806227-2.719801 2.050311-2.719801C2.468742-2.719801 2.657036-2.385056 2.691905-2.329265C2.817435-2.099128 2.859278-1.834122 2.859278-1.429639C2.859278-1.220423 2.859278-.808966 2.650062-.502117C2.475716-.251059 2.175841-.083686 1.834122-.083686C1.380822-.083686 .913574-.334745 .739228-.795019C1.004234-.774097 1.136737-.948443 1.136737-1.136737C1.136737-1.436613 .878705-1.492403 .788045-1.492403C.774097-1.492403 .439352-1.492403 .439352-1.115816C.439352-.488169 1.011208 .139477 1.84807 .139477C2.740722 .139477 3.521793-.523039 3.521793-1.401743C3.521793-2.189788 2.922042-2.915068 2.057285-2.915068C1.750436-2.915068 1.387796-2.838356 1.080946-2.57335V-3.891407Z'/>
<path id='g4-54' d='M1.046077-2.280448C1.046077-2.852304 1.094894-3.368369 1.3599-3.793773C1.597011-4.170361 1.973599-4.428394 2.419925-4.428394C2.629141-4.428394 2.908095-4.372603 3.047572-4.184309C2.873225-4.170361 2.726775-4.051806 2.726775-3.849564C2.726775-3.675218 2.84533-3.521793 3.054545-3.521793S3.38929-3.66127 3.38929-3.863512C3.38929-4.267995 3.096389-4.630635 2.405978-4.630635C1.401743-4.630635 .376588-3.710087 .376588-2.21071C.376588-.404483 1.227397 .139477 1.994521 .139477C2.84533 .139477 3.584558-.509091 3.584558-1.422665C3.584558-2.308344 2.880199-2.963885 2.064259-2.963885C1.506351-2.963885 1.199502-2.594271 1.046077-2.280448ZM1.994521-.083686C1.645828-.083686 1.373848-.285928 1.227397-.592777C1.12279-.801993 1.066999-1.150685 1.066999-1.569116C1.066999-2.245579 1.471482-2.768618 2.02939-2.768618C2.350187-2.768618 2.566376-2.643088 2.740722-2.385056C2.908095-2.12005 2.915068-1.827148 2.915068-1.422665C2.915068-1.025156 2.915068-.732254 2.726775-.460274C2.559402-.216189 2.336239-.083686 1.994521-.083686Z'/>
<path id='g4-55' d='M3.731009-4.212204C3.800747-4.29589 3.800747-4.309838 3.800747-4.491158H1.973599C1.694645-4.491158 1.617933-4.498132 1.366874-4.519054C1.004234-4.546949 .990286-4.595766 .969365-4.714321H.732254L.488169-3.221918H.72528C.739228-3.326526 .808966-3.7868 .920548-3.856538C.976339-3.898381 1.54122-3.898381 1.645828-3.898381H3.166127C2.942964-3.605479 2.587298-3.173101 2.440847-2.977833C1.527273-1.778331 1.443587-.669489 1.443587-.258032C1.443587-.18132 1.443587 .139477 1.771357 .139477C2.106102 .139477 2.106102-.174346 2.106102-.265006V-.54396C2.106102-1.896887 2.385056-2.517559 2.684932-2.894147L3.731009-4.212204Z'/>
<path id='g4-56' d='M2.475716-2.517559C3.019676-2.782565 3.368369-3.110336 3.368369-3.591532C3.368369-4.267995 2.66401-4.630635 1.987547-4.630635C1.220423-4.630635 .592777-4.128518 .592777-3.466002C.592777-3.138232 .746202-2.901121 .871731-2.761644C.99726-2.615193 1.046077-2.587298 1.457534-2.343213C1.066999-2.175841 .376588-1.799253 .376588-1.066999C.376588-.292902 1.17858 .139477 1.973599 .139477C2.859278 .139477 3.584558-.425405 3.584558-1.17858C3.584558-1.638854 3.312578-2.02939 2.908095-2.266501C2.817435-2.322291 2.57335-2.461768 2.475716-2.517559ZM1.338979-3.180075C1.157659-3.284682 .962391-3.472976 .962391-3.731009C.962391-4.170361 1.471482-4.428394 1.973599-4.428394C2.517559-4.428394 2.998755-4.086675 2.998755-3.591532C2.998755-2.970859 2.273474-2.657036 2.259527-2.657036S2.231631-2.66401 2.182814-2.691905L1.338979-3.180075ZM1.680697-2.21071L2.636115-1.659776C2.817435-1.555168 3.166127-1.345953 3.166127-.934496C3.166127-.411457 2.587298-.083686 1.987547-.083686C1.345953-.083686 .795019-.495143 .795019-1.066999C.795019-1.583064 1.17858-1.980573 1.680697-2.21071Z'/>
<path id='g3-43' d='M4.07472-2.291407H6.854296C6.993773-2.291407 7.183064-2.291407 7.183064-2.49066S6.993773-2.689913 6.854296-2.689913H4.07472V-5.479452C4.07472-5.618929 4.07472-5.808219 3.875467-5.808219S3.676214-5.618929 3.676214-5.479452V-2.689913H.886675C.747198-2.689913 .557908-2.689913 .557908-2.49066S.747198-2.291407 .886675-2.291407H3.676214V.498132C3.676214 .637609 3.676214 .826899 3.875467 .826899S4.07472 .637609 4.07472 .498132V-2.291407Z'/>
<path id='g3-48' d='M4.582814-3.188045C4.582814-3.985056 4.533001-4.782067 4.184309-5.519303C3.726027-6.475716 2.909091-6.635118 2.49066-6.635118C1.892902-6.635118 1.165629-6.37609 .757161-5.449564C.438356-4.762142 .388543-3.985056 .388543-3.188045C.388543-2.440847 .428394-1.544209 .836862-.787049C1.265255 .019925 1.992528 .219178 2.480697 .219178C3.01868 .219178 3.775841 .009963 4.214197-.936488C4.533001-1.62391 4.582814-2.400996 4.582814-3.188045ZM2.480697 0C2.092154 0 1.504359-.249066 1.325031-1.205479C1.215442-1.803238 1.215442-2.719801 1.215442-3.307597C1.215442-3.945205 1.215442-4.60274 1.295143-5.140722C1.484433-6.326276 2.231631-6.41594 2.480697-6.41594C2.809465-6.41594 3.466999-6.236613 3.656289-5.250311C3.755915-4.692403 3.755915-3.935243 3.755915-3.307597C3.755915-2.560399 3.755915-1.882939 3.646326-1.24533C3.496887-.298879 2.929016 0 2.480697 0Z'/>
<path id='g3-49' d='M2.929016-6.37609C2.929016-6.615193 2.929016-6.635118 2.699875-6.635118C2.082192-5.997509 1.205479-5.997509 .886675-5.997509V-5.688667C1.085928-5.688667 1.673724-5.688667 2.191781-5.947696V-.787049C2.191781-.428394 2.161893-.308842 1.265255-.308842H.946451V0C1.295143-.029888 2.161893-.029888 2.560399-.029888S3.825654-.029888 4.174346 0V-.308842H3.855542C2.958904-.308842 2.929016-.418431 2.929016-.787049V-6.37609Z'/>
<path id='g3-50' d='M1.265255-.767123L2.321295-1.793275C3.875467-3.16812 4.473225-3.706102 4.473225-4.702366C4.473225-5.838107 3.576588-6.635118 2.361146-6.635118C1.235367-6.635118 .498132-5.718555 .498132-4.83188C.498132-4.273973 .996264-4.273973 1.026152-4.273973C1.195517-4.273973 1.544209-4.393524 1.544209-4.801993C1.544209-5.061021 1.364882-5.32005 1.016189-5.32005C.936488-5.32005 .916563-5.32005 .886675-5.310087C1.115816-5.957659 1.653798-6.326276 2.231631-6.326276C3.138232-6.326276 3.566625-5.519303 3.566625-4.702366C3.566625-3.905355 3.068493-3.118306 2.520548-2.500623L.607721-.368618C.498132-.259029 .498132-.239103 .498132 0H4.194271L4.473225-1.733499H4.224159C4.174346-1.43462 4.104608-.996264 4.004981-.846824C3.935243-.767123 3.277709-.767123 3.058531-.767123H1.265255Z'/>
<path id='g3-52' d='M2.929016-1.643836V-.777086C2.929016-.418431 2.909091-.308842 2.171856-.308842H1.96264V0C2.371108-.029888 2.889166-.029888 3.307597-.029888S4.254047-.029888 4.662516 0V-.308842H4.4533C3.716065-.308842 3.696139-.418431 3.696139-.777086V-1.643836H4.692403V-1.952677H3.696139V-6.485679C3.696139-6.684932 3.696139-6.744707 3.536737-6.744707C3.447073-6.744707 3.417186-6.744707 3.337484-6.625156L.278954-1.952677V-1.643836H2.929016ZM2.988792-1.952677H.557908L2.988792-5.668742V-1.952677Z'/>
<path id='g3-54' d='M1.315068-3.267746V-3.506849C1.315068-6.027397 2.550436-6.386052 3.058531-6.386052C3.297634-6.386052 3.716065-6.326276 3.935243-5.987547C3.785803-5.987547 3.387298-5.987547 3.387298-5.539228C3.387298-5.230386 3.626401-5.080946 3.845579-5.080946C4.004981-5.080946 4.303861-5.17061 4.303861-5.559153C4.303861-6.156912 3.865504-6.635118 3.038605-6.635118C1.763387-6.635118 .418431-5.349938 .418431-3.148194C.418431-.488169 1.574097 .219178 2.500623 .219178C3.606476 .219178 4.552927-.71731 4.552927-2.032379C4.552927-3.297634 3.666252-4.254047 2.560399-4.254047C1.882939-4.254047 1.514321-3.745953 1.315068-3.267746ZM2.500623-.059776C1.872976-.059776 1.574097-.657534 1.514321-.806974C1.334994-1.275218 1.334994-2.072229 1.334994-2.251557C1.334994-3.028643 1.653798-4.024907 2.550436-4.024907C2.709838-4.024907 3.16812-4.024907 3.476961-3.407223C3.656289-3.038605 3.656289-2.530511 3.656289-2.042341C3.656289-1.564134 3.656289-1.066002 3.486924-.707347C3.188045-.109589 2.729763-.059776 2.500623-.059776Z'/>
<path id='g3-61' d='M6.844334-3.257783C6.993773-3.257783 7.183064-3.257783 7.183064-3.457036S6.993773-3.656289 6.854296-3.656289H.886675C.747198-3.656289 .557908-3.656289 .557908-3.457036S.747198-3.257783 .896638-3.257783H6.844334ZM6.854296-1.325031C6.993773-1.325031 7.183064-1.325031 7.183064-1.524284S6.993773-1.723537 6.844334-1.723537H.896638C.747198-1.723537 .557908-1.723537 .557908-1.524284S.747198-1.325031 .886675-1.325031H6.854296Z'/>
<path id='g2-83' d='M6.425903-6.924035C6.425903-6.953923 6.405978-7.023661 6.316314-7.023661C6.266501-7.023661 6.256538-7.013699 6.136986-6.874222L5.65878-6.306351C5.399751-6.774595 4.881694-7.023661 4.234122-7.023661C2.968867-7.023661 1.77335-5.877958 1.77335-4.672478C1.77335-3.865504 2.30137-3.407223 2.809465-3.257783L3.875467-2.978829C4.244085-2.889166 4.79203-2.739726 4.79203-1.92279C4.79203-1.026152 3.975093-.089664 2.998755-.089664C2.361146-.089664 1.255293-.308842 1.255293-1.544209C1.255293-1.783313 1.305106-2.022416 1.315068-2.082192C1.325031-2.122042 1.334994-2.132005 1.334994-2.15193C1.334994-2.251557 1.265255-2.261519 1.215442-2.261519S1.145704-2.251557 1.115816-2.221669C1.075965-2.181818 .518057 .089664 .518057 .119552C.518057 .179328 .56787 .219178 .627646 .219178C.67746 .219178 .687422 .209215 .806974 .069738L1.295143-.498132C1.723537 .079701 2.400996 .219178 2.978829 .219178C4.333748 .219178 5.50934-1.105853 5.50934-2.34122C5.50934-3.028643 5.17061-3.367372 5.021171-3.506849C4.79203-3.73599 4.64259-3.775841 3.755915-4.004981C3.536737-4.064757 3.178082-4.164384 3.088418-4.184309C2.819427-4.273973 2.480697-4.562889 2.480697-5.090909C2.480697-5.897883 3.277709-6.744707 4.224159-6.744707C5.051059-6.744707 5.65878-6.316314 5.65878-5.200498C5.65878-4.881694 5.618929-4.702366 5.618929-4.64259C5.618929-4.632628 5.618929-4.542964 5.738481-4.542964C5.838107-4.542964 5.84807-4.572852 5.88792-4.742217L6.425903-6.924035Z'/>
<path id='g2-98' d='M2.381071-6.804483C2.381071-6.814446 2.381071-6.914072 2.251557-6.914072C2.022416-6.914072 1.295143-6.834371 1.036115-6.814446C.956413-6.804483 .846824-6.794521 .846824-6.615193C.846824-6.495641 .936488-6.495641 1.085928-6.495641C1.564134-6.495641 1.58406-6.425903 1.58406-6.326276C1.58406-6.256538 1.494396-5.917808 1.444583-5.708593L.627646-2.460772C.508095-1.96264 .468244-1.803238 .468244-1.454545C.468244-.508095 .996264 .109589 1.733499 .109589C2.909091 .109589 4.134496-1.374844 4.134496-2.809465C4.134496-3.716065 3.606476-4.403487 2.809465-4.403487C2.351183-4.403487 1.942715-4.11457 1.643836-3.805729L2.381071-6.804483ZM1.444583-3.038605C1.504359-3.257783 1.504359-3.277709 1.594022-3.387298C2.082192-4.034869 2.530511-4.184309 2.789539-4.184309C3.148194-4.184309 3.417186-3.88543 3.417186-3.247821C3.417186-2.660025 3.088418-1.514321 2.909091-1.135741C2.580324-.468244 2.122042-.109589 1.733499-.109589C1.39477-.109589 1.066002-.37858 1.066002-1.115816C1.066002-1.305106 1.066002-1.494396 1.225405-2.122042L1.444583-3.038605Z'/>
<path id='g2-112' d='M.448319 1.215442C.368618 1.554172 .348692 1.62391-.089664 1.62391C-.209215 1.62391-.318804 1.62391-.318804 1.8132C-.318804 1.892902-.268991 1.932752-.18929 1.932752C.079701 1.932752 .368618 1.902864 .647572 1.902864C.976339 1.902864 1.315068 1.932752 1.633873 1.932752C1.683686 1.932752 1.8132 1.932752 1.8132 1.733499C1.8132 1.62391 1.713574 1.62391 1.574097 1.62391C1.075965 1.62391 1.075965 1.554172 1.075965 1.464508C1.075965 1.344956 1.494396-.278954 1.564134-.52802C1.693649-.239103 1.972603 .109589 2.480697 .109589C3.636364 .109589 4.881694-1.344956 4.881694-2.809465C4.881694-3.745953 4.313823-4.403487 3.556663-4.403487C3.058531-4.403487 2.580324-4.044832 2.251557-3.656289C2.15193-4.194271 1.723537-4.403487 1.354919-4.403487C.896638-4.403487 .707347-4.014944 .617684-3.835616C.438356-3.496887 .308842-2.899128 .308842-2.86924C.308842-2.769614 .408468-2.769614 .428394-2.769614C.52802-2.769614 .537983-2.779577 .597758-2.998755C.767123-3.706102 .966376-4.184309 1.325031-4.184309C1.494396-4.184309 1.633873-4.104608 1.633873-3.726027C1.633873-3.496887 1.603985-3.387298 1.564134-3.217933L.448319 1.215442ZM2.201743-3.108344C2.271482-3.377335 2.540473-3.656289 2.719801-3.805729C3.068493-4.11457 3.35741-4.184309 3.526775-4.184309C3.92528-4.184309 4.164384-3.835616 4.164384-3.247821S3.835616-1.514321 3.656289-1.135741C3.317559-.438356 2.839352-.109589 2.470735-.109589C1.8132-.109589 1.683686-.936488 1.683686-.996264C1.683686-1.016189 1.683686-1.036115 1.713574-1.155666L2.201743-3.108344Z'/>
<path id='g2-122' d='M1.325031-.826899C1.863014-1.404732 2.15193-1.653798 2.510585-1.96264C2.510585-1.972603 3.128269-2.500623 3.486924-2.859278C4.433375-3.785803 4.652553-4.26401 4.652553-4.303861C4.652553-4.403487 4.562889-4.403487 4.542964-4.403487C4.473225-4.403487 4.443337-4.383562 4.393524-4.293898C4.094645-3.815691 3.88543-3.656289 3.646326-3.656289S3.287671-3.805729 3.138232-3.975093C2.948941-4.204234 2.779577-4.403487 2.450809-4.403487C1.703611-4.403487 1.24533-3.476961 1.24533-3.267746C1.24533-3.217933 1.275218-3.158157 1.364882-3.158157S1.474471-3.20797 1.494396-3.267746C1.683686-3.726027 2.261519-3.73599 2.34122-3.73599C2.550436-3.73599 2.739726-3.666252 2.968867-3.58655C3.367372-3.437111 3.476961-3.437111 3.73599-3.437111C3.377335-3.008717 2.540473-2.291407 2.351183-2.132005L1.454545-1.295143C.777086-.627646 .428394-.059776 .428394 .009963C.428394 .109589 .52802 .109589 .547945 .109589C.627646 .109589 .647572 .089664 .707347-.019925C.936488-.368618 1.235367-.637609 1.554172-.637609C1.783313-.637609 1.882939-.547945 2.132005-.259029C2.30137-.049813 2.480697 .109589 2.769614 .109589C3.755915 .109589 4.333748-1.155666 4.333748-1.424658C4.333748-1.474471 4.293898-1.524284 4.214197-1.524284C4.124533-1.524284 4.104608-1.464508 4.07472-1.39477C3.845579-.747198 3.20797-.557908 2.879203-.557908C2.67995-.557908 2.500623-.617684 2.291407-.687422C1.952677-.816936 1.803238-.856787 1.594022-.856787C1.574097-.856787 1.414695-.856787 1.325031-.826899Z'/>
</defs>
<g id='page1' transform='matrix(1.165714 0 0 1.165714 0 0)'>
<rect x='-29.480132' y='28.303177' width='809.037535' height='90.686464' fill='#242424'/>
<g fill='#f6f3e8'>
<use x='-29.480132' y='43.1526' xlink:href='#g2-83'/>
<use x='-22.79687' y='43.1526' xlink:href='#g2-98'/>
<use x='-15.753926' y='43.1526' xlink:href='#g3-61'/>
<use x='21.775736' y='36.412799' xlink:href='#g3-50'/>
<use x='26.757075' y='36.412799' xlink:href='#g3-48'/>
<use x='31.738414' y='36.412799' xlink:href='#g2-112'/>
<use x='36.750879' y='32.797435' xlink:href='#g4-56'/>
<use x='41.220249' y='36.412799' xlink:href='#g2-122'/>
<use x='46.291533' y='32.797435' xlink:href='#g4-56'/>
</g>
<rect x='-4.042333' y='40.462691' height='.398484' width='80.621285' fill='#f6f3e8'/>
<g fill='#f6f3e8'>
<use x='-4.042333' y='49.98647' xlink:href='#g1-0'/>
<use x='3.706415' y='49.98647' xlink:href='#g3-50'/>
<use x='8.687754' y='49.98647' xlink:href='#g2-112'/>
<use x='13.700219' y='47.108378' xlink:href='#g4-50'/>
<use x='18.169588' y='49.98647' xlink:href='#g2-122'/>
<use x='23.240873' y='47.108378' xlink:href='#g4-50'/>
<use x='29.924108' y='49.98647' xlink:href='#g3-43'/>
<use x='39.886722' y='49.98647' xlink:href='#g3-50'/>
<use x='44.868061' y='49.98647' xlink:href='#g2-112'/>
<use x='49.880525' y='49.98647' xlink:href='#g2-122'/>
<use x='54.95181' y='47.108378' xlink:href='#g4-50'/>
<use x='61.635045' y='49.98647' xlink:href='#g1-0'/>
<use x='71.597659' y='49.98647' xlink:href='#g3-49'/>
<use x='79.988332' y='43.1526' xlink:href='#g1-0'/>
<use x='114.473868' y='36.412799' xlink:href='#g3-49'/>
<use x='119.455207' y='36.412799' xlink:href='#g3-48'/>
<use x='124.436546' y='36.412799' xlink:href='#g3-48'/>
<use x='129.417885' y='36.412799' xlink:href='#g2-112'/>
<use x='134.43035' y='32.797435' xlink:href='#g4-55'/>
<use x='138.899719' y='36.412799' xlink:href='#g2-122'/>
<use x='143.971004' y='32.797435' xlink:href='#g4-56'/>
</g>
<rect x='91.146459' y='40.462691' height='.398484' width='80.621285' fill='#f6f3e8'/>
<g fill='#f6f3e8'>
<use x='91.146459' y='49.98647' xlink:href='#g1-0'/>
<use x='98.895207' y='49.98647' xlink:href='#g3-50'/>
<use x='103.876546' y='49.98647' xlink:href='#g2-112'/>
<use x='108.88901' y='47.108378' xlink:href='#g4-50'/>
<use x='113.35838' y='49.98647' xlink:href='#g2-122'/>
<use x='118.429664' y='47.108378' xlink:href='#g4-50'/>
<use x='125.1129' y='49.98647' xlink:href='#g3-43'/>
<use x='135.075513' y='49.98647' xlink:href='#g3-50'/>
<use x='140.056852' y='49.98647' xlink:href='#g2-112'/>
<use x='145.069317' y='49.98647' xlink:href='#g2-122'/>
<use x='150.140601' y='47.108378' xlink:href='#g4-50'/>
<use x='156.823837' y='49.98647' xlink:href='#g1-0'/>
<use x='166.78645' y='49.98647' xlink:href='#g3-49'/>
<use x='-16.307393' y='70.75814' xlink:href='#g3-43'/>
<use x='18.178143' y='64.018339' xlink:href='#g3-50'/>
<use x='23.159482' y='64.018339' xlink:href='#g3-48'/>
<use x='28.140821' y='64.018339' xlink:href='#g3-48'/>
<use x='33.12216' y='64.018339' xlink:href='#g2-112'/>
<use x='38.134625' y='60.402975' xlink:href='#g4-54'/>
<use x='42.603995' y='64.018339' xlink:href='#g2-122'/>
<use x='47.675279' y='60.402975' xlink:href='#g4-56'/>
</g>
<rect x='-5.149266' y='68.06823' height='.398484' width='80.621285' fill='#f6f3e8'/>
<g fill='#f6f3e8'>
<use x='-5.149266' y='77.59201' xlink:href='#g1-0'/>
<use x='2.599482' y='77.59201' xlink:href='#g3-50'/>
<use x='7.580821' y='77.59201' xlink:href='#g2-112'/>
<use x='12.593286' y='74.713918' xlink:href='#g4-50'/>
<use x='17.062655' y='77.59201' xlink:href='#g2-122'/>
<use x='22.13394' y='74.713918' xlink:href='#g4-50'/>
<use x='28.817175' y='77.59201' xlink:href='#g3-43'/>
<use x='38.779789' y='77.59201' xlink:href='#g3-50'/>
<use x='43.761128' y='77.59201' xlink:href='#g2-112'/>
<use x='48.773592' y='77.59201' xlink:href='#g2-122'/>
<use x='53.844877' y='74.713918' xlink:href='#g4-50'/>
<use x='60.528112' y='77.59201' xlink:href='#g1-0'/>
<use x='70.490726' y='77.59201' xlink:href='#g3-49'/>
<use x='78.881399' y='70.75814' xlink:href='#g3-43'/>
<use x='88.844012' y='70.75814' xlink:href='#g3-49'/>
<use x='93.825351' y='70.75814' xlink:href='#g3-48'/>
<use x='98.80669' y='70.75814' xlink:href='#g2-112'/>
<use x='103.819155' y='66.644644' xlink:href='#g4-54'/>
<use x='108.288525' y='70.75814' xlink:href='#g2-122'/>
<use x='113.359809' y='66.644644' xlink:href='#g4-54'/>
<use x='-16.307393' y='98.36368' xlink:href='#g1-0'/>
<use x='18.178143' y='91.623879' xlink:href='#g3-50'/>
<use x='23.159482' y='91.623879' xlink:href='#g3-48'/>
<use x='28.140821' y='91.623879' xlink:href='#g3-48'/>
<use x='33.12216' y='91.623879' xlink:href='#g2-112'/>
<use x='38.134625' y='88.008515' xlink:href='#g4-53'/>
<use x='42.603995' y='91.623879' xlink:href='#g2-122'/>
<use x='47.675279' y='88.008515' xlink:href='#g4-56'/>
</g>
<rect x='-5.149266' y='95.67377' height='.398484' width='80.621285' fill='#f6f3e8'/>
<g fill='#f6f3e8'>
<use x='-5.149266' y='105.19755' xlink:href='#g1-0'/>
<use x='2.599482' y='105.19755' xlink:href='#g3-50'/>
<use x='7.580821' y='105.19755' xlink:href='#g2-112'/>
<use x='12.593286' y='102.319458' xlink:href='#g4-50'/>
<use x='17.062655' y='105.19755' xlink:href='#g2-122'/>
<use x='22.13394' y='102.319458' xlink:href='#g4-50'/>
<use x='28.817175' y='105.19755' xlink:href='#g3-43'/>
<use x='38.779789' y='105.19755' xlink:href='#g3-50'/>
<use x='43.761128' y='105.19755' xlink:href='#g2-112'/>
<use x='48.773592' y='105.19755' xlink:href='#g2-122'/>
<use x='53.844877' y='102.319458' xlink:href='#g4-50'/>
<use x='60.528112' y='105.19755' xlink:href='#g1-0'/>
<use x='70.490726' y='105.19755' xlink:href='#g3-49'/>
<use x='78.881399' y='98.36368' xlink:href='#g1-0'/>
<use x='88.844012' y='98.36368' xlink:href='#g3-52'/>
<use x='93.825351' y='98.36368' xlink:href='#g3-48'/>
<use x='98.80669' y='98.36368' xlink:href='#g2-112'/>
<use x='103.819155' y='94.250184' xlink:href='#g4-53'/>
<use x='108.288525' y='98.36368' xlink:href='#g2-122'/>
<use x='113.359809' y='94.250184' xlink:href='#g4-54'/>
<use x='120.043045' y='98.36368' xlink:href='#g3-43'/>
<use x='130.005658' y='98.36368' xlink:href='#g3-52'/>
<use x='134.986997' y='98.36368' xlink:href='#g2-112'/>
<use x='139.999462' y='94.250184' xlink:href='#g4-53'/>
<use x='144.468831' y='98.36368' xlink:href='#g2-122'/>
<use x='149.540116' y='94.250184' xlink:href='#g4-53'/>
<use x='156.223351' y='98.36368' xlink:href='#g3-43'/>
<use x='190.708887' y='91.623879' xlink:href='#g3-49'/>
<use x='195.690226' y='91.623879' xlink:href='#g3-48'/>
<use x='200.671565' y='91.623879' xlink:href='#g3-48'/>
<use x='205.652904' y='91.623879' xlink:href='#g2-112'/>
<use x='210.665369' y='88.008515' xlink:href='#g4-52'/>
<use x='215.134739' y='91.623879' xlink:href='#g2-122'/>
<use x='220.206023' y='88.008515' xlink:href='#g4-56'/>
</g>
<rect x='167.381479' y='95.67377' height='.398484' width='80.621285' fill='#f6f3e8'/>
<g fill='#f6f3e8'>
<use x='167.381479' y='105.19755' xlink:href='#g1-0'/>
<use x='175.130226' y='105.19755' xlink:href='#g3-50'/>
<use x='180.111565' y='105.19755' xlink:href='#g2-112'/>
<use x='185.12403' y='102.319458' xlink:href='#g4-50'/>
<use x='189.593399' y='105.19755' xlink:href='#g2-122'/>
<use x='194.664684' y='102.319458' xlink:href='#g4-50'/>
<use x='201.347919' y='105.19755' xlink:href='#g3-43'/>
<use x='211.310533' y='105.19755' xlink:href='#g3-50'/>
<use x='216.291872' y='105.19755' xlink:href='#g2-112'/>
<use x='221.304336' y='105.19755' xlink:href='#g2-122'/>
<use x='226.375621' y='102.319458' xlink:href='#g4-50'/>
<use x='233.058856' y='105.19755' xlink:href='#g1-0'/>
<use x='243.02147' y='105.19755' xlink:href='#g3-49'/>
<use x='251.412143' y='98.36368' xlink:href='#g3-43'/>
<use x='261.374756' y='98.36368' xlink:href='#g3-54'/>
<use x='266.356096' y='98.36368' xlink:href='#g3-48'/>
<use x='271.337435' y='98.36368' xlink:href='#g2-112'/>
<use x='276.349899' y='94.250184' xlink:href='#g4-52'/>
<use x='280.819269' y='98.36368' xlink:href='#g2-122'/>
<use x='285.890553' y='94.250184' xlink:href='#g4-54'/>
<use x='292.573789' y='98.36368' xlink:href='#g1-0'/>
<use x='302.536402' y='98.36368' xlink:href='#g3-49'/>
<use x='307.517741' y='98.36368' xlink:href='#g3-54'/>
<use x='312.49908' y='98.36368' xlink:href='#g2-112'/>
<use x='317.511545' y='94.250184' xlink:href='#g4-52'/>
<use x='321.980915' y='98.36368' xlink:href='#g2-122'/>
<use x='327.052199' y='94.250184' xlink:href='#g4-53'/>
<use x='333.735434' y='98.36368' xlink:href='#g3-43'/>
<use x='343.698048' y='98.36368' xlink:href='#g2-112'/>
<use x='348.710513' y='94.250184' xlink:href='#g4-52'/>
<use x='353.179882' y='98.36368' xlink:href='#g2-122'/>
<use x='358.251166' y='94.250184' xlink:href='#g4-52'/>
<use x='364.934402' y='98.36368' xlink:href='#g1-0'/>
<use x='401.910598' y='91.623879' xlink:href='#g3-50'/>
<use x='406.891937' y='91.623879' xlink:href='#g3-48'/>
<use x='411.873276' y='91.623879' xlink:href='#g2-112'/>
<use x='416.885741' y='88.008515' xlink:href='#g4-51'/>
<use x='421.35511' y='91.623879' xlink:href='#g2-122'/>
<use x='426.426395' y='88.008515' xlink:href='#g4-56'/>
</g>
<rect x='376.092529' y='95.67377' height='.398484' width='80.621285' fill='#f6f3e8'/>
<g fill='#f6f3e8'>
<use x='376.092529' y='105.19755' xlink:href='#g1-0'/>
<use x='383.841277' y='105.19755' xlink:href='#g3-50'/>
<use x='388.822616' y='105.19755' xlink:href='#g2-112'/>
<use x='393.835081' y='102.319458' xlink:href='#g4-50'/>
<use x='398.30445' y='105.19755' xlink:href='#g2-122'/>
<use x='403.375734' y='102.319458' xlink:href='#g4-50'/>
<use x='410.05897' y='105.19755' xlink:href='#g3-43'/>
<use x='420.021583' y='105.19755' xlink:href='#g3-50'/>
<use x='425.002923' y='105.19755' xlink:href='#g2-112'/>
<use x='430.015387' y='105.19755' xlink:href='#g2-122'/>
<use x='435.086671' y='102.319458' xlink:href='#g4-50'/>
<use x='441.769907' y='105.19755' xlink:href='#g1-0'/>
<use x='451.732521' y='105.19755' xlink:href='#g3-49'/>
<use x='460.123194' y='98.36368' xlink:href='#g1-0'/>
<use x='470.085807' y='98.36368' xlink:href='#g3-52'/>
<use x='475.067146' y='98.36368' xlink:href='#g3-48'/>
<use x='480.048485' y='98.36368' xlink:href='#g2-112'/>
<use x='485.06095' y='94.250184' xlink:href='#g4-51'/>
<use x='489.53032' y='98.36368' xlink:href='#g2-122'/>
<use x='494.601604' y='94.250184' xlink:href='#g4-54'/>
<use x='501.284839' y='98.36368' xlink:href='#g3-43'/>
<use x='511.247453' y='98.36368' xlink:href='#g3-50'/>
<use x='516.228792' y='98.36368' xlink:href='#g3-52'/>
<use x='521.210131' y='98.36368' xlink:href='#g2-112'/>
<use x='526.222596' y='94.250184' xlink:href='#g4-51'/>
<use x='530.691965' y='98.36368' xlink:href='#g2-122'/>
<use x='535.76325' y='94.250184' xlink:href='#g4-53'/>
<use x='542.446485' y='98.36368' xlink:href='#g1-0'/>
<use x='552.409099' y='98.36368' xlink:href='#g3-52'/>
<use x='557.390438' y='98.36368' xlink:href='#g2-112'/>
<use x='562.402902' y='94.250184' xlink:href='#g4-51'/>
<use x='566.872272' y='98.36368' xlink:href='#g2-122'/>
<use x='571.943556' y='94.250184' xlink:href='#g4-52'/>
<use x='578.626792' y='98.36368' xlink:href='#g3-43'/>
<use x='588.589405' y='98.36368' xlink:href='#g3-49'/>
<use x='593.570744' y='98.36368' xlink:href='#g3-48'/>
<use x='598.552083' y='98.36368' xlink:href='#g2-112'/>
<use x='603.564548' y='94.250184' xlink:href='#g4-50'/>
<use x='608.033918' y='98.36368' xlink:href='#g2-122'/>
<use x='613.105202' y='94.250184' xlink:href='#g4-54'/>
<use x='619.788438' y='98.36368' xlink:href='#g1-0'/>
<use x='629.751051' y='98.36368' xlink:href='#g3-49'/>
<use x='634.73239' y='98.36368' xlink:href='#g3-54'/>
<use x='639.713729' y='98.36368' xlink:href='#g2-112'/>
<use x='644.726194' y='94.250184' xlink:href='#g4-50'/>
<use x='649.195563' y='98.36368' xlink:href='#g2-122'/>
<use x='654.266848' y='94.250184' xlink:href='#g4-53'/>
<use x='660.950083' y='98.36368' xlink:href='#g3-43'/>
<use x='670.912697' y='98.36368' xlink:href='#g3-54'/>
<use x='675.894036' y='98.36368' xlink:href='#g2-112'/>
<use x='680.906501' y='94.250184' xlink:href='#g4-50'/>
<use x='685.37587' y='98.36368' xlink:href='#g2-122'/>
<use x='690.447154' y='94.250184' xlink:href='#g4-52'/>
<use x='697.13039' y='98.36368' xlink:href='#g3-43'/>
<use x='707.093003' y='98.36368' xlink:href='#g3-52'/>
<use x='712.074342' y='98.36368' xlink:href='#g2-112'/>
<use x='717.086807' y='98.36368' xlink:href='#g2-122'/>
<use x='722.158091' y='94.250184' xlink:href='#g4-53'/>
<use x='728.841327' y='98.36368' xlink:href='#g1-0'/>
<use x='738.80394' y='98.36368' xlink:href='#g3-52'/>
<use x='743.78528' y='98.36368' xlink:href='#g2-112'/>
<use x='748.797744' y='98.36368' xlink:href='#g2-122'/>
<use x='753.869028' y='94.250184' xlink:href='#g4-52'/>
<use x='760.552264' y='98.36368' xlink:href='#g3-43'/>
<use x='770.514878' y='98.36368' xlink:href='#g2-122'/>
<use x='775.586162' y='94.250184' xlink:href='#g4-52'/>
<use x='484.75357' y='116.499589' xlink:href='#g0-40'/>
<use x='488.626984' y='116.499589' xlink:href='#g0-49'/>
<use x='493.607088' y='116.499589' xlink:href='#g0-41'/>
</g>
</g>
</svg>