<?xml version='1.0' encoding='UTF-8'?>
<!-- This file was generated by dvisvgm 2.8.1 -->
<svg version='1.1' xmlns='http://www.w3.org/2000/svg' xmlns:xlink='http://www.w3.org/1999/xlink' width='42.653905pt' height='12.302088pt' viewBox='-34.365412 46.761983 42.653905 12.302088'>
<defs>
<path id='g2-43' d='M3.228892-1.57609H5.362889C5.453549-1.57609 5.620922-1.57609 5.620922-1.743462C5.620922-1.917808 5.460523-1.917808 5.362889-1.917808H3.228892V-4.05878C3.228892-4.14944 3.228892-4.316812 3.061519-4.316812C2.887173-4.316812 2.887173-4.156413 2.887173-4.05878V-1.917808H.746202C.655542-1.917808 .488169-1.917808 .488169-1.750436C.488169-1.57609 .648568-1.57609 .746202-1.57609H2.887173V.564882C2.887173 .655542 2.887173 .822914 3.054545 .822914C3.228892 .822914 3.228892 .662516 3.228892 .564882V-1.57609Z'/>
<path id='g2-49' d='M2.336239-4.435367C2.336239-4.623661 2.322291-4.630635 2.127024-4.630635C1.680697-4.191283 1.046077-4.184309 .760149-4.184309V-3.93325C.927522-3.93325 1.387796-3.93325 1.771357-4.128518V-.571856C1.771357-.341719 1.771357-.251059 1.073973-.251059H.808966V0C.934496-.006974 1.792279-.027895 2.050311-.027895C2.266501-.027895 3.145205-.006974 3.29863 0V-.251059H3.033624C2.336239-.251059 2.336239-.341719 2.336239-.571856V-4.435367Z'/>
<path id='g1-64' d='M3.66127-2.357161C3.563636-2.761644 3.249813-3.180075 2.594271-3.180075C1.617933-3.180075 .808966-2.447821 .557908-1.820174C.516065-1.701619 .418431-1.415691 .418431-1.136737C.418431-.655542 .795019 .139477 1.882939 .139477C3.689166 .139477 4.42142-2.113076 4.42142-3.103362C4.42142-4.29589 3.640349-4.979328 2.705853-4.979328C1.569116-4.979328 1.255293-4.072727 1.255293-3.856538C1.255293-3.800747 1.290162-3.605479 1.534247-3.605479S1.924782-3.821669 1.924782-3.989041C1.924782-4.177335 1.785305-4.2401 1.652802-4.254047C2.001494-4.777086 2.57335-4.777086 2.691905-4.777086C3.214944-4.777086 3.835616-4.449315 3.835616-3.459029C3.835616-3.159153 3.800747-2.915068 3.668244-2.357161H3.66127ZM1.896887-.083686C1.108842-.083686 1.018182-.676463 1.018182-.892653C1.018182-1.164633 1.206476-1.84807 1.276214-2.022416C1.401743-2.343213 1.834122-2.984807 2.622167-2.984807C3.29863-2.984807 3.521793-2.454795 3.521793-2.036364C3.521793-1.569116 3.068493-.083686 1.896887-.083686Z'/>
<path id='g1-110' d='M.850809-.439352C.822914-.348692 .781071-.174346 .781071-.153425C.781071 0 .9066 .069738 1.018182 .069738C1.143711 .069738 1.255293-.020922 1.290162-.083686S1.380822-.369614 1.415691-.516065C1.45056-.648568 1.527273-.969365 1.569116-1.143711C1.610959-1.297136 1.652802-1.45056 1.687671-1.610959C1.764384-1.896887 1.778331-1.952677 1.980573-2.238605C2.175841-2.517559 2.503611-2.880199 3.02665-2.880199C3.431133-2.880199 3.438107-2.524533 3.438107-2.39203C3.438107-1.973599 3.138232-1.199502 3.02665-.9066C2.949938-.711333 2.922042-.648568 2.922042-.530012C2.922042-.160399 3.228892 .069738 3.584558 .069738C4.281943 .069738 4.588792-.892653 4.588792-.99726C4.588792-1.08792 4.498132-1.08792 4.47721-1.08792C4.379577-1.08792 4.372603-1.046077 4.344707-.969365C4.184309-.411457 3.884433-.125529 3.605479-.125529C3.459029-.125529 3.431133-.223163 3.431133-.369614C3.431133-.530012 3.466002-.620672 3.591532-.934496C3.675218-1.150685 3.961146-1.889913 3.961146-2.280448C3.961146-2.956912 3.424159-3.075467 3.054545-3.075467C2.475716-3.075467 2.085181-2.719801 1.875965-2.440847C1.827148-2.922042 1.415691-3.075467 1.129763-3.075467C.829888-3.075467 .669489-2.859278 .578829-2.698879C.425405-2.440847 .327771-2.043337 .327771-2.008468C.327771-1.917808 .425405-1.917808 .446326-1.917808C.54396-1.917808 .550934-1.93873 .599751-2.127024C.704359-2.538481 .836862-2.880199 1.108842-2.880199C1.290162-2.880199 1.338979-2.726775 1.338979-2.538481C1.338979-2.405978 1.276214-2.147945 1.227397-1.959651S1.108842-1.48543 1.073973-1.332005L.850809-.439352Z'/>
<path id='g1-122' d='M1.171606-.613699C1.352927-.795019 1.478456-.927522 2.071233-1.401743C2.217684-1.520299 2.740722-1.93873 2.942964-2.133998C3.368369-2.552428 3.633375-2.908095 3.633375-2.991781S3.542715-3.075467 3.514819-3.075467C3.452055-3.075467 3.431133-3.061519 3.396264-3.005729C3.180075-2.684932 3.033624-2.580324 2.866252-2.580324C2.782565-2.580324 2.677958-2.587298 2.468742-2.789539C2.231631-3.02665 2.078207-3.075467 1.917808-3.075467C1.3599-3.075467 .983313-2.468742 .983313-2.259527C.983313-2.196762 1.053051-2.175841 1.101868-2.175841C1.185554-2.175841 1.199502-2.196762 1.227397-2.273474C1.332005-2.517559 1.72254-2.531507 1.834122-2.531507C1.994521-2.531507 2.175841-2.489664 2.273474-2.468742C2.657036-2.385056 2.705853-2.385056 2.880199-2.385056C2.698879-2.196762 2.57335-2.071233 1.910834-1.54122C1.366874-1.108842 1.17858-.934496 1.046077-.795019C.627646-.383562 .425405-.076712 .425405-.013948C.425405 .069738 .516065 .069738 .54396 .069738C.613699 .069738 .627646 .055791 .662516 0C.850809-.265006 1.066999-.425405 1.30411-.425405C1.387796-.425405 1.492403-.418431 1.680697-.244085C1.896887-.034869 2.036364 .069738 2.259527 .069738C3.005729 .069738 3.472976-.774097 3.472976-1.011208C3.472976-1.094894 3.396264-1.101868 3.354421-1.101868C3.270735-1.101868 3.256787-1.066999 3.228892-.990286C3.096389-.641594 2.684932-.474222 2.343213-.474222C2.182814-.474222 2.008468-.509091 1.834122-.550934C1.513325-.620672 1.457534-.620672 1.332005-.620672C1.318057-.620672 1.21345-.620672 1.171606-.613699Z'/>
<path id='g0-64' d='M4.612702-3.377335C4.513076-3.995019 4.104608-4.552927 3.327522-4.552927C2.719801-4.552927 2.072229-4.393524 1.295143-3.616438C.468244-2.789539 .398506-1.863014 .398506-1.554172C.398506-.936488 .836862 .219178 2.231631 .219178C4.60274 .219178 5.638854-3.128269 5.638854-4.552927C5.638854-6.136986 4.712329-7.13325 3.486924-7.13325C2.042341-7.13325 1.58406-5.838107 1.58406-5.559153C1.58406-5.419676 1.663761-5.210461 1.96264-5.210461C2.291407-5.210461 2.500623-5.50934 2.500623-5.738481C2.500623-6.087173 2.191781-6.087173 2.032379-6.087173C2.470735-6.824408 3.178082-6.884184 3.466999-6.884184C4.194271-6.884184 4.891656-6.366127 4.891656-5.080946C4.891656-4.692403 4.83188-4.184309 4.622665-3.377335H4.612702ZM2.261519-.059776C1.165629-.059776 1.165629-1.085928 1.165629-1.185554C1.165629-1.454545 1.414695-2.849315 1.823163-3.447073C2.221669-4.014944 2.709838-4.333748 3.327522-4.333748C4.41345-4.333748 4.433375-3.217933 4.433375-3.01868C4.433375-2.30137 3.795766-.059776 2.261519-.059776Z'/>
<path id='g0-97' d='M3.716065-3.765878C3.536737-4.134496 3.247821-4.403487 2.799502-4.403487C1.633873-4.403487 .398506-2.938979 .398506-1.484433C.398506-.547945 .946451 .109589 1.723537 .109589C1.92279 .109589 2.420922 .069738 3.01868-.637609C3.098381-.219178 3.447073 .109589 3.92528 .109589C4.273973 .109589 4.503113-.119552 4.662516-.438356C4.83188-.797011 4.961395-1.404732 4.961395-1.424658C4.961395-1.524284 4.871731-1.524284 4.841843-1.524284C4.742217-1.524284 4.732254-1.484433 4.702366-1.344956C4.533001-.697385 4.353674-.109589 3.945205-.109589C3.676214-.109589 3.646326-.368618 3.646326-.56787C3.646326-.787049 3.666252-.86675 3.775841-1.305106C3.88543-1.723537 3.905355-1.823163 3.995019-2.201743L4.353674-3.596513C4.423412-3.875467 4.423412-3.895392 4.423412-3.935243C4.423412-4.104608 4.303861-4.204234 4.134496-4.204234C3.895392-4.204234 3.745953-3.985056 3.716065-3.765878ZM3.068493-1.185554C3.01868-1.006227 3.01868-.986301 2.86924-.816936C2.430884-.268991 2.022416-.109589 1.743462-.109589C1.24533-.109589 1.105853-.657534 1.105853-1.046077C1.105853-1.544209 1.424658-2.769614 1.653798-3.227895C1.96264-3.815691 2.410959-4.184309 2.809465-4.184309C3.457036-4.184309 3.596513-3.367372 3.596513-3.307597S3.576588-3.188045 3.566625-3.138232L3.068493-1.185554Z'/>
<path id='g0-126' d='M5.349938-5.927771C5.210461-5.798257 4.881694-5.519303 4.881694-5.339975C4.881694-5.240349 4.98132-5.140722 5.080946-5.140722C5.17061-5.140722 5.220423-5.210461 5.270237-5.270237C5.389788-5.419676 5.618929-5.69863 6.057285-5.917808C6.127024-5.957659 6.22665-6.007472 6.22665-6.127024C6.22665-6.22665 6.156912-6.276463 6.087173-6.326276C5.867995-6.475716 5.758406-6.655044 5.678705-6.894147C5.65878-6.983811 5.618929-7.113325 5.479452-7.113325S5.280199-6.983811 5.280199-6.90411C5.280199-6.854296 5.3599-6.535492 5.519303-6.326276H2.161893C1.992528-6.326276 1.8132-6.326276 1.8132-6.127024S1.992528-5.927771 2.161893-5.927771H5.349938Z'/>
</defs>
<g id='page1' transform='matrix(1.165714 0 0 1.165714 0 0)'>
<rect x='-29.480132' y='40.114446' width='36.59036' height='10.553262' fill='#242424'/>
<g fill='#f6f3e8'>
<use x='-29.480132' y='47.232196' xlink:href='#g0-64'/>
<use x='-16.506169' y='47.232196' xlink:href='#g0-126'/>
<use x='-23.637462' y='47.232196' xlink:href='#g0-97'/>
<use x='-18.371308' y='48.726577' xlink:href='#g1-110'/>
<use x='-13.446446' y='48.726577' xlink:href='#g2-43'/>
<use x='-7.330462' y='48.726577' xlink:href='#g2-49'/>
</g>
<rect x='-1.665597' y='44.542286' height='.398484' width='8.775807' fill='#f6f3e8'/>
<g fill='#f6f3e8'>
<use x='-1.665597' y='50.667708' xlink:href='#g1-64'/>
<use x='3.017889' y='50.667708' xlink:href='#g1-122'/>
</g>
</g>
</svg>