<?xml version='1.0' encoding='UTF-8'?>
<!-- This file was generated by dvisvgm 2.8.1 -->
<svg version='1.1' xmlns='http://www.w3.org/2000/svg' xmlns:xlink='http://www.w3.org/1999/xlink' width='256.372664pt' height='12.032956pt' viewBox='144.591097 25.444587 256.372664 12.032956'>
<defs>
<path id='g5-48' d='M3.598506-2.224658C3.598506-2.991781 3.507846-3.542715 3.187049-4.030884C2.970859-4.351681 2.538481-4.630635 1.980573-4.630635C.36264-4.630635 .36264-2.726775 .36264-2.224658S.36264 .139477 1.980573 .139477S3.598506-1.72254 3.598506-2.224658ZM1.980573-.055791C1.659776-.055791 1.234371-.244085 1.094894-.81594C.99726-1.227397 .99726-1.799253 .99726-2.315318C.99726-2.824408 .99726-3.354421 1.101868-3.737983C1.248319-4.288917 1.694645-4.435367 1.980573-4.435367C2.357161-4.435367 2.719801-4.20523 2.84533-3.800747C2.956912-3.424159 2.963885-2.922042 2.963885-2.315318C2.963885-1.799253 2.963885-1.283188 2.873225-.843836C2.733748-.209215 2.259527-.055791 1.980573-.055791Z'/>
<path id='g5-49' d='M2.336239-4.435367C2.336239-4.623661 2.322291-4.630635 2.127024-4.630635C1.680697-4.191283 1.046077-4.184309 .760149-4.184309V-3.93325C.927522-3.93325 1.387796-3.93325 1.771357-4.128518V-.571856C1.771357-.341719 1.771357-.251059 1.073973-.251059H.808966V0C.934496-.006974 1.792279-.027895 2.050311-.027895C2.266501-.027895 3.145205-.006974 3.29863 0V-.251059H3.033624C2.336239-.251059 2.336239-.341719 2.336239-.571856V-4.435367Z'/>
<path id='g5-50' d='M3.521793-1.26924H3.284682C3.263761-1.115816 3.194022-.704359 3.103362-.63462C3.047572-.592777 2.510585-.592777 2.412951-.592777H1.129763C1.862017-1.241345 2.106102-1.436613 2.524533-1.764384C3.040598-2.175841 3.521793-2.608219 3.521793-3.270735C3.521793-4.11457 2.782565-4.630635 1.889913-4.630635C1.025156-4.630635 .439352-4.02391 .439352-3.382316C.439352-3.02665 .739228-2.991781 .808966-2.991781C.976339-2.991781 1.17858-3.110336 1.17858-3.361395C1.17858-3.486924 1.129763-3.731009 .767123-3.731009C.983313-4.226152 1.457534-4.379577 1.785305-4.379577C2.48269-4.379577 2.84533-3.835616 2.84533-3.270735C2.84533-2.66401 2.412951-2.182814 2.189788-1.931756L.509091-.27198C.439352-.209215 .439352-.195268 .439352 0H3.312578L3.521793-1.26924Z'/>
<path id='g1-0' d='M5.188543-1.57609C5.300125-1.57609 5.467497-1.57609 5.467497-1.743462C5.467497-1.917808 5.307098-1.917808 5.188543-1.917808H1.03213C.920548-1.917808 .753176-1.917808 .753176-1.750436C.753176-1.57609 .913574-1.57609 1.03213-1.57609H5.188543Z'/>
<path id='g3-59' d='M1.471482-.111582C1.471482 .27198 1.401743 .718306 .927522 1.164633C.899626 1.192528 .878705 1.21345 .878705 1.248319C.878705 1.297136 .934496 1.345953 .976339 1.345953C1.073973 1.345953 1.66675 .788045 1.66675-.041843C1.66675-.474222 1.499377-.801993 1.17858-.801993C.948443-.801993 .781071-.620672 .781071-.404483C.781071-.18132 .941469 0 1.185554 0C1.352927 0 1.464508-.111582 1.471482-.111582Z'/>
<path id='g3-110' d='M.850809-.439352C.822914-.348692 .781071-.174346 .781071-.153425C.781071 0 .9066 .069738 1.018182 .069738C1.143711 .069738 1.255293-.020922 1.290162-.083686S1.380822-.369614 1.415691-.516065C1.45056-.648568 1.527273-.969365 1.569116-1.143711C1.610959-1.297136 1.652802-1.45056 1.687671-1.610959C1.764384-1.896887 1.778331-1.952677 1.980573-2.238605C2.175841-2.517559 2.503611-2.880199 3.02665-2.880199C3.431133-2.880199 3.438107-2.524533 3.438107-2.39203C3.438107-1.973599 3.138232-1.199502 3.02665-.9066C2.949938-.711333 2.922042-.648568 2.922042-.530012C2.922042-.160399 3.228892 .069738 3.584558 .069738C4.281943 .069738 4.588792-.892653 4.588792-.99726C4.588792-1.08792 4.498132-1.08792 4.47721-1.08792C4.379577-1.08792 4.372603-1.046077 4.344707-.969365C4.184309-.411457 3.884433-.125529 3.605479-.125529C3.459029-.125529 3.431133-.223163 3.431133-.369614C3.431133-.530012 3.466002-.620672 3.591532-.934496C3.675218-1.150685 3.961146-1.889913 3.961146-2.280448C3.961146-2.956912 3.424159-3.075467 3.054545-3.075467C2.475716-3.075467 2.085181-2.719801 1.875965-2.440847C1.827148-2.922042 1.415691-3.075467 1.129763-3.075467C.829888-3.075467 .669489-2.859278 .578829-2.698879C.425405-2.440847 .327771-2.043337 .327771-2.008468C.327771-1.917808 .425405-1.917808 .446326-1.917808C.54396-1.917808 .550934-1.93873 .599751-2.127024C.704359-2.538481 .836862-2.880199 1.108842-2.880199C1.290162-2.880199 1.338979-2.726775 1.338979-2.538481C1.338979-2.405978 1.276214-2.147945 1.227397-1.959651S1.108842-1.48543 1.073973-1.332005L.850809-.439352Z'/>
<path id='g0-3' d='M2.739726-4.254047C2.749689-4.393524 2.749689-4.632628 2.49066-4.632628C2.331258-4.632628 2.201743-4.503113 2.231631-4.373599V-4.244085L2.371108-2.699875L1.09589-3.626401C1.006227-3.676214 .986301-3.696139 .916563-3.696139C.777086-3.696139 .647572-3.556663 .647572-3.417186C.647572-3.257783 .747198-3.217933 .846824-3.16812L2.261519-2.49066L.886675-1.823163C.727273-1.743462 .647572-1.703611 .647572-1.554172S.777086-1.275218 .916563-1.275218C.986301-1.275218 1.006227-1.275218 1.255293-1.464508L2.371108-2.271482L2.221669-.597758C2.221669-.388543 2.400996-.33873 2.480697-.33873C2.600249-.33873 2.749689-.408468 2.749689-.597758L2.600249-2.271482L3.875467-1.344956C3.965131-1.295143 3.985056-1.275218 4.054795-1.275218C4.194271-1.275218 4.323786-1.414695 4.323786-1.554172C4.323786-1.703611 4.234122-1.753425 4.11457-1.8132C3.516812-2.11208 3.496887-2.11208 2.709838-2.480697L4.084682-3.148194C4.244085-3.227895 4.323786-3.267746 4.323786-3.417186S4.194271-3.696139 4.054795-3.696139C3.985056-3.696139 3.965131-3.696139 3.716065-3.506849L2.600249-2.699875L2.739726-4.254047Z'/>
<path id='g4-40' d='M3.297634 2.391034C3.297634 2.361146 3.297634 2.34122 3.128269 2.171856C1.882939 .916563 1.564134-.966376 1.564134-2.49066C1.564134-4.224159 1.942715-5.957659 3.16812-7.202989C3.297634-7.32254 3.297634-7.342466 3.297634-7.372354C3.297634-7.442092 3.257783-7.47198 3.198007-7.47198C3.098381-7.47198 2.201743-6.794521 1.613948-5.529265C1.105853-4.433375 .986301-3.327522 .986301-2.49066C.986301-1.713574 1.09589-.508095 1.643836 .617684C2.241594 1.843088 3.098381 2.49066 3.198007 2.49066C3.257783 2.49066 3.297634 2.460772 3.297634 2.391034Z'/>
<path id='g4-41' d='M2.879203-2.49066C2.879203-3.267746 2.769614-4.473225 2.221669-5.599004C1.62391-6.824408 .767123-7.47198 .667497-7.47198C.607721-7.47198 .56787-7.43213 .56787-7.372354C.56787-7.342466 .56787-7.32254 .757161-7.143213C1.733499-6.156912 2.30137-4.572852 2.30137-2.49066C2.30137-.787049 1.932752 .966376 .697385 2.221669C.56787 2.34122 .56787 2.361146 .56787 2.391034C.56787 2.450809 .607721 2.49066 .667497 2.49066C.767123 2.49066 1.663761 1.8132 2.251557 .547945C2.759651-.547945 2.879203-1.653798 2.879203-2.49066Z'/>
<path id='g4-43' d='M4.07472-2.291407H6.854296C6.993773-2.291407 7.183064-2.291407 7.183064-2.49066S6.993773-2.689913 6.854296-2.689913H4.07472V-5.479452C4.07472-5.618929 4.07472-5.808219 3.875467-5.808219S3.676214-5.618929 3.676214-5.479452V-2.689913H.886675C.747198-2.689913 .557908-2.689913 .557908-2.49066S.747198-2.291407 .886675-2.291407H3.676214V.498132C3.676214 .637609 3.676214 .826899 3.875467 .826899S4.07472 .637609 4.07472 .498132V-2.291407Z'/>
<path id='g4-49' d='M2.929016-6.37609C2.929016-6.615193 2.929016-6.635118 2.699875-6.635118C2.082192-5.997509 1.205479-5.997509 .886675-5.997509V-5.688667C1.085928-5.688667 1.673724-5.688667 2.191781-5.947696V-.787049C2.191781-.428394 2.161893-.308842 1.265255-.308842H.946451V0C1.295143-.029888 2.161893-.029888 2.560399-.029888S3.825654-.029888 4.174346 0V-.308842H3.855542C2.958904-.308842 2.929016-.418431 2.929016-.787049V-6.37609Z'/>
<path id='g4-61' d='M6.844334-3.257783C6.993773-3.257783 7.183064-3.257783 7.183064-3.457036S6.993773-3.656289 6.854296-3.656289H.886675C.747198-3.656289 .557908-3.656289 .557908-3.457036S.747198-3.257783 .896638-3.257783H6.844334ZM6.854296-1.325031C6.993773-1.325031 7.183064-1.325031 7.183064-1.524284S6.993773-1.723537 6.844334-1.723537H.896638C.747198-1.723537 .557908-1.723537 .557908-1.524284S.747198-1.325031 .886675-1.325031H6.854296Z'/>
<path id='g2-58' d='M1.912827-.52802C1.912827-.816936 1.673724-1.05604 1.384807-1.05604S.856787-.816936 .856787-.52802S1.09589 0 1.384807 0S1.912827-.239103 1.912827-.52802Z'/>
<path id='g2-83' d='M6.425903-6.924035C6.425903-6.953923 6.405978-7.023661 6.316314-7.023661C6.266501-7.023661 6.256538-7.013699 6.136986-6.874222L5.65878-6.306351C5.399751-6.774595 4.881694-7.023661 4.234122-7.023661C2.968867-7.023661 1.77335-5.877958 1.77335-4.672478C1.77335-3.865504 2.30137-3.407223 2.809465-3.257783L3.875467-2.978829C4.244085-2.889166 4.79203-2.739726 4.79203-1.92279C4.79203-1.026152 3.975093-.089664 2.998755-.089664C2.361146-.089664 1.255293-.308842 1.255293-1.544209C1.255293-1.783313 1.305106-2.022416 1.315068-2.082192C1.325031-2.122042 1.334994-2.132005 1.334994-2.15193C1.334994-2.251557 1.265255-2.261519 1.215442-2.261519S1.145704-2.251557 1.115816-2.221669C1.075965-2.181818 .518057 .089664 .518057 .119552C.518057 .179328 .56787 .219178 .627646 .219178C.67746 .219178 .687422 .209215 .806974 .069738L1.295143-.498132C1.723537 .079701 2.400996 .219178 2.978829 .219178C4.333748 .219178 5.50934-1.105853 5.50934-2.34122C5.50934-3.028643 5.17061-3.367372 5.021171-3.506849C4.79203-3.73599 4.64259-3.775841 3.755915-4.004981C3.536737-4.064757 3.178082-4.164384 3.088418-4.184309C2.819427-4.273973 2.480697-4.562889 2.480697-5.090909C2.480697-5.897883 3.277709-6.744707 4.224159-6.744707C5.051059-6.744707 5.65878-6.316314 5.65878-5.200498C5.65878-4.881694 5.618929-4.702366 5.618929-4.64259C5.618929-4.632628 5.618929-4.542964 5.738481-4.542964C5.838107-4.542964 5.84807-4.572852 5.88792-4.742217L6.425903-6.924035Z'/>
<path id='g2-98' d='M2.381071-6.804483C2.381071-6.814446 2.381071-6.914072 2.251557-6.914072C2.022416-6.914072 1.295143-6.834371 1.036115-6.814446C.956413-6.804483 .846824-6.794521 .846824-6.615193C.846824-6.495641 .936488-6.495641 1.085928-6.495641C1.564134-6.495641 1.58406-6.425903 1.58406-6.326276C1.58406-6.256538 1.494396-5.917808 1.444583-5.708593L.627646-2.460772C.508095-1.96264 .468244-1.803238 .468244-1.454545C.468244-.508095 .996264 .109589 1.733499 .109589C2.909091 .109589 4.134496-1.374844 4.134496-2.809465C4.134496-3.716065 3.606476-4.403487 2.809465-4.403487C2.351183-4.403487 1.942715-4.11457 1.643836-3.805729L2.381071-6.804483ZM1.444583-3.038605C1.504359-3.257783 1.504359-3.277709 1.594022-3.387298C2.082192-4.034869 2.530511-4.184309 2.789539-4.184309C3.148194-4.184309 3.417186-3.88543 3.417186-3.247821C3.417186-2.660025 3.088418-1.514321 2.909091-1.135741C2.580324-.468244 2.122042-.109589 1.733499-.109589C1.39477-.109589 1.066002-.37858 1.066002-1.115816C1.066002-1.305106 1.066002-1.494396 1.225405-2.122042L1.444583-3.038605Z'/>
<path id='g2-102' d='M3.656289-3.985056H4.513076C4.712329-3.985056 4.811955-3.985056 4.811955-4.184309C4.811955-4.293898 4.712329-4.293898 4.542964-4.293898H3.716065L3.92528-5.429639C3.965131-5.638854 4.104608-6.346202 4.164384-6.465753C4.254047-6.655044 4.423412-6.804483 4.632628-6.804483C4.672478-6.804483 4.931507-6.804483 5.120797-6.625156C4.682441-6.585305 4.582814-6.236613 4.582814-6.087173C4.582814-5.858032 4.762142-5.738481 4.951432-5.738481C5.210461-5.738481 5.499377-5.957659 5.499377-6.336239C5.499377-6.794521 5.041096-7.023661 4.632628-7.023661C4.293898-7.023661 3.666252-6.844334 3.367372-5.858032C3.307597-5.648817 3.277709-5.549191 3.038605-4.293898H2.351183C2.161893-4.293898 2.052304-4.293898 2.052304-4.104608C2.052304-3.985056 2.141968-3.985056 2.331258-3.985056H2.988792L2.241594-.049813C2.062267 .916563 1.892902 1.823163 1.374844 1.823163C1.334994 1.823163 1.085928 1.823163 .896638 1.643836C1.354919 1.613948 1.444583 1.255293 1.444583 1.105853C1.444583 .876712 1.265255 .757161 1.075965 .757161C.816936 .757161 .52802 .976339 .52802 1.354919C.52802 1.803238 .966376 2.042341 1.374844 2.042341C1.92279 2.042341 2.321295 1.454545 2.500623 1.075965C2.819427 .448319 3.048568-.757161 3.058531-.826899L3.656289-3.985056Z'/>
</defs>
<g id='page1' transform='matrix(1.165714 0 0 1.165714 0 0)'>
<rect x='124.036481' y='21.827464' width='219.92753' height='10.322388' fill='#242424'/>
<g fill='#f6f3e8'>
<use x='124.036481' y='29.299444' xlink:href='#g2-83'/>
<use x='130.719743' y='29.299444' xlink:href='#g2-98'/>
<use x='134.995377' y='29.299444' xlink:href='#g2-102'/>
<use x='143.712657' y='29.299444' xlink:href='#g4-61'/>
<use x='154.228737' y='29.299444' xlink:href='#g2-98'/>
<use x='160.718237' y='29.299444' xlink:href='#g0-3'/>
<use x='167.913442' y='29.299444' xlink:href='#g4-40'/>
<use x='171.787816' y='29.299444' xlink:href='#g2-83'/>
<use x='178.471078' y='29.299444' xlink:href='#g2-98'/>
<use x='182.746712' y='29.299444' xlink:href='#g4-49'/>
<use x='189.941917' y='29.299444' xlink:href='#g4-43'/>
<use x='199.904531' y='29.299444' xlink:href='#g2-83'/>
<use x='206.013576' y='30.793825' xlink:href='#g3-110'/>
<use x='210.938439' y='30.793825' xlink:href='#g1-0'/>
<use x='217.165118' y='30.793825' xlink:href='#g5-49'/>
<use x='221.136359' y='30.793825' xlink:href='#g3-59'/>
<use x='223.5025' y='30.793825' xlink:href='#g5-48'/>
<use x='230.185702' y='29.299444' xlink:href='#g4-43'/>
<use x='240.148316' y='29.299444' xlink:href='#g2-83'/>
<use x='246.257361' y='30.793825' xlink:href='#g3-110'/>
<use x='251.182224' y='30.793825' xlink:href='#g1-0'/>
<use x='257.408903' y='30.793825' xlink:href='#g5-49'/>
<use x='261.380144' y='30.793825' xlink:href='#g3-59'/>
<use x='263.746285' y='30.793825' xlink:href='#g5-48'/>
<use x='270.429487' y='29.299444' xlink:href='#g4-43'/>
<use x='280.392101' y='29.299444' xlink:href='#g2-58'/>
<use x='283.159509' y='29.299444' xlink:href='#g2-58'/>
<use x='285.926918' y='29.299444' xlink:href='#g2-58'/>
<use x='290.908192' y='29.299444' xlink:href='#g4-43'/>
<use x='300.870806' y='29.299444' xlink:href='#g2-83'/>
<use x='306.979851' y='30.793825' xlink:href='#g3-110'/>
<use x='311.904713' y='30.793825' xlink:href='#g1-0'/>
<use x='318.131393' y='30.793825' xlink:href='#g5-49'/>
<use x='322.102633' y='30.793825' xlink:href='#g3-59'/>
<use x='324.468775' y='30.793825' xlink:href='#g3-110'/>
<use x='329.393637' y='30.793825' xlink:href='#g1-0'/>
<use x='335.620317' y='30.793825' xlink:href='#g5-50'/>
<use x='340.089637' y='29.299444' xlink:href='#g4-41'/>
</g>
</g>
</svg>