<?xml version='1.0' encoding='UTF-8'?>
<!-- This file was generated by dvisvgm 2.8.1 -->
<svg version='1.1' xmlns='http://www.w3.org/2000/svg' xmlns:xlink='http://www.w3.org/1999/xlink' width='109.522741pt' height='27.872904pt' viewBox='218.016001 21.379816 109.522741 27.872904'>
<defs>
<path id='g0-0' d='M6.56538-2.291407C6.734745-2.291407 6.914072-2.291407 6.914072-2.49066S6.734745-2.689913 6.56538-2.689913H1.175592C1.006227-2.689913 .826899-2.689913 .826899-2.49066S1.006227-2.291407 1.175592-2.291407H6.56538Z'/>
<path id='g3-20' d='M2.49066 23.501868H5.110834V22.953923H3.038605V.14944H5.110834V-.398506H2.49066V23.501868Z'/>
<path id='g3-21' d='M2.211706 22.953923H.139477V23.501868H2.759651V-.398506H.139477V.14944H2.211706V22.953923Z'/>
<path id='g2-40' d='M3.297634 2.391034C3.297634 2.361146 3.297634 2.34122 3.128269 2.171856C1.882939 .916563 1.564134-.966376 1.564134-2.49066C1.564134-4.224159 1.942715-5.957659 3.16812-7.202989C3.297634-7.32254 3.297634-7.342466 3.297634-7.372354C3.297634-7.442092 3.257783-7.47198 3.198007-7.47198C3.098381-7.47198 2.201743-6.794521 1.613948-5.529265C1.105853-4.433375 .986301-3.327522 .986301-2.49066C.986301-1.713574 1.09589-.508095 1.643836 .617684C2.241594 1.843088 3.098381 2.49066 3.198007 2.49066C3.257783 2.49066 3.297634 2.460772 3.297634 2.391034Z'/>
<path id='g2-41' d='M2.879203-2.49066C2.879203-3.267746 2.769614-4.473225 2.221669-5.599004C1.62391-6.824408 .767123-7.47198 .667497-7.47198C.607721-7.47198 .56787-7.43213 .56787-7.372354C.56787-7.342466 .56787-7.32254 .757161-7.143213C1.733499-6.156912 2.30137-4.572852 2.30137-2.49066C2.30137-.787049 1.932752 .966376 .697385 2.221669C.56787 2.34122 .56787 2.361146 .56787 2.391034C.56787 2.450809 .607721 2.49066 .667497 2.49066C.767123 2.49066 1.663761 1.8132 2.251557 .547945C2.759651-.547945 2.879203-1.653798 2.879203-2.49066Z'/>
<path id='g2-43' d='M4.07472-2.291407H6.854296C6.993773-2.291407 7.183064-2.291407 7.183064-2.49066S6.993773-2.689913 6.854296-2.689913H4.07472V-5.479452C4.07472-5.618929 4.07472-5.808219 3.875467-5.808219S3.676214-5.618929 3.676214-5.479452V-2.689913H.886675C.747198-2.689913 .557908-2.689913 .557908-2.49066S.747198-2.291407 .886675-2.291407H3.676214V.498132C3.676214 .637609 3.676214 .826899 3.875467 .826899S4.07472 .637609 4.07472 .498132V-2.291407Z'/>
<path id='g2-48' d='M4.582814-3.188045C4.582814-3.985056 4.533001-4.782067 4.184309-5.519303C3.726027-6.475716 2.909091-6.635118 2.49066-6.635118C1.892902-6.635118 1.165629-6.37609 .757161-5.449564C.438356-4.762142 .388543-3.985056 .388543-3.188045C.388543-2.440847 .428394-1.544209 .836862-.787049C1.265255 .019925 1.992528 .219178 2.480697 .219178C3.01868 .219178 3.775841 .009963 4.214197-.936488C4.533001-1.62391 4.582814-2.400996 4.582814-3.188045ZM2.480697 0C2.092154 0 1.504359-.249066 1.325031-1.205479C1.215442-1.803238 1.215442-2.719801 1.215442-3.307597C1.215442-3.945205 1.215442-4.60274 1.295143-5.140722C1.484433-6.326276 2.231631-6.41594 2.480697-6.41594C2.809465-6.41594 3.466999-6.236613 3.656289-5.250311C3.755915-4.692403 3.755915-3.935243 3.755915-3.307597C3.755915-2.560399 3.755915-1.882939 3.646326-1.24533C3.496887-.298879 2.929016 0 2.480697 0Z'/>
<path id='g2-49' d='M2.929016-6.37609C2.929016-6.615193 2.929016-6.635118 2.699875-6.635118C2.082192-5.997509 1.205479-5.997509 .886675-5.997509V-5.688667C1.085928-5.688667 1.673724-5.688667 2.191781-5.947696V-.787049C2.191781-.428394 2.161893-.308842 1.265255-.308842H.946451V0C1.295143-.029888 2.161893-.029888 2.560399-.029888S3.825654-.029888 4.174346 0V-.308842H3.855542C2.958904-.308842 2.929016-.418431 2.929016-.787049V-6.37609Z'/>
<path id='g2-50' d='M1.265255-.767123L2.321295-1.793275C3.875467-3.16812 4.473225-3.706102 4.473225-4.702366C4.473225-5.838107 3.576588-6.635118 2.361146-6.635118C1.235367-6.635118 .498132-5.718555 .498132-4.83188C.498132-4.273973 .996264-4.273973 1.026152-4.273973C1.195517-4.273973 1.544209-4.393524 1.544209-4.801993C1.544209-5.061021 1.364882-5.32005 1.016189-5.32005C.936488-5.32005 .916563-5.32005 .886675-5.310087C1.115816-5.957659 1.653798-6.326276 2.231631-6.326276C3.138232-6.326276 3.566625-5.519303 3.566625-4.702366C3.566625-3.905355 3.068493-3.118306 2.520548-2.500623L.607721-.368618C.498132-.259029 .498132-.239103 .498132 0H4.194271L4.473225-1.733499H4.224159C4.174346-1.43462 4.104608-.996264 4.004981-.846824C3.935243-.767123 3.277709-.767123 3.058531-.767123H1.265255Z'/>
<path id='g2-53' d='M4.473225-2.002491C4.473225-3.188045 3.656289-4.184309 2.580324-4.184309C2.102117-4.184309 1.673724-4.024907 1.315068-3.676214V-5.618929C1.514321-5.559153 1.843088-5.489415 2.161893-5.489415C3.387298-5.489415 4.084682-6.396015 4.084682-6.525529C4.084682-6.585305 4.054795-6.635118 3.985056-6.635118C3.975093-6.635118 3.955168-6.635118 3.905355-6.60523C3.706102-6.515567 3.217933-6.316314 2.550436-6.316314C2.15193-6.316314 1.693649-6.386052 1.225405-6.595268C1.145704-6.625156 1.125778-6.625156 1.105853-6.625156C1.006227-6.625156 1.006227-6.545455 1.006227-6.386052V-3.437111C1.006227-3.257783 1.006227-3.178082 1.145704-3.178082C1.215442-3.178082 1.235367-3.20797 1.275218-3.267746C1.384807-3.427148 1.753425-3.965131 2.560399-3.965131C3.078456-3.965131 3.327522-3.506849 3.407223-3.327522C3.566625-2.958904 3.58655-2.570361 3.58655-2.072229C3.58655-1.723537 3.58655-1.125778 3.347447-.707347C3.108344-.318804 2.739726-.059776 2.281445-.059776C1.554172-.059776 .986301-.587796 .816936-1.175592C.846824-1.165629 .876712-1.155666 .986301-1.155666C1.315068-1.155666 1.484433-1.404732 1.484433-1.643836S1.315068-2.132005 .986301-2.132005C.846824-2.132005 .498132-2.062267 .498132-1.603985C.498132-.747198 1.185554 .219178 2.30137 .219178C3.457036 .219178 4.473225-.737235 4.473225-2.002491Z'/>
<path id='g2-54' d='M1.315068-3.267746V-3.506849C1.315068-6.027397 2.550436-6.386052 3.058531-6.386052C3.297634-6.386052 3.716065-6.326276 3.935243-5.987547C3.785803-5.987547 3.387298-5.987547 3.387298-5.539228C3.387298-5.230386 3.626401-5.080946 3.845579-5.080946C4.004981-5.080946 4.303861-5.17061 4.303861-5.559153C4.303861-6.156912 3.865504-6.635118 3.038605-6.635118C1.763387-6.635118 .418431-5.349938 .418431-3.148194C.418431-.488169 1.574097 .219178 2.500623 .219178C3.606476 .219178 4.552927-.71731 4.552927-2.032379C4.552927-3.297634 3.666252-4.254047 2.560399-4.254047C1.882939-4.254047 1.514321-3.745953 1.315068-3.267746ZM2.500623-.059776C1.872976-.059776 1.574097-.657534 1.514321-.806974C1.334994-1.275218 1.334994-2.072229 1.334994-2.251557C1.334994-3.028643 1.653798-4.024907 2.550436-4.024907C2.709838-4.024907 3.16812-4.024907 3.476961-3.407223C3.656289-3.038605 3.656289-2.530511 3.656289-2.042341C3.656289-1.564134 3.656289-1.066002 3.486924-.707347C3.188045-.109589 2.729763-.059776 2.500623-.059776Z'/>
<path id='g2-61' d='M6.844334-3.257783C6.993773-3.257783 7.183064-3.257783 7.183064-3.457036S6.993773-3.656289 6.854296-3.656289H.886675C.747198-3.656289 .557908-3.656289 .557908-3.457036S.747198-3.257783 .896638-3.257783H6.844334ZM6.854296-1.325031C6.993773-1.325031 7.183064-1.325031 7.183064-1.524284S6.993773-1.723537 6.844334-1.723537H.896638C.747198-1.723537 .557908-1.723537 .557908-1.524284S.747198-1.325031 .886675-1.325031H6.854296Z'/>
<path id='g1-58' d='M1.912827-.52802C1.912827-.816936 1.673724-1.05604 1.384807-1.05604S.856787-.816936 .856787-.52802S1.09589 0 1.384807 0S1.912827-.239103 1.912827-.52802Z'/>
<path id='g1-72' d='M7.601494-6.03736C7.691158-6.396015 7.711083-6.495641 8.438356-6.495641C8.697385-6.495641 8.777086-6.495641 8.777086-6.694894C8.777086-6.804483 8.667497-6.804483 8.637609-6.804483C8.358655-6.804483 7.641345-6.774595 7.362391-6.774595C7.073474-6.774595 6.366127-6.804483 6.07721-6.804483C5.997509-6.804483 5.88792-6.804483 5.88792-6.60523C5.88792-6.495641 5.977584-6.495641 6.166874-6.495641C6.1868-6.495641 6.37609-6.495641 6.545455-6.475716C6.724782-6.455791 6.814446-6.445828 6.814446-6.316314C6.814446-6.276463 6.804483-6.256538 6.774595-6.127024L6.176837-3.696139H3.138232L3.726027-6.03736C3.815691-6.396015 3.845579-6.495641 4.562889-6.495641C4.821918-6.495641 4.901619-6.495641 4.901619-6.694894C4.901619-6.804483 4.79203-6.804483 4.762142-6.804483C4.483188-6.804483 3.765878-6.774595 3.486924-6.774595C3.198007-6.774595 2.49066-6.804483 2.201743-6.804483C2.122042-6.804483 2.012453-6.804483 2.012453-6.60523C2.012453-6.495641 2.102117-6.495641 2.291407-6.495641C2.311333-6.495641 2.500623-6.495641 2.669988-6.475716C2.849315-6.455791 2.938979-6.445828 2.938979-6.316314C2.938979-6.276463 2.929016-6.246575 2.899128-6.127024L1.564134-.777086C1.464508-.388543 1.444583-.308842 .657534-.308842C.478207-.308842 .388543-.308842 .388543-.109589C.388543 0 .508095 0 .52802 0C.806974 0 1.514321-.029888 1.793275-.029888C2.002491-.029888 2.221669-.019925 2.430884-.019925C2.650062-.019925 2.86924 0 3.078456 0C3.158157 0 3.277709 0 3.277709-.199253C3.277709-.308842 3.188045-.308842 2.998755-.308842C2.630137-.308842 2.351183-.308842 2.351183-.488169C2.351183-.547945 2.371108-.597758 2.381071-.657534L3.058531-3.387298H6.097136C5.678705-1.733499 5.449564-.787049 5.409714-.637609C5.310087-.318804 5.120797-.308842 4.503113-.308842C4.353674-.308842 4.26401-.308842 4.26401-.109589C4.26401 0 4.383562 0 4.403487 0C4.682441 0 5.389788-.029888 5.668742-.029888C5.877958-.029888 6.097136-.019925 6.306351-.019925C6.525529-.019925 6.744707 0 6.953923 0C7.033624 0 7.153176 0 7.153176-.199253C7.153176-.308842 7.063512-.308842 6.874222-.308842C6.505604-.308842 6.22665-.308842 6.22665-.488169C6.22665-.547945 6.246575-.597758 6.256538-.657534L7.601494-6.03736Z'/>
<path id='g1-122' d='M1.325031-.826899C1.863014-1.404732 2.15193-1.653798 2.510585-1.96264C2.510585-1.972603 3.128269-2.500623 3.486924-2.859278C4.433375-3.785803 4.652553-4.26401 4.652553-4.303861C4.652553-4.403487 4.562889-4.403487 4.542964-4.403487C4.473225-4.403487 4.443337-4.383562 4.393524-4.293898C4.094645-3.815691 3.88543-3.656289 3.646326-3.656289S3.287671-3.805729 3.138232-3.975093C2.948941-4.204234 2.779577-4.403487 2.450809-4.403487C1.703611-4.403487 1.24533-3.476961 1.24533-3.267746C1.24533-3.217933 1.275218-3.158157 1.364882-3.158157S1.474471-3.20797 1.494396-3.267746C1.683686-3.726027 2.261519-3.73599 2.34122-3.73599C2.550436-3.73599 2.739726-3.666252 2.968867-3.58655C3.367372-3.437111 3.476961-3.437111 3.73599-3.437111C3.377335-3.008717 2.540473-2.291407 2.351183-2.132005L1.454545-1.295143C.777086-.627646 .428394-.059776 .428394 .009963C.428394 .109589 .52802 .109589 .547945 .109589C.627646 .109589 .647572 .089664 .707347-.019925C.936488-.368618 1.235367-.637609 1.554172-.637609C1.783313-.637609 1.882939-.547945 2.132005-.259029C2.30137-.049813 2.480697 .109589 2.769614 .109589C3.755915 .109589 4.333748-1.155666 4.333748-1.424658C4.333748-1.474471 4.293898-1.524284 4.214197-1.524284C4.124533-1.524284 4.104608-1.464508 4.07472-1.39477C3.845579-.747198 3.20797-.557908 2.879203-.557908C2.67995-.557908 2.500623-.617684 2.291407-.687422C1.952677-.816936 1.803238-.856787 1.594022-.856787C1.574097-.856787 1.414695-.856787 1.325031-.826899Z'/>
</defs>
<g id='page1' transform='matrix(1.165714 0 0 1.165714 0 0)'>
<rect x='187.023531' y='18.340529' width='93.953331' height='23.910579' fill='#242424'/>
<g fill='#f6f3e8'>
<use x='187.023531' y='32.786475' xlink:href='#g1-72'/>
<use x='196.114421' y='32.786475' xlink:href='#g2-40'/>
<use x='199.988794' y='32.786475' xlink:href='#g1-122'/>
<use x='205.060079' y='32.786475' xlink:href='#g2-41'/>
<use x='211.701785' y='32.786475' xlink:href='#g2-61'/>
<use x='222.217865' y='18.739024' xlink:href='#g3-20'/>
<use x='231.35032' y='26.709228' xlink:href='#g0-0'/>
<use x='239.099068' y='26.709228' xlink:href='#g2-49'/>
<use x='257.917411' y='26.709228' xlink:href='#g2-43'/>
<use x='265.666159' y='26.709228' xlink:href='#g2-54'/>
<use x='270.647498' y='26.709228' xlink:href='#g1-122'/>
<use x='227.475949' y='38.664396' xlink:href='#g2-43'/>
<use x='235.224696' y='38.664396' xlink:href='#g2-48'/>
<use x='240.206035' y='38.664396' xlink:href='#g1-58'/>
<use x='242.973444' y='38.664396' xlink:href='#g2-53'/>
<use x='260.453053' y='38.664396' xlink:href='#g0-0'/>
<use x='268.201801' y='38.664396' xlink:href='#g2-50'/>
<use x='275.718774' y='18.739024' xlink:href='#g3-21'/>
</g>
</g>
</svg>