<?xml version='1.0' encoding='UTF-8'?>
<!-- This file was generated by dvisvgm 2.8.1 -->
<svg version='1.1' xmlns='http://www.w3.org/2000/svg' xmlns:xlink='http://www.w3.org/1999/xlink' width='133.477619pt' height='18.081275pt' viewBox='206.038563 20.562236 133.477619 18.081275'>
<defs>
<path id='g3-43' d='M3.228892-1.57609H5.362889C5.453549-1.57609 5.620922-1.57609 5.620922-1.743462C5.620922-1.917808 5.460523-1.917808 5.362889-1.917808H3.228892V-4.05878C3.228892-4.14944 3.228892-4.316812 3.061519-4.316812C2.887173-4.316812 2.887173-4.156413 2.887173-4.05878V-1.917808H.746202C.655542-1.917808 .488169-1.917808 .488169-1.750436C.488169-1.57609 .648568-1.57609 .746202-1.57609H2.887173V.564882C2.887173 .655542 2.887173 .822914 3.054545 .822914C3.228892 .822914 3.228892 .662516 3.228892 .564882V-1.57609Z'/>
<path id='g3-49' d='M2.336239-4.435367C2.336239-4.623661 2.322291-4.630635 2.127024-4.630635C1.680697-4.191283 1.046077-4.184309 .760149-4.184309V-3.93325C.927522-3.93325 1.387796-3.93325 1.771357-4.128518V-.571856C1.771357-.341719 1.771357-.251059 1.073973-.251059H.808966V0C.934496-.006974 1.792279-.027895 2.050311-.027895C2.266501-.027895 3.145205-.006974 3.29863 0V-.251059H3.033624C2.336239-.251059 2.336239-.341719 2.336239-.571856V-4.435367Z'/>
<path id='g3-50' d='M3.521793-1.26924H3.284682C3.263761-1.115816 3.194022-.704359 3.103362-.63462C3.047572-.592777 2.510585-.592777 2.412951-.592777H1.129763C1.862017-1.241345 2.106102-1.436613 2.524533-1.764384C3.040598-2.175841 3.521793-2.608219 3.521793-3.270735C3.521793-4.11457 2.782565-4.630635 1.889913-4.630635C1.025156-4.630635 .439352-4.02391 .439352-3.382316C.439352-3.02665 .739228-2.991781 .808966-2.991781C.976339-2.991781 1.17858-3.110336 1.17858-3.361395C1.17858-3.486924 1.129763-3.731009 .767123-3.731009C.983313-4.226152 1.457534-4.379577 1.785305-4.379577C2.48269-4.379577 2.84533-3.835616 2.84533-3.270735C2.84533-2.66401 2.412951-2.182814 2.189788-1.931756L.509091-.27198C.439352-.209215 .439352-.195268 .439352 0H3.312578L3.521793-1.26924Z'/>
<path id='g4-2' d='M2.012453 11.5467H3.92528V11.148194H2.410959V0H3.92528V-.398506H2.012453V11.5467Z'/>
<path id='g4-3' d='M2.132005 11.5467V-.398506H.219178V0H1.733499V11.148194H.219178V11.5467H2.132005Z'/>
<path id='g2-40' d='M3.297634 2.391034C3.297634 2.361146 3.297634 2.34122 3.128269 2.171856C1.882939 .916563 1.564134-.966376 1.564134-2.49066C1.564134-4.224159 1.942715-5.957659 3.16812-7.202989C3.297634-7.32254 3.297634-7.342466 3.297634-7.372354C3.297634-7.442092 3.257783-7.47198 3.198007-7.47198C3.098381-7.47198 2.201743-6.794521 1.613948-5.529265C1.105853-4.433375 .986301-3.327522 .986301-2.49066C.986301-1.713574 1.09589-.508095 1.643836 .617684C2.241594 1.843088 3.098381 2.49066 3.198007 2.49066C3.257783 2.49066 3.297634 2.460772 3.297634 2.391034Z'/>
<path id='g2-41' d='M2.879203-2.49066C2.879203-3.267746 2.769614-4.473225 2.221669-5.599004C1.62391-6.824408 .767123-7.47198 .667497-7.47198C.607721-7.47198 .56787-7.43213 .56787-7.372354C.56787-7.342466 .56787-7.32254 .757161-7.143213C1.733499-6.156912 2.30137-4.572852 2.30137-2.49066C2.30137-.787049 1.932752 .966376 .697385 2.221669C.56787 2.34122 .56787 2.361146 .56787 2.391034C.56787 2.450809 .607721 2.49066 .667497 2.49066C.767123 2.49066 1.663761 1.8132 2.251557 .547945C2.759651-.547945 2.879203-1.653798 2.879203-2.49066Z'/>
<path id='g2-61' d='M6.844334-3.257783C6.993773-3.257783 7.183064-3.257783 7.183064-3.457036S6.993773-3.656289 6.854296-3.656289H.886675C.747198-3.656289 .557908-3.656289 .557908-3.457036S.747198-3.257783 .896638-3.257783H6.844334ZM6.854296-1.325031C6.993773-1.325031 7.183064-1.325031 7.183064-1.524284S6.993773-1.723537 6.844334-1.723537H.896638C.747198-1.723537 .557908-1.723537 .557908-1.524284S.747198-1.325031 .886675-1.325031H6.854296Z'/>
<path id='g1-110' d='M.850809-.439352C.822914-.348692 .781071-.174346 .781071-.153425C.781071 0 .9066 .069738 1.018182 .069738C1.143711 .069738 1.255293-.020922 1.290162-.083686S1.380822-.369614 1.415691-.516065C1.45056-.648568 1.527273-.969365 1.569116-1.143711C1.610959-1.297136 1.652802-1.45056 1.687671-1.610959C1.764384-1.896887 1.778331-1.952677 1.980573-2.238605C2.175841-2.517559 2.503611-2.880199 3.02665-2.880199C3.431133-2.880199 3.438107-2.524533 3.438107-2.39203C3.438107-1.973599 3.138232-1.199502 3.02665-.9066C2.949938-.711333 2.922042-.648568 2.922042-.530012C2.922042-.160399 3.228892 .069738 3.584558 .069738C4.281943 .069738 4.588792-.892653 4.588792-.99726C4.588792-1.08792 4.498132-1.08792 4.47721-1.08792C4.379577-1.08792 4.372603-1.046077 4.344707-.969365C4.184309-.411457 3.884433-.125529 3.605479-.125529C3.459029-.125529 3.431133-.223163 3.431133-.369614C3.431133-.530012 3.466002-.620672 3.591532-.934496C3.675218-1.150685 3.961146-1.889913 3.961146-2.280448C3.961146-2.956912 3.424159-3.075467 3.054545-3.075467C2.475716-3.075467 2.085181-2.719801 1.875965-2.440847C1.827148-2.922042 1.415691-3.075467 1.129763-3.075467C.829888-3.075467 .669489-2.859278 .578829-2.698879C.425405-2.440847 .327771-2.043337 .327771-2.008468C.327771-1.917808 .425405-1.917808 .446326-1.917808C.54396-1.917808 .550934-1.93873 .599751-2.127024C.704359-2.538481 .836862-2.880199 1.108842-2.880199C1.290162-2.880199 1.338979-2.726775 1.338979-2.538481C1.338979-2.405978 1.276214-2.147945 1.227397-1.959651S1.108842-1.48543 1.073973-1.332005L.850809-.439352Z'/>
<path id='g0-80' d='M3.01868-3.148194H4.712329C6.127024-3.148194 7.511831-4.184309 7.511831-5.300125C7.511831-6.067248 6.854296-6.804483 5.549191-6.804483H2.321295C2.132005-6.804483 2.022416-6.804483 2.022416-6.615193C2.022416-6.495641 2.11208-6.495641 2.311333-6.495641C2.440847-6.495641 2.620174-6.485679 2.739726-6.475716C2.899128-6.455791 2.958904-6.425903 2.958904-6.316314C2.958904-6.276463 2.948941-6.246575 2.919054-6.127024L1.58406-.777086C1.484433-.388543 1.464508-.308842 .67746-.308842C.508095-.308842 .398506-.308842 .398506-.119552C.398506 0 .518057 0 .547945 0C.826899 0 1.534247-.029888 1.8132-.029888C2.022416-.029888 2.241594-.019925 2.450809-.019925C2.669988-.019925 2.889166 0 3.098381 0C3.16812 0 3.297634 0 3.297634-.199253C3.297634-.308842 3.20797-.308842 3.01868-.308842C2.650062-.308842 2.371108-.308842 2.371108-.488169C2.371108-.547945 2.391034-.597758 2.400996-.657534L3.01868-3.148194ZM3.73599-6.117061C3.825654-6.465753 3.845579-6.495641 4.273973-6.495641H5.230386C6.057285-6.495641 6.585305-6.22665 6.585305-5.539228C6.585305-5.150685 6.386052-4.293898 5.997509-3.935243C5.499377-3.486924 4.901619-3.407223 4.463263-3.407223H3.058531L3.73599-6.117061Z'/>
<path id='g0-97' d='M3.716065-3.765878C3.536737-4.134496 3.247821-4.403487 2.799502-4.403487C1.633873-4.403487 .398506-2.938979 .398506-1.484433C.398506-.547945 .946451 .109589 1.723537 .109589C1.92279 .109589 2.420922 .069738 3.01868-.637609C3.098381-.219178 3.447073 .109589 3.92528 .109589C4.273973 .109589 4.503113-.119552 4.662516-.438356C4.83188-.797011 4.961395-1.404732 4.961395-1.424658C4.961395-1.524284 4.871731-1.524284 4.841843-1.524284C4.742217-1.524284 4.732254-1.484433 4.702366-1.344956C4.533001-.697385 4.353674-.109589 3.945205-.109589C3.676214-.109589 3.646326-.368618 3.646326-.56787C3.646326-.787049 3.666252-.86675 3.775841-1.305106C3.88543-1.723537 3.905355-1.823163 3.995019-2.201743L4.353674-3.596513C4.423412-3.875467 4.423412-3.895392 4.423412-3.935243C4.423412-4.104608 4.303861-4.204234 4.134496-4.204234C3.895392-4.204234 3.745953-3.985056 3.716065-3.765878ZM3.068493-1.185554C3.01868-1.006227 3.01868-.986301 2.86924-.816936C2.430884-.268991 2.022416-.109589 1.743462-.109589C1.24533-.109589 1.105853-.657534 1.105853-1.046077C1.105853-1.544209 1.424658-2.769614 1.653798-3.227895C1.96264-3.815691 2.410959-4.184309 2.809465-4.184309C3.457036-4.184309 3.596513-3.367372 3.596513-3.307597S3.576588-3.188045 3.566625-3.138232L3.068493-1.185554Z'/>
<path id='g0-122' d='M1.325031-.826899C1.863014-1.404732 2.15193-1.653798 2.510585-1.96264C2.510585-1.972603 3.128269-2.500623 3.486924-2.859278C4.433375-3.785803 4.652553-4.26401 4.652553-4.303861C4.652553-4.403487 4.562889-4.403487 4.542964-4.403487C4.473225-4.403487 4.443337-4.383562 4.393524-4.293898C4.094645-3.815691 3.88543-3.656289 3.646326-3.656289S3.287671-3.805729 3.138232-3.975093C2.948941-4.204234 2.779577-4.403487 2.450809-4.403487C1.703611-4.403487 1.24533-3.476961 1.24533-3.267746C1.24533-3.217933 1.275218-3.158157 1.364882-3.158157S1.474471-3.20797 1.494396-3.267746C1.683686-3.726027 2.261519-3.73599 2.34122-3.73599C2.550436-3.73599 2.739726-3.666252 2.968867-3.58655C3.367372-3.437111 3.476961-3.437111 3.73599-3.437111C3.377335-3.008717 2.540473-2.291407 2.351183-2.132005L1.454545-1.295143C.777086-.627646 .428394-.059776 .428394 .009963C.428394 .109589 .52802 .109589 .547945 .109589C.627646 .109589 .647572 .089664 .707347-.019925C.936488-.368618 1.235367-.637609 1.554172-.637609C1.783313-.637609 1.882939-.547945 2.132005-.259029C2.30137-.049813 2.480697 .109589 2.769614 .109589C3.755915 .109589 4.333748-1.155666 4.333748-1.424658C4.333748-1.474471 4.293898-1.524284 4.214197-1.524284C4.124533-1.524284 4.104608-1.464508 4.07472-1.39477C3.845579-.747198 3.20797-.557908 2.879203-.557908C2.67995-.557908 2.500623-.617684 2.291407-.687422C1.952677-.816936 1.803238-.856787 1.594022-.856787C1.574097-.856787 1.414695-.856787 1.325031-.826899Z'/>
<path id='g0-126' d='M5.349938-5.927771C5.210461-5.798257 4.881694-5.519303 4.881694-5.339975C4.881694-5.240349 4.98132-5.140722 5.080946-5.140722C5.17061-5.140722 5.220423-5.210461 5.270237-5.270237C5.389788-5.419676 5.618929-5.69863 6.057285-5.917808C6.127024-5.957659 6.22665-6.007472 6.22665-6.127024C6.22665-6.22665 6.156912-6.276463 6.087173-6.326276C5.867995-6.475716 5.758406-6.655044 5.678705-6.894147C5.65878-6.983811 5.618929-7.113325 5.479452-7.113325S5.280199-6.983811 5.280199-6.90411C5.280199-6.854296 5.3599-6.535492 5.519303-6.326276H2.161893C1.992528-6.326276 1.8132-6.326276 1.8132-6.127024S1.992528-5.927771 2.161893-5.927771H5.349938Z'/>
</defs>
<g id='page1' transform='matrix(1.165714 0 0 1.165714 0 0)'>
<rect x='176.748767' y='17.639173' width='114.50286' height='15.510897' fill='#242424'/>
<g fill='#f6f3e8'>
<use x='176.748767' y='29.299444' xlink:href='#g0-80'/>
<use x='183.144917' y='30.793825' xlink:href='#g1-110'/>
<use x='188.56791' y='29.299444' xlink:href='#g2-40'/>
<use x='192.442284' y='29.299444' xlink:href='#g0-122'/>
<use x='197.513568' y='29.299444' xlink:href='#g2-41'/>
<use x='204.155274' y='29.299444' xlink:href='#g2-61'/>
<use x='237.950026' y='24.756923' xlink:href='#g0-126'/>
<use x='214.671354' y='21.229639' xlink:href='#g4-2'/>
<use x='225.538409' y='24.961722' xlink:href='#g3-50'/>
</g>
<rect x='220.017988' y='26.194419' height='.398484' width='15.012079' fill='#f6f3e8'/>
<g fill='#f6f3e8'>
<use x='220.017988' y='32.319841' xlink:href='#g1-110'/>
<use x='224.942851' y='32.319841' xlink:href='#g3-43'/>
<use x='231.058835' y='32.319841' xlink:href='#g3-49'/>
<use x='252.904156' y='24.961722' xlink:href='#g3-49'/>
</g>
<rect x='247.383735' y='26.194419' height='.398484' width='15.012079' fill='#f6f3e8'/>
<g fill='#f6f3e8'>
<use x='247.383735' y='32.319841' xlink:href='#g1-110'/>
<use x='252.308598' y='32.319841' xlink:href='#g3-43'/>
<use x='258.424582' y='32.319841' xlink:href='#g3-49'/>
<use x='263.591328' y='21.229639' xlink:href='#g4-3'/>
<use x='276.240154' y='26.116921' xlink:href='#g0-126'/>
<use x='267.742449' y='29.299444' xlink:href='#g0-97'/>
<use x='273.008603' y='30.793825' xlink:href='#g1-110'/>
<use x='278.431595' y='29.299444' xlink:href='#g2-40'/>
<use x='282.305969' y='29.299444' xlink:href='#g0-122'/>
<use x='287.377253' y='29.299444' xlink:href='#g2-41'/>
</g>
</g>
</svg>