<?xml version='1.0' encoding='UTF-8'?>
<!-- This file was generated by dvisvgm 2.8.1 -->
<svg version='1.1' xmlns='http://www.w3.org/2000/svg' xmlns:xlink='http://www.w3.org/1999/xlink' width='205.064275pt' height='29.683554pt' viewBox='169.954947 21.379829 205.064275 29.683554'>
<defs>
<path id='g0-0' d='M6.56538-2.291407C6.734745-2.291407 6.914072-2.291407 6.914072-2.49066S6.734745-2.689913 6.56538-2.689913H1.175592C1.006227-2.689913 .826899-2.689913 .826899-2.49066S1.006227-2.291407 1.175592-2.291407H6.56538Z'/>
<path id='g3-43' d='M4.07472-2.291407H6.854296C6.993773-2.291407 7.183064-2.291407 7.183064-2.49066S6.993773-2.689913 6.854296-2.689913H4.07472V-5.479452C4.07472-5.618929 4.07472-5.808219 3.875467-5.808219S3.676214-5.618929 3.676214-5.479452V-2.689913H.886675C.747198-2.689913 .557908-2.689913 .557908-2.49066S.747198-2.291407 .886675-2.291407H3.676214V.498132C3.676214 .637609 3.676214 .826899 3.875467 .826899S4.07472 .637609 4.07472 .498132V-2.291407Z'/>
<path id='g3-49' d='M2.929016-6.37609C2.929016-6.615193 2.929016-6.635118 2.699875-6.635118C2.082192-5.997509 1.205479-5.997509 .886675-5.997509V-5.688667C1.085928-5.688667 1.673724-5.688667 2.191781-5.947696V-.787049C2.191781-.428394 2.161893-.308842 1.265255-.308842H.946451V0C1.295143-.029888 2.161893-.029888 2.560399-.029888S3.825654-.029888 4.174346 0V-.308842H3.855542C2.958904-.308842 2.929016-.418431 2.929016-.787049V-6.37609Z'/>
<path id='g3-50' d='M1.265255-.767123L2.321295-1.793275C3.875467-3.16812 4.473225-3.706102 4.473225-4.702366C4.473225-5.838107 3.576588-6.635118 2.361146-6.635118C1.235367-6.635118 .498132-5.718555 .498132-4.83188C.498132-4.273973 .996264-4.273973 1.026152-4.273973C1.195517-4.273973 1.544209-4.393524 1.544209-4.801993C1.544209-5.061021 1.364882-5.32005 1.016189-5.32005C.936488-5.32005 .916563-5.32005 .886675-5.310087C1.115816-5.957659 1.653798-6.326276 2.231631-6.326276C3.138232-6.326276 3.566625-5.519303 3.566625-4.702366C3.566625-3.905355 3.068493-3.118306 2.520548-2.500623L.607721-.368618C.498132-.259029 .498132-.239103 .498132 0H4.194271L4.473225-1.733499H4.224159C4.174346-1.43462 4.104608-.996264 4.004981-.846824C3.935243-.767123 3.277709-.767123 3.058531-.767123H1.265255Z'/>
<path id='g3-61' d='M6.844334-3.257783C6.993773-3.257783 7.183064-3.257783 7.183064-3.457036S6.993773-3.656289 6.854296-3.656289H.886675C.747198-3.656289 .557908-3.656289 .557908-3.457036S.747198-3.257783 .896638-3.257783H6.844334ZM6.854296-1.325031C6.993773-1.325031 7.183064-1.325031 7.183064-1.524284S6.993773-1.723537 6.844334-1.723537H.896638C.747198-1.723537 .557908-1.723537 .557908-1.524284S.747198-1.325031 .886675-1.325031H6.854296Z'/>
<path id='g2-59' d='M1.471482-.111582C1.471482 .27198 1.401743 .718306 .927522 1.164633C.899626 1.192528 .878705 1.21345 .878705 1.248319C.878705 1.297136 .934496 1.345953 .976339 1.345953C1.073973 1.345953 1.66675 .788045 1.66675-.041843C1.66675-.474222 1.499377-.801993 1.17858-.801993C.948443-.801993 .781071-.620672 .781071-.404483C.781071-.18132 .941469 0 1.185554 0C1.352927 0 1.464508-.111582 1.471482-.111582Z'/>
<path id='g2-73' d='M2.880199-4.212204C2.942964-4.449315 2.956912-4.51208 3.47995-4.51208C3.654296-4.51208 3.737983-4.51208 3.737983-4.658531C3.737983-4.721295 3.689166-4.763138 3.626401-4.763138C3.47995-4.763138 3.305604-4.742217 3.159153-4.742217C3.005729-4.742217 2.838356-4.735243 2.684932-4.735243C2.684932-4.735243 2.203736-4.742217 2.203736-4.742217C2.050311-4.742217 1.875965-4.763138 1.72254-4.763138C1.680697-4.763138 1.57609-4.763138 1.57609-4.609714C1.57609-4.51208 1.652802-4.51208 1.806227-4.51208C1.8132-4.51208 1.952677-4.51208 2.071233-4.498132C2.21071-4.484184 2.259527-4.47721 2.259527-4.400498C2.259527-4.358655 2.245579-4.309838 2.231631-4.254047L1.30411-.550934C1.248319-.320797 1.227397-.251059 .704359-.251059C.516065-.251059 .446326-.251059 .446326-.097634C.446326-.09066 .446326 0 .557908 0C.767123 0 1.290162-.027895 1.499377-.027895L1.980573-.020922C2.133998-.020922 2.308344 0 2.461768 0C2.503611 0 2.608219 0 2.608219-.153425C2.608219-.251059 2.524533-.251059 2.385056-.251059C2.371108-.251059 2.224658-.251059 2.085181-.265006C1.924782-.278954 1.924782-.306849 1.924782-.369614C1.924782-.376588 1.924782-.418431 1.952677-.523039L2.880199-4.212204Z'/>
<path id='g2-97' d='M2.942964-2.66401C2.796513-2.894147 2.559402-3.075467 2.224658-3.075467C1.332005-3.075467 .425405-2.092154 .425405-1.08792C.425405-.411457 .878705 .069738 1.478456 .069738C1.855044 .069738 2.189788-.146451 2.468742-.418431C2.601245 0 3.005729 .069738 3.187049 .069738C3.438107 .069738 3.612453-.083686 3.737983-.299875C3.891407-.571856 3.982067-.969365 3.982067-.99726C3.982067-1.08792 3.891407-1.08792 3.870486-1.08792C3.772852-1.08792 3.765878-1.060025 3.717061-.871731C3.633375-.536986 3.500872-.125529 3.20797-.125529C3.02665-.125529 2.977833-.278954 2.977833-.467248C2.977833-.585803 3.033624-.836862 3.082441-1.018182C3.131258-1.206476 3.200996-1.492403 3.235866-1.645828L3.375342-2.175841C3.417186-2.357161 3.500872-2.684932 3.500872-2.719801C3.500872-2.873225 3.375342-2.942964 3.263761-2.942964C3.145205-2.942964 2.984807-2.859278 2.942964-2.66401ZM2.496638-.871731C2.447821-.676463 2.294396-.536986 2.140971-.404483C2.078207-.348692 1.799253-.125529 1.499377-.125529C1.241345-.125529 .990286-.306849 .990286-.801993C.990286-1.171606 1.192528-1.93873 1.352927-2.217684C1.673724-2.775592 2.02939-2.880199 2.224658-2.880199C2.712827-2.880199 2.84533-2.350187 2.84533-2.273474C2.84533-2.245579 2.831382-2.196762 2.824408-2.175841L2.496638-.871731Z'/>
<path id='g2-107' d='M2.182814-4.630635C2.189788-4.644583 2.21071-4.735243 2.21071-4.742217C2.21071-4.777086 2.182814-4.839851 2.099128-4.839851C1.959651-4.839851 1.380822-4.78406 1.206476-4.770112C1.150685-4.763138 1.053051-4.756164 1.053051-4.609714C1.053051-4.51208 1.150685-4.51208 1.234371-4.51208C1.569116-4.51208 1.569116-4.463263 1.569116-4.407472C1.569116-4.358655 1.555168-4.316812 1.54122-4.254047L.557908-.306849C.523039-.18132 .523039-.167372 .523039-.153425C.523039-.048817 .606725 .069738 .760149 .069738C.948443 .069738 1.039103-.069738 1.080946-.223163C1.094894-.251059 1.39477-1.478456 1.422665-1.57609C1.917808-1.527273 2.315318-1.366874 2.315318-1.004234C2.315318-.969365 2.315318-.934496 2.30137-.864757C2.273474-.760149 2.273474-.72528 2.273474-.648568C2.273474-.153425 2.677958 .069738 3.012702 .069738C3.689166 .069738 3.898381-.990286 3.898381-.99726C3.898381-1.08792 3.807721-1.08792 3.7868-1.08792C3.689166-1.08792 3.682192-1.053051 3.647323-.920548C3.563636-.620672 3.375342-.125529 3.033624-.125529C2.84533-.125529 2.789539-.299875 2.789539-.488169C2.789539-.606725 2.789539-.620672 2.831382-.801993C2.838356-.822914 2.866252-.941469 2.866252-1.018182C2.866252-1.638854 2.02939-1.736488 1.736488-1.75741C1.93873-1.882939 2.196762-2.113076 2.315318-2.217684C2.670984-2.552428 3.019676-2.880199 3.410212-2.880199C3.493898-2.880199 3.584558-2.859278 3.640349-2.789539C3.340473-2.740722 3.277709-2.503611 3.277709-2.399004C3.277709-2.245579 3.396264-2.140971 3.556663-2.140971C3.744956-2.140971 3.954172-2.294396 3.954172-2.587298C3.954172-2.817435 3.7868-3.075467 3.417186-3.075467C3.019676-3.075467 2.657036-2.789539 2.30137-2.461768C2.008468-2.182814 1.778331-1.966625 1.492403-1.84807L2.182814-4.630635Z'/>
<path id='g2-110' d='M.850809-.439352C.822914-.348692 .781071-.174346 .781071-.153425C.781071 0 .9066 .069738 1.018182 .069738C1.143711 .069738 1.255293-.020922 1.290162-.083686S1.380822-.369614 1.415691-.516065C1.45056-.648568 1.527273-.969365 1.569116-1.143711C1.610959-1.297136 1.652802-1.45056 1.687671-1.610959C1.764384-1.896887 1.778331-1.952677 1.980573-2.238605C2.175841-2.517559 2.503611-2.880199 3.02665-2.880199C3.431133-2.880199 3.438107-2.524533 3.438107-2.39203C3.438107-1.973599 3.138232-1.199502 3.02665-.9066C2.949938-.711333 2.922042-.648568 2.922042-.530012C2.922042-.160399 3.228892 .069738 3.584558 .069738C4.281943 .069738 4.588792-.892653 4.588792-.99726C4.588792-1.08792 4.498132-1.08792 4.47721-1.08792C4.379577-1.08792 4.372603-1.046077 4.344707-.969365C4.184309-.411457 3.884433-.125529 3.605479-.125529C3.459029-.125529 3.431133-.223163 3.431133-.369614C3.431133-.530012 3.466002-.620672 3.591532-.934496C3.675218-1.150685 3.961146-1.889913 3.961146-2.280448C3.961146-2.956912 3.424159-3.075467 3.054545-3.075467C2.475716-3.075467 2.085181-2.719801 1.875965-2.440847C1.827148-2.922042 1.415691-3.075467 1.129763-3.075467C.829888-3.075467 .669489-2.859278 .578829-2.698879C.425405-2.440847 .327771-2.043337 .327771-2.008468C.327771-1.917808 .425405-1.917808 .446326-1.917808C.54396-1.917808 .550934-1.93873 .599751-2.127024C.704359-2.538481 .836862-2.880199 1.108842-2.880199C1.290162-2.880199 1.338979-2.726775 1.338979-2.538481C1.338979-2.405978 1.276214-2.147945 1.227397-1.959651S1.108842-1.48543 1.073973-1.332005L.850809-.439352Z'/>
<path id='g4-43' d='M3.228892-1.57609H5.362889C5.453549-1.57609 5.620922-1.57609 5.620922-1.743462C5.620922-1.917808 5.460523-1.917808 5.362889-1.917808H3.228892V-4.05878C3.228892-4.14944 3.228892-4.316812 3.061519-4.316812C2.887173-4.316812 2.887173-4.156413 2.887173-4.05878V-1.917808H.746202C.655542-1.917808 .488169-1.917808 .488169-1.750436C.488169-1.57609 .648568-1.57609 .746202-1.57609H2.887173V.564882C2.887173 .655542 2.887173 .822914 3.054545 .822914C3.228892 .822914 3.228892 .662516 3.228892 .564882V-1.57609Z'/>
<path id='g4-48' d='M3.598506-2.224658C3.598506-2.991781 3.507846-3.542715 3.187049-4.030884C2.970859-4.351681 2.538481-4.630635 1.980573-4.630635C.36264-4.630635 .36264-2.726775 .36264-2.224658S.36264 .139477 1.980573 .139477S3.598506-1.72254 3.598506-2.224658ZM1.980573-.055791C1.659776-.055791 1.234371-.244085 1.094894-.81594C.99726-1.227397 .99726-1.799253 .99726-2.315318C.99726-2.824408 .99726-3.354421 1.101868-3.737983C1.248319-4.288917 1.694645-4.435367 1.980573-4.435367C2.357161-4.435367 2.719801-4.20523 2.84533-3.800747C2.956912-3.424159 2.963885-2.922042 2.963885-2.315318C2.963885-1.799253 2.963885-1.283188 2.873225-.843836C2.733748-.209215 2.259527-.055791 1.980573-.055791Z'/>
<path id='g4-49' d='M2.336239-4.435367C2.336239-4.623661 2.322291-4.630635 2.127024-4.630635C1.680697-4.191283 1.046077-4.184309 .760149-4.184309V-3.93325C.927522-3.93325 1.387796-3.93325 1.771357-4.128518V-.571856C1.771357-.341719 1.771357-.251059 1.073973-.251059H.808966V0C.934496-.006974 1.792279-.027895 2.050311-.027895C2.266501-.027895 3.145205-.006974 3.29863 0V-.251059H3.033624C2.336239-.251059 2.336239-.341719 2.336239-.571856V-4.435367Z'/>
<path id='g1-80' d='M3.01868-3.148194H4.712329C6.127024-3.148194 7.511831-4.184309 7.511831-5.300125C7.511831-6.067248 6.854296-6.804483 5.549191-6.804483H2.321295C2.132005-6.804483 2.022416-6.804483 2.022416-6.615193C2.022416-6.495641 2.11208-6.495641 2.311333-6.495641C2.440847-6.495641 2.620174-6.485679 2.739726-6.475716C2.899128-6.455791 2.958904-6.425903 2.958904-6.316314C2.958904-6.276463 2.948941-6.246575 2.919054-6.127024L1.58406-.777086C1.484433-.388543 1.464508-.308842 .67746-.308842C.508095-.308842 .398506-.308842 .398506-.119552C.398506 0 .518057 0 .547945 0C.826899 0 1.534247-.029888 1.8132-.029888C2.022416-.029888 2.241594-.019925 2.450809-.019925C2.669988-.019925 2.889166 0 3.098381 0C3.16812 0 3.297634 0 3.297634-.199253C3.297634-.308842 3.20797-.308842 3.01868-.308842C2.650062-.308842 2.371108-.308842 2.371108-.488169C2.371108-.547945 2.391034-.597758 2.400996-.657534L3.01868-3.148194ZM3.73599-6.117061C3.825654-6.465753 3.845579-6.495641 4.273973-6.495641H5.230386C6.057285-6.495641 6.585305-6.22665 6.585305-5.539228C6.585305-5.150685 6.386052-4.293898 5.997509-3.935243C5.499377-3.486924 4.901619-3.407223 4.463263-3.407223H3.058531L3.73599-6.117061Z'/>
<path id='g1-97' d='M3.716065-3.765878C3.536737-4.134496 3.247821-4.403487 2.799502-4.403487C1.633873-4.403487 .398506-2.938979 .398506-1.484433C.398506-.547945 .946451 .109589 1.723537 .109589C1.92279 .109589 2.420922 .069738 3.01868-.637609C3.098381-.219178 3.447073 .109589 3.92528 .109589C4.273973 .109589 4.503113-.119552 4.662516-.438356C4.83188-.797011 4.961395-1.404732 4.961395-1.424658C4.961395-1.524284 4.871731-1.524284 4.841843-1.524284C4.742217-1.524284 4.732254-1.484433 4.702366-1.344956C4.533001-.697385 4.353674-.109589 3.945205-.109589C3.676214-.109589 3.646326-.368618 3.646326-.56787C3.646326-.787049 3.666252-.86675 3.775841-1.305106C3.88543-1.723537 3.905355-1.823163 3.995019-2.201743L4.353674-3.596513C4.423412-3.875467 4.423412-3.895392 4.423412-3.935243C4.423412-4.104608 4.303861-4.204234 4.134496-4.204234C3.895392-4.204234 3.745953-3.985056 3.716065-3.765878ZM3.068493-1.185554C3.01868-1.006227 3.01868-.986301 2.86924-.816936C2.430884-.268991 2.022416-.109589 1.743462-.109589C1.24533-.109589 1.105853-.657534 1.105853-1.046077C1.105853-1.544209 1.424658-2.769614 1.653798-3.227895C1.96264-3.815691 2.410959-4.184309 2.809465-4.184309C3.457036-4.184309 3.596513-3.367372 3.596513-3.307597S3.576588-3.188045 3.566625-3.138232L3.068493-1.185554Z'/>
<path id='g1-110' d='M.876712-.587796C.846824-.438356 .787049-.209215 .787049-.159402C.787049 .019925 .926526 .109589 1.075965 .109589C1.195517 .109589 1.374844 .029888 1.444583-.169365C1.454545-.18929 1.574097-.657534 1.633873-.9066L1.853051-1.803238C1.912827-2.022416 1.972603-2.241594 2.022416-2.470735C2.062267-2.6401 2.141968-2.929016 2.15193-2.968867C2.30137-3.277709 2.82939-4.184309 3.775841-4.184309C4.224159-4.184309 4.313823-3.815691 4.313823-3.486924C4.313823-2.86924 3.825654-1.594022 3.666252-1.165629C3.576588-.936488 3.566625-.816936 3.566625-.707347C3.566625-.239103 3.915318 .109589 4.383562 .109589C5.32005 .109589 5.688667-1.344956 5.688667-1.424658C5.688667-1.524284 5.599004-1.524284 5.569116-1.524284C5.469489-1.524284 5.469489-1.494396 5.419676-1.344956C5.220423-.667497 4.891656-.109589 4.403487-.109589C4.234122-.109589 4.164384-.209215 4.164384-.438356C4.164384-.687422 4.254047-.926526 4.343711-1.145704C4.533001-1.673724 4.951432-2.769614 4.951432-3.337484C4.951432-4.004981 4.523039-4.403487 3.805729-4.403487C2.909091-4.403487 2.420922-3.765878 2.251557-3.536737C2.201743-4.094645 1.793275-4.403487 1.334994-4.403487S.687422-4.014944 .587796-3.835616C.428394-3.496887 .288917-2.909091 .288917-2.86924C.288917-2.769614 .388543-2.769614 .408468-2.769614C.508095-2.769614 .518057-2.779577 .577833-2.998755C.747198-3.706102 .946451-4.184309 1.305106-4.184309C1.504359-4.184309 1.613948-4.054795 1.613948-3.726027C1.613948-3.516812 1.58406-3.407223 1.454545-2.889166L.876712-.587796Z'/>
</defs>
<g id='page1' transform='matrix(1.165714 0 0 1.165714 0 0)'>
<rect x='145.794685' y='18.34054' width='175.912981' height='25.463833' fill='#242424'/>
<g fill='#f6f3e8'>
<use x='145.794685' y='36.140277' xlink:href='#g1-97'/>
<use x='151.060839' y='31.352703' xlink:href='#g4-48'/>
<use x='155.03208' y='31.352703' xlink:href='#g2-59'/>
<use x='157.398221' y='31.352703' xlink:href='#g2-73'/>
<use x='151.060839' y='39.145593' xlink:href='#g2-110'/>
<use x='155.985702' y='39.145593' xlink:href='#g4-43'/>
<use x='162.101686' y='39.145593' xlink:href='#g4-49'/>
<use x='166.072926' y='39.145593' xlink:href='#g2-59'/>
<use x='168.439067' y='39.145593' xlink:href='#g2-107'/>
<use x='176.108162' y='36.140277' xlink:href='#g3-61'/>
<use x='186.624242' y='36.140277' xlink:href='#g1-97'/>
<use x='191.890396' y='31.352703' xlink:href='#g4-48'/>
<use x='195.861637' y='31.352703' xlink:href='#g2-59'/>
<use x='198.227778' y='31.352703' xlink:href='#g2-73'/>
<use x='191.890396' y='39.145593' xlink:href='#g2-110'/>
<use x='196.815259' y='39.145593' xlink:href='#g2-59'/>
<use x='199.1814' y='39.145593' xlink:href='#g2-107'/>
<use x='206.297034' y='36.140277' xlink:href='#g0-0'/>
<use x='220.9255' y='29.400475' xlink:href='#g3-50'/>
<use x='225.90684' y='29.400475' xlink:href='#g1-80'/>
<use x='232.302989' y='30.894856' xlink:href='#g2-97'/>
</g>
<rect x='217.455162' y='33.450367' height='.398484' width='23.137736' fill='#f6f3e8'/>
<g fill='#f6f3e8'>
<use x='217.455162' y='42.974147' xlink:href='#g1-110'/>
<use x='225.648953' y='42.974147' xlink:href='#g3-43'/>
<use x='235.611566' y='42.974147' xlink:href='#g3-49'/>
<use x='242.983925' y='27.893583' xlink:href='#g1-97'/>
<use x='248.250079' y='23.10601' xlink:href='#g4-48'/>
<use x='252.22132' y='23.10601' xlink:href='#g2-59'/>
<use x='254.587461' y='23.10601' xlink:href='#g2-73'/>
<use x='248.250079' y='30.8989' xlink:href='#g2-110'/>
<use x='253.174942' y='30.8989' xlink:href='#g2-59'/>
<use x='255.541083' y='30.8989' xlink:href='#g2-107'/>
</g>
<rect x='242.983925' y='33.450367' height='.398484' width='17.458913' fill='#f6f3e8'/>
<g fill='#f6f3e8'>
<use x='249.222721' y='42.974147' xlink:href='#g3-50'/>
<use x='263.852218' y='36.140277' xlink:href='#g3-43'/>
<use x='284.088545' y='29.400475' xlink:href='#g3-49'/>
</g>
<rect x='275.010345' y='33.450367' height='.398484' width='23.137736' fill='#f6f3e8'/>
<g fill='#f6f3e8'>
<use x='275.010345' y='42.974147' xlink:href='#g1-110'/>
<use x='283.204136' y='42.974147' xlink:href='#g3-43'/>
<use x='293.166749' y='42.974147' xlink:href='#g3-49'/>
<use x='299.343595' y='36.140277' xlink:href='#g1-97'/>
<use x='304.609749' y='31.352703' xlink:href='#g4-49'/>
<use x='308.580989' y='31.352703' xlink:href='#g2-59'/>
<use x='310.94713' y='31.352703' xlink:href='#g2-73'/>
<use x='315.020081' y='31.352703' xlink:href='#g2-59'/>
<use x='317.386222' y='31.352703' xlink:href='#g2-97'/>
<use x='304.609749' y='39.145593' xlink:href='#g2-110'/>
<use x='309.534611' y='39.145593' xlink:href='#g2-59'/>
<use x='311.900752' y='39.145593' xlink:href='#g2-107'/>
</g>
</g>
</svg>