<?xml version='1.0' encoding='UTF-8'?>
<!-- This file was generated by dvisvgm 2.8.1 -->
<svg version='1.1' xmlns='http://www.w3.org/2000/svg' xmlns:xlink='http://www.w3.org/1999/xlink' width='143.874857pt' height='24.275144pt' viewBox='200.83995 21.379827 143.874857 24.275144'>
<defs>
<path id='g0-0' d='M6.56538-2.291407C6.734745-2.291407 6.914072-2.291407 6.914072-2.49066S6.734745-2.689913 6.56538-2.689913H1.175592C1.006227-2.689913 .826899-2.689913 .826899-2.49066S1.006227-2.291407 1.175592-2.291407H6.56538Z'/>
<path id='g0-3' d='M2.739726-4.254047C2.749689-4.393524 2.749689-4.632628 2.49066-4.632628C2.331258-4.632628 2.201743-4.503113 2.231631-4.373599V-4.244085L2.371108-2.699875L1.09589-3.626401C1.006227-3.676214 .986301-3.696139 .916563-3.696139C.777086-3.696139 .647572-3.556663 .647572-3.417186C.647572-3.257783 .747198-3.217933 .846824-3.16812L2.261519-2.49066L.886675-1.823163C.727273-1.743462 .647572-1.703611 .647572-1.554172S.777086-1.275218 .916563-1.275218C.986301-1.275218 1.006227-1.275218 1.255293-1.464508L2.371108-2.271482L2.221669-.597758C2.221669-.388543 2.400996-.33873 2.480697-.33873C2.600249-.33873 2.749689-.408468 2.749689-.597758L2.600249-2.271482L3.875467-1.344956C3.965131-1.295143 3.985056-1.275218 4.054795-1.275218C4.194271-1.275218 4.323786-1.414695 4.323786-1.554172C4.323786-1.703611 4.234122-1.753425 4.11457-1.8132C3.516812-2.11208 3.496887-2.11208 2.709838-2.480697L4.084682-3.148194C4.244085-3.227895 4.323786-3.267746 4.323786-3.417186S4.194271-3.696139 4.054795-3.696139C3.985056-3.696139 3.965131-3.696139 3.716065-3.506849L2.600249-2.699875L2.739726-4.254047Z'/>
<path id='g2-40' d='M3.297634 2.391034C3.297634 2.361146 3.297634 2.34122 3.128269 2.171856C1.882939 .916563 1.564134-.966376 1.564134-2.49066C1.564134-4.224159 1.942715-5.957659 3.16812-7.202989C3.297634-7.32254 3.297634-7.342466 3.297634-7.372354C3.297634-7.442092 3.257783-7.47198 3.198007-7.47198C3.098381-7.47198 2.201743-6.794521 1.613948-5.529265C1.105853-4.433375 .986301-3.327522 .986301-2.49066C.986301-1.713574 1.09589-.508095 1.643836 .617684C2.241594 1.843088 3.098381 2.49066 3.198007 2.49066C3.257783 2.49066 3.297634 2.460772 3.297634 2.391034Z'/>
<path id='g2-41' d='M2.879203-2.49066C2.879203-3.267746 2.769614-4.473225 2.221669-5.599004C1.62391-6.824408 .767123-7.47198 .667497-7.47198C.607721-7.47198 .56787-7.43213 .56787-7.372354C.56787-7.342466 .56787-7.32254 .757161-7.143213C1.733499-6.156912 2.30137-4.572852 2.30137-2.49066C2.30137-.787049 1.932752 .966376 .697385 2.221669C.56787 2.34122 .56787 2.361146 .56787 2.391034C.56787 2.450809 .607721 2.49066 .667497 2.49066C.767123 2.49066 1.663761 1.8132 2.251557 .547945C2.759651-.547945 2.879203-1.653798 2.879203-2.49066Z'/>
<path id='g2-43' d='M4.07472-2.291407H6.854296C6.993773-2.291407 7.183064-2.291407 7.183064-2.49066S6.993773-2.689913 6.854296-2.689913H4.07472V-5.479452C4.07472-5.618929 4.07472-5.808219 3.875467-5.808219S3.676214-5.618929 3.676214-5.479452V-2.689913H.886675C.747198-2.689913 .557908-2.689913 .557908-2.49066S.747198-2.291407 .886675-2.291407H3.676214V.498132C3.676214 .637609 3.676214 .826899 3.875467 .826899S4.07472 .637609 4.07472 .498132V-2.291407Z'/>
<path id='g2-49' d='M2.929016-6.37609C2.929016-6.615193 2.929016-6.635118 2.699875-6.635118C2.082192-5.997509 1.205479-5.997509 .886675-5.997509V-5.688667C1.085928-5.688667 1.673724-5.688667 2.191781-5.947696V-.787049C2.191781-.428394 2.161893-.308842 1.265255-.308842H.946451V0C1.295143-.029888 2.161893-.029888 2.560399-.029888S3.825654-.029888 4.174346 0V-.308842H3.855542C2.958904-.308842 2.929016-.418431 2.929016-.787049V-6.37609Z'/>
<path id='g2-50' d='M1.265255-.767123L2.321295-1.793275C3.875467-3.16812 4.473225-3.706102 4.473225-4.702366C4.473225-5.838107 3.576588-6.635118 2.361146-6.635118C1.235367-6.635118 .498132-5.718555 .498132-4.83188C.498132-4.273973 .996264-4.273973 1.026152-4.273973C1.195517-4.273973 1.544209-4.393524 1.544209-4.801993C1.544209-5.061021 1.364882-5.32005 1.016189-5.32005C.936488-5.32005 .916563-5.32005 .886675-5.310087C1.115816-5.957659 1.653798-6.326276 2.231631-6.326276C3.138232-6.326276 3.566625-5.519303 3.566625-4.702366C3.566625-3.905355 3.068493-3.118306 2.520548-2.500623L.607721-.368618C.498132-.259029 .498132-.239103 .498132 0H4.194271L4.473225-1.733499H4.224159C4.174346-1.43462 4.104608-.996264 4.004981-.846824C3.935243-.767123 3.277709-.767123 3.058531-.767123H1.265255Z'/>
<path id='g2-51' d='M2.889166-3.506849C3.706102-3.775841 4.283935-4.473225 4.283935-5.260274C4.283935-6.07721 3.407223-6.635118 2.450809-6.635118C1.444583-6.635118 .687422-6.03736 .687422-5.280199C.687422-4.951432 .9066-4.762142 1.195517-4.762142C1.504359-4.762142 1.703611-4.98132 1.703611-5.270237C1.703611-5.768369 1.235367-5.768369 1.085928-5.768369C1.39477-6.256538 2.052304-6.386052 2.410959-6.386052C2.819427-6.386052 3.367372-6.166874 3.367372-5.270237C3.367372-5.150685 3.347447-4.572852 3.088418-4.134496C2.789539-3.656289 2.450809-3.626401 2.201743-3.616438C2.122042-3.606476 1.882939-3.58655 1.8132-3.58655C1.733499-3.576588 1.663761-3.566625 1.663761-3.466999C1.663761-3.35741 1.733499-3.35741 1.902864-3.35741H2.34122C3.158157-3.35741 3.526775-2.67995 3.526775-1.703611C3.526775-.348692 2.839352-.059776 2.400996-.059776C1.972603-.059776 1.225405-.229141 .876712-.816936C1.225405-.767123 1.534247-.986301 1.534247-1.364882C1.534247-1.723537 1.265255-1.92279 .976339-1.92279C.737235-1.92279 .418431-1.783313 .418431-1.344956C.418431-.438356 1.344956 .219178 2.430884 .219178C3.646326 .219178 4.552927-.687422 4.552927-1.703611C4.552927-2.520548 3.92528-3.297634 2.889166-3.506849Z'/>
<path id='g2-61' d='M6.844334-3.257783C6.993773-3.257783 7.183064-3.257783 7.183064-3.457036S6.993773-3.656289 6.854296-3.656289H.886675C.747198-3.656289 .557908-3.656289 .557908-3.457036S.747198-3.257783 .896638-3.257783H6.844334ZM6.854296-1.325031C6.993773-1.325031 7.183064-1.325031 7.183064-1.524284S6.993773-1.723537 6.844334-1.723537H.896638C.747198-1.723537 .557908-1.723537 .557908-1.524284S.747198-1.325031 .886675-1.325031H6.854296Z'/>
<path id='g1-58' d='M1.912827-.52802C1.912827-.816936 1.673724-1.05604 1.384807-1.05604S.856787-.816936 .856787-.52802S1.09589 0 1.384807 0S1.912827-.239103 1.912827-.52802Z'/>
<path id='g1-78' d='M7.531756-5.758406C7.631382-6.156912 7.81071-6.465753 8.607721-6.495641C8.657534-6.495641 8.777086-6.505604 8.777086-6.694894C8.777086-6.704857 8.777086-6.804483 8.647572-6.804483C8.318804-6.804483 7.970112-6.774595 7.641345-6.774595C7.302615-6.774595 6.953923-6.804483 6.625156-6.804483C6.56538-6.804483 6.445828-6.804483 6.445828-6.60523C6.445828-6.495641 6.545455-6.495641 6.625156-6.495641C7.193026-6.485679 7.302615-6.276463 7.302615-6.057285C7.302615-6.027397 7.28269-5.877958 7.272727-5.84807L6.156912-1.414695L3.955168-6.615193C3.875467-6.794521 3.865504-6.804483 3.636364-6.804483H2.30137C2.102117-6.804483 2.012453-6.804483 2.012453-6.60523C2.012453-6.495641 2.102117-6.495641 2.291407-6.495641C2.34122-6.495641 2.968867-6.495641 2.968867-6.405978L1.633873-1.05604C1.534247-.657534 1.364882-.33873 .557908-.308842C.498132-.308842 .388543-.298879 .388543-.109589C.388543-.039851 .438356 0 .518057 0C.836862 0 1.185554-.029888 1.514321-.029888C1.853051-.029888 2.211706 0 2.540473 0C2.590286 0 2.719801 0 2.719801-.199253C2.719801-.298879 2.630137-.308842 2.520548-.308842C1.942715-.328767 1.863014-.547945 1.863014-.747198C1.863014-.816936 1.872976-.86675 1.902864-.976339L3.217933-6.236613C3.257783-6.176837 3.257783-6.156912 3.307597-6.057285L5.788294-.18929C5.858032-.019925 5.88792 0 5.977584 0C6.087173 0 6.087173-.029888 6.136986-.209215L7.531756-5.758406Z'/>
<path id='g1-110' d='M.876712-.587796C.846824-.438356 .787049-.209215 .787049-.159402C.787049 .019925 .926526 .109589 1.075965 .109589C1.195517 .109589 1.374844 .029888 1.444583-.169365C1.454545-.18929 1.574097-.657534 1.633873-.9066L1.853051-1.803238C1.912827-2.022416 1.972603-2.241594 2.022416-2.470735C2.062267-2.6401 2.141968-2.929016 2.15193-2.968867C2.30137-3.277709 2.82939-4.184309 3.775841-4.184309C4.224159-4.184309 4.313823-3.815691 4.313823-3.486924C4.313823-2.86924 3.825654-1.594022 3.666252-1.165629C3.576588-.936488 3.566625-.816936 3.566625-.707347C3.566625-.239103 3.915318 .109589 4.383562 .109589C5.32005 .109589 5.688667-1.344956 5.688667-1.424658C5.688667-1.524284 5.599004-1.524284 5.569116-1.524284C5.469489-1.524284 5.469489-1.494396 5.419676-1.344956C5.220423-.667497 4.891656-.109589 4.403487-.109589C4.234122-.109589 4.164384-.209215 4.164384-.438356C4.164384-.687422 4.254047-.926526 4.343711-1.145704C4.533001-1.673724 4.951432-2.769614 4.951432-3.337484C4.951432-4.004981 4.523039-4.403487 3.805729-4.403487C2.909091-4.403487 2.420922-3.765878 2.251557-3.536737C2.201743-4.094645 1.793275-4.403487 1.334994-4.403487S.687422-4.014944 .587796-3.835616C.428394-3.496887 .288917-2.909091 .288917-2.86924C.288917-2.769614 .388543-2.769614 .408468-2.769614C.508095-2.769614 .518057-2.779577 .577833-2.998755C.747198-3.706102 .946451-4.184309 1.305106-4.184309C1.504359-4.184309 1.613948-4.054795 1.613948-3.726027C1.613948-3.516812 1.58406-3.407223 1.454545-2.889166L.876712-.587796Z'/>
</defs>
<g id='page1' transform='matrix(1.165714 0 0 1.165714 0 0)'>
<rect x='172.289173' y='18.340538' width='123.422059' height='20.824266' fill='#242424'/>
<g fill='#f6f3e8'>
<use x='172.289173' y='31.500708' xlink:href='#g1-78'/>
<use x='184.147395' y='31.500708' xlink:href='#g2-61'/>
<use x='194.663475' y='31.500708' xlink:href='#g1-110'/>
<use x='202.857266' y='31.500708' xlink:href='#g0-3'/>
<use x='210.052471' y='31.500708' xlink:href='#g2-40'/>
<use x='213.926845' y='31.500708' xlink:href='#g2-49'/>
<use x='221.12205' y='31.500708' xlink:href='#g2-43'/>
<use x='232.280177' y='24.760906' xlink:href='#g2-49'/>
</g>
<rect x='232.280177' y='28.810798' height='.398484' width='4.981335' fill='#f6f3e8'/>
<g fill='#f6f3e8'>
<use x='232.280177' y='38.334578' xlink:href='#g2-50'/>
<use x='240.670892' y='31.500708' xlink:href='#g2-43'/>
<use x='251.82902' y='24.760906' xlink:href='#g2-49'/>
</g>
<rect x='251.82902' y='28.810798' height='.398484' width='4.981335' fill='#f6f3e8'/>
<g fill='#f6f3e8'>
<use x='251.82902' y='38.334578' xlink:href='#g2-51'/>
<use x='258.005869' y='31.500708' xlink:href='#g1-58'/>
<use x='260.773277' y='31.500708' xlink:href='#g1-58'/>
<use x='263.540686' y='31.500708' xlink:href='#g1-58'/>
<use x='276.581808' y='24.760906' xlink:href='#g2-49'/>
</g>
<rect x='267.503608' y='28.810798' height='.398484' width='23.137736' fill='#f6f3e8'/>
<g fill='#f6f3e8'>
<use x='267.503608' y='38.334578' xlink:href='#g1-110'/>
<use x='275.697399' y='38.334578' xlink:href='#g0-0'/>
<use x='285.660012' y='38.334578' xlink:href='#g2-49'/>
<use x='291.836858' y='31.500708' xlink:href='#g2-41'/>
</g>
</g>
</svg>