<?xml version='1.0' encoding='UTF-8'?>
<!-- This file was generated by dvisvgm 2.8.1 -->
<svg version='1.1' xmlns='http://www.w3.org/2000/svg' xmlns:xlink='http://www.w3.org/1999/xlink' width='37.705151pt' height='9.24705pt' viewBox='-16.945024 10.971421 37.705151 9.24705'>
<defs>
<path id='g2-116' d='M1.715567-2.75467H2.426899C2.559402-2.75467 2.650062-2.75467 2.650062-2.908095C2.650062-3.005729 2.559402-3.005729 2.440847-3.005729H1.778331L2.036364-4.037858C2.043337-4.072727 2.057285-4.107597 2.057285-4.135492C2.057285-4.261021 1.959651-4.358655 1.820174-4.358655C1.645828-4.358655 1.54122-4.2401 1.492403-4.05878C1.443587-3.884433 1.534247-4.219178 1.227397-3.005729H.516065C.383562-3.005729 .292902-3.005729 .292902-2.852304C.292902-2.75467 .376588-2.75467 .502117-2.75467H1.164633L.753176-1.108842C.711333-.934496 .648568-.683437 .648568-.592777C.648568-.18132 .99726 .069738 1.39477 .069738C2.168867 .069738 2.608219-.9066 2.608219-.99726S2.517559-1.08792 2.496638-1.08792C2.412951-1.08792 2.405978-1.073973 2.350187-.955417C2.154919-.516065 1.799253-.125529 1.415691-.125529C1.26924-.125529 1.171606-.216189 1.171606-.467248C1.171606-.536986 1.199502-.683437 1.21345-.753176L1.715567-2.75467Z'/>
<path id='g0-0' d='M5.188543-1.57609C5.300125-1.57609 5.467497-1.57609 5.467497-1.743462C5.467497-1.917808 5.307098-1.917808 5.188543-1.917808H1.03213C.920548-1.917808 .753176-1.917808 .753176-1.750436C.753176-1.57609 .913574-1.57609 1.03213-1.57609H5.188543Z'/>
<path id='g3-61' d='M6.844334-3.257783C6.993773-3.257783 7.183064-3.257783 7.183064-3.457036S6.993773-3.656289 6.854296-3.656289H.886675C.747198-3.656289 .557908-3.656289 .557908-3.457036S.747198-3.257783 .896638-3.257783H6.844334ZM6.854296-1.325031C6.993773-1.325031 7.183064-1.325031 7.183064-1.524284S6.993773-1.723537 6.844334-1.723537H.896638C.747198-1.723537 .557908-1.723537 .557908-1.524284S.747198-1.325031 .886675-1.325031H6.854296Z'/>
<path id='g1-101' d='M1.863014-2.30137C2.15193-2.30137 2.889166-2.321295 3.387298-2.530511C4.084682-2.82939 4.134496-3.417186 4.134496-3.556663C4.134496-3.995019 3.755915-4.403487 3.068493-4.403487C1.96264-4.403487 .458281-3.437111 .458281-1.693649C.458281-.67746 1.046077 .109589 2.022416 .109589C3.447073 .109589 4.283935-.946451 4.283935-1.066002C4.283935-1.125778 4.224159-1.195517 4.164384-1.195517C4.11457-1.195517 4.094645-1.175592 4.034869-1.09589C3.247821-.109589 2.161893-.109589 2.042341-.109589C1.265255-.109589 1.175592-.946451 1.175592-1.265255C1.175592-1.384807 1.185554-1.693649 1.334994-2.30137H1.863014ZM1.39477-2.520548C1.783313-4.034869 2.809465-4.184309 3.068493-4.184309C3.536737-4.184309 3.805729-3.895392 3.805729-3.556663C3.805729-2.520548 2.211706-2.520548 1.803238-2.520548H1.39477Z'/>
<path id='g1-118' d='M4.662516-3.706102C4.662516-4.244085 4.403487-4.403487 4.224159-4.403487C3.975093-4.403487 3.73599-4.144458 3.73599-3.92528C3.73599-3.795766 3.785803-3.73599 3.895392-3.626401C4.104608-3.427148 4.234122-3.16812 4.234122-2.809465C4.234122-2.391034 3.626401-.109589 2.460772-.109589C1.952677-.109589 1.723537-.458281 1.723537-.976339C1.723537-1.534247 1.992528-2.261519 2.30137-3.088418C2.371108-3.257783 2.420922-3.39726 2.420922-3.58655C2.420922-4.034869 2.102117-4.403487 1.603985-4.403487C.667497-4.403487 .288917-2.958904 .288917-2.86924C.288917-2.769614 .388543-2.769614 .408468-2.769614C.508095-2.769614 .518057-2.789539 .56787-2.948941C.856787-3.955168 1.285181-4.184309 1.574097-4.184309C1.653798-4.184309 1.823163-4.184309 1.823163-3.865504C1.823163-3.616438 1.723537-3.347447 1.653798-3.16812C1.215442-2.012453 1.085928-1.554172 1.085928-1.125778C1.085928-.049813 1.96264 .109589 2.420922 .109589C4.094645 .109589 4.662516-3.188045 4.662516-3.706102Z'/>
</defs>
<g id='page1' transform='matrix(1.165714 0 0 1.165714 0 0)'>
<rect x='-14.536172' y='9.411758' width='32.345105' height='7.932518' fill='#242424'/>
<g fill='#f6f3e8'>
<use x='-14.536172' y='17.344276' xlink:href='#g1-118'/>
<use x='-6.582269' y='17.344276' xlink:href='#g3-61'/>
<use x='3.933811' y='17.344276' xlink:href='#g1-101'/>
<use x='8.572682' y='13.728912' xlink:href='#g0-0'/>
<use x='14.799362' y='13.728912' xlink:href='#g2-116'/>
</g>
</g>
</svg>